<?xml version="1.0" encoding="UTF-8" standalone="no"?>
<!-- Created with Inkscape (http://www.inkscape.org/) -->
<svg
   xmlns:dc="http://purl.org/dc/elements/1.1/"
   xmlns:cc="http://creativecommons.org/ns#"
   xmlns:rdf="http://www.w3.org/1999/02/22-rdf-syntax-ns#"
   xmlns:svg="http://www.w3.org/2000/svg"
   xmlns="http://www.w3.org/2000/svg"
   xmlns:sodipodi="http://sodipodi.sourceforge.net/DTD/sodipodi-0.dtd"
   xmlns:inkscape="http://www.inkscape.org/namespaces/inkscape"
   width="467.89584"
   height="53.672096"
   id="svg2558"
   sodipodi:version="0.32"
   inkscape:version="0.46"
   sodipodi:docname="ADC.svg"
   inkscape:output_extension="org.inkscape.output.svg.inkscape"
   version="1.0">
  <defs
     id="defs2560">
    <marker
       inkscape:stockid="DotM"
       orient="auto"
       refY="0"
       refX="0"
       id="DotM"
       style="overflow:visible">
      <path
         id="path4001"
         d="M -2.5,-1 C -2.5,1.76 -4.74,4 -7.5,4 C -10.26,4 -12.5,1.76 -12.5,-1 C -12.5,-3.76 -10.26,-6 -7.5,-6 C -4.74,-6 -2.5,-3.76 -2.5,-1 z"
         style="fill-rule:evenodd;stroke:#000000;stroke-width:1pt;marker-start:none;marker-end:none"
         transform="matrix(0.4,0,0,0.4,2.96,0.4)" />
    </marker>
    <marker
       inkscape:stockid="Arrow1Mstart"
       orient="auto"
       refY="0"
       refX="0"
       id="Arrow1Mstart"
       style="overflow:visible">
      <path
         id="path3942"
         d="M 0,0 L 5,-5 L -12.5,0 L 5,5 L 0,0 z"
         style="fill-rule:evenodd;stroke:#000000;stroke-width:1pt;marker-start:none"
         transform="matrix(0.4,0,0,0.4,4,0)" />
    </marker>
    <marker
       inkscape:stockid="Arrow1Lend"
       orient="auto"
       refY="0"
       refX="0"
       id="Arrow1Lend"
       style="overflow:visible">
      <path
         id="path3939"
         d="M 0,0 L 5,-5 L -12.5,0 L 5,5 L 0,0 z"
         style="fill-rule:evenodd;stroke:#000000;stroke-width:1pt;marker-start:none"
         transform="matrix(-0.8,0,0,-0.8,-10,0)" />
    </marker>
    <marker
       inkscape:stockid="Arrow2Lend"
       orient="auto"
       refY="0"
       refX="0"
       id="Arrow2Lend"
       style="overflow:visible">
      <path
         id="path4030"
         style="font-size:12px;fill-rule:evenodd;stroke-width:0.625;stroke-linejoin:round"
         d="M 8.7185878,4.0337352 L -2.2072895,0.016013256 L 8.7185884,-4.0017078 C 6.97309,-1.6296469 6.9831476,1.6157441 8.7185878,4.0337352 z"
         transform="matrix(-1.1,0,0,-1.1,-1.1,0)" />
    </marker>
    <marker
       inkscape:stockid="Arrow1Mend"
       orient="auto"
       refY="0"
       refX="0"
       id="Arrow1Mend"
       style="overflow:visible">
      <path
         id="path4018"
         d="M 0,0 L 5,-5 L -12.5,0 L 5,5 L 0,0 z"
         style="fill-rule:evenodd;stroke:#000000;stroke-width:1pt;marker-start:none"
         transform="matrix(-0.4,0,0,-0.4,-4,0)" />
    </marker>
    <marker
       inkscape:stockid="Arrow2Mstart"
       orient="auto"
       refY="0"
       refX="0"
       id="Arrow2Mstart"
       style="overflow:visible">
      <path
         id="path3426"
         style="font-size:12px;fill-rule:evenodd;stroke-width:0.625;stroke-linejoin:round"
         d="M 8.7185878,4.0337352 L -2.2072895,0.016013256 L 8.7185884,-4.0017078 C 6.97309,-1.6296469 6.9831476,1.6157441 8.7185878,4.0337352 z"
         transform="scale(0.6,0.6)" />
    </marker>
    <inkscape:perspective
       sodipodi:type="inkscape:persp3d"
       inkscape:vp_x="0 : 600 : 1"
       inkscape:vp_y="0 : 1000 : 0"
       inkscape:vp_z="1600 : 600 : 1"
       inkscape:persp3d-origin="800 : 400 : 1"
       id="perspective2566" />
  </defs>
  <sodipodi:namedview
     id="base"
     pagecolor="#ffffff"
     bordercolor="#666666"
     borderopacity="1.0"
     inkscape:pageopacity="0.0"
     inkscape:pageshadow="2"
     inkscape:zoom="2.0709739"
     inkscape:cx="401.56767"
     inkscape:cy="-2.782739"
     inkscape:current-layer="layer1"
     inkscape:document-units="px"
     showgrid="true"
     inkscape:window-width="1410"
     inkscape:window-height="783"
     inkscape:window-x="249"
     inkscape:window-y="138"
     showguides="true"
     inkscape:guide-bbox="true">
    <inkscape:grid
       type="xygrid"
       id="grid2931"
       visible="true"
       enabled="true" />
    <sodipodi:guide
       orientation="0,1"
       position="358.33333,60.833333"
       id="guide3865" />
    <sodipodi:guide
       orientation="0,1"
       position="195.64331,125.9902"
       id="guide3479" />
  </sodipodi:namedview>
  <metadata
     id="metadata2563">
    <rdf:RDF>
      <cc:Work
         rdf:about="">
        <dc:format>image/svg+xml</dc:format>
        <dc:type
           rdf:resource="http://purl.org/dc/dcmitype/StillImage" />
      </cc:Work>
    </rdf:RDF>
  </metadata>
  <g
     id="layer1"
     inkscape:label="Layer 1"
     inkscape:groupmode="layer"
     transform="translate(-73.208947,-89.041943)">
    <path
       id="path16475"
       style="fill:#f8db60;fill-opacity:1;fill-rule:evenodd;stroke:none"
       d="M 105.4751,142.54799 L 174.92475,142.54799 L 175.375,142.39799 L 175.67475,142.24799 L 176.125,141.94799 L 176.27487,141.64799 L 176.57525,141.19799 L 176.57525,101.89799 L 176.27487,101.59799 L 176.125,101.14799 L 175.67475,100.99799 L 175.375,100.69799 L 104.5752,100.69799 L 104.2749,100.99799 L 103.8252,101.14799 L 103.6748,101.59799 L 103.375,101.89799 L 103.375,141.19799 L 103.6748,141.64799 L 103.8252,141.94799 L 104.2749,142.24799 L 104.5752,142.39799 L 105.0249,142.54799 L 105.4751,142.54799 L 105.4751,142.54799" />
    <path
       id="path16477"
       style="fill:none;stroke:#000000;stroke-width:0.33210003;stroke-linecap:round;stroke-linejoin:round;stroke-miterlimit:10;stroke-dasharray:none;stroke-opacity:1"
       d="M 105.4751,142.54799 L 174.92475,142.54799 L 175.375,142.39799 L 175.67475,142.24799 L 176.125,141.94799 L 176.27487,141.64799 L 176.57525,141.19799 L 176.57525,101.89799 L 176.27487,101.59799 L 176.125,101.14799 L 175.67475,100.99799 L 175.375,100.69799 L 104.5752,100.69799 L 104.2749,100.99799 L 103.8252,101.14799 L 103.6748,101.59799 L 103.375,101.89799 L 103.375,141.19799 L 103.6748,141.64799 L 103.8252,141.94799 L 104.2749,142.24799 L 104.5752,142.39799 L 105.0249,142.54799 L 105.4751,142.54799 L 105.4751,142.54799" />
    <path
       id="path16479"
       style="fill:#ffffff;fill-opacity:1;fill-rule:evenodd;stroke:none"
       d="M 169.375,121.54799 L 169.375,120.79799 L 169.22512,120.19799 L 168.92475,119.44799 L 168.77487,118.84799 L 168.47512,118.24799 L 168.02487,117.49799 L 167.57525,116.89799 L 166.97512,116.14799 L 166.375,115.69799 L 165.77487,115.09799 L 165.02487,114.34799 L 164.27487,113.89799 L 163.375,113.44799 L 162.47512,112.84799 L 161.57525,112.24799 L 160.67475,111.79799 L 159.625,111.34799 L 158.72512,110.89799 L 157.52487,110.59799 L 156.32525,110.14799 L 155.27487,109.84799 L 153.92475,109.54799 L 152.72512,109.24799 L 151.375,108.79799 L 150.02487,108.64799 L 148.67475,108.34799 L 147.17475,108.34799 L 145.97512,108.04799 L 144.47512,107.89799 L 135.47513,107.89799 L 133.97513,108.04799 L 132.625,108.34799 L 131.27488,108.34799 L 129.77488,108.64799 L 128.42475,108.79799 L 127.22513,109.24799 L 125.875,109.54799 L 124.67475,109.84799 L 123.47513,110.14799 L 122.42475,110.59799 L 121.22513,110.89799 L 120.17475,111.34799 L 119.125,111.79799 L 118.22513,112.24799 L 117.32525,112.84799 L 116.42475,113.44799 L 115.67475,113.89799 L 114.77488,114.34799 L 114.17475,115.09799 L 113.57525,115.69799 L 112.9751,116.14799 L 112.375,116.89799 L 111.9248,117.49799 L 111.4751,118.24799 L 111.1748,118.84799 L 111.0249,119.44799 L 110.7251,120.19799 L 110.5752,120.79799 L 110.5752,122.29799 L 110.7251,123.04799 L 111.0249,123.79799 L 111.1748,124.39799 L 111.4751,124.99799 L 111.9248,125.74799 L 112.375,126.34799 L 112.9751,126.94799 L 113.57525,127.54799 L 114.17475,128.14799 L 114.77488,128.74799 L 115.67475,129.34799 L 116.42475,129.79799 L 117.32525,130.39799 L 118.22513,130.84799 L 119.125,131.44799 L 120.17475,131.89799 L 121.22513,132.34799 L 122.42475,132.64799 L 123.47513,133.09799 L 124.67475,133.39799 L 125.875,133.69799 L 127.22513,133.99799 L 128.42475,134.29799 L 129.77488,134.44799 L 131.27488,134.74799 L 132.625,134.89799 L 133.97513,135.04799 L 135.47513,135.34799 L 144.47512,135.34799 L 145.97512,135.04799 L 147.17475,134.89799 L 148.67475,134.74799 L 150.02487,134.44799 L 151.375,134.29799 L 152.72512,133.99799 L 153.92475,133.69799 L 155.27487,133.39799 L 156.32525,133.09799 L 157.52487,132.64799 L 158.72512,132.34799 L 159.625,131.89799 L 160.67475,131.44799 L 161.57525,130.84799 L 162.47512,130.39799 L 163.375,129.79799 L 164.27487,129.34799 L 165.02487,128.74799 L 165.77487,128.14799 L 166.375,127.54799 L 166.97512,126.94799 L 167.57525,126.34799 L 168.02487,125.74799 L 168.47512,124.99799 L 168.77487,124.39799 L 168.92475,123.79799 L 169.22512,123.04799 L 169.375,122.29799 L 169.375,121.54799" />
    <path
       id="path16481"
       style="fill:none;stroke:#000000;stroke-width:0.33210003;stroke-linecap:round;stroke-linejoin:round;stroke-miterlimit:10;stroke-dasharray:none;stroke-opacity:1"
       d="M 169.375,121.54799 L 169.375,120.79799 L 169.22512,120.19799 L 168.92475,119.44799 L 168.77487,118.84799 L 168.47512,118.24799 L 168.02487,117.49799 L 167.57525,116.89799 L 166.97512,116.14799 L 166.375,115.69799 L 165.77487,115.09799 L 165.02487,114.34799 L 164.27487,113.89799 L 163.375,113.44799 L 162.47512,112.84799 L 161.57525,112.24799 L 160.67475,111.79799 L 159.625,111.34799 L 158.72512,110.89799 L 157.52487,110.59799 L 156.32525,110.14799 L 155.27487,109.84799 L 153.92475,109.54799 L 152.72512,109.24799 L 151.375,108.79799 L 150.02487,108.64799 L 148.67475,108.34799 L 147.17475,108.34799 L 145.97512,108.04799 L 144.47512,107.89799 L 135.47513,107.89799 L 133.97513,108.04799 L 132.625,108.34799 L 131.27488,108.34799 L 129.77488,108.64799 L 128.42475,108.79799 L 127.22513,109.24799 L 125.875,109.54799 L 124.67475,109.84799 L 123.47513,110.14799 L 122.42475,110.59799 L 121.22513,110.89799 L 120.17475,111.34799 L 119.125,111.79799 L 118.22513,112.24799 L 117.32525,112.84799 L 116.42475,113.44799 L 115.67475,113.89799 L 114.77488,114.34799 L 114.17475,115.09799 L 113.57525,115.69799 L 112.9751,116.14799 L 112.375,116.89799 L 111.9248,117.49799 L 111.4751,118.24799 L 111.1748,118.84799 L 111.0249,119.44799 L 110.7251,120.19799 L 110.5752,120.79799 L 110.5752,122.29799 L 110.7251,123.04799 L 111.0249,123.79799 L 111.1748,124.39799 L 111.4751,124.99799 L 111.9248,125.74799 L 112.375,126.34799 L 112.9751,126.94799 L 113.57525,127.54799 L 114.17475,128.14799 L 114.77488,128.74799 L 115.67475,129.34799 L 116.42475,129.79799 L 117.32525,130.39799 L 118.22513,130.84799 L 119.125,131.44799 L 120.17475,131.89799 L 121.22513,132.34799 L 122.42475,132.64799 L 123.47513,133.09799 L 124.67475,133.39799 L 125.875,133.69799 L 127.22513,133.99799 L 128.42475,134.29799 L 129.77488,134.44799 L 131.27488,134.74799 L 132.625,134.89799 L 133.97513,135.04799 L 135.47513,135.34799 L 144.47512,135.34799 L 145.97512,135.04799 L 147.17475,134.89799 L 148.67475,134.74799 L 150.02487,134.44799 L 151.375,134.29799 L 152.72512,133.99799 L 153.92475,133.69799 L 155.27487,133.39799 L 156.32525,133.09799 L 157.52487,132.64799 L 158.72512,132.34799 L 159.625,131.89799 L 160.67475,131.44799 L 161.57525,130.84799 L 162.47512,130.39799 L 163.375,129.79799 L 164.27487,129.34799 L 165.02487,128.74799 L 165.77487,128.14799 L 166.375,127.54799 L 166.97512,126.94799 L 167.57525,126.34799 L 168.02487,125.74799 L 168.47512,124.99799 L 168.77487,124.39799 L 168.92475,123.79799 L 169.22512,123.04799 L 169.375,122.29799 L 169.375,121.54799" />
    <g
       transform="matrix(1.25,0,0,-1.25,100.625,271.29424)"
       id="g16483">
      <text
         id="text16485"
         transform="matrix(1,0,0,-1,26.0801,117.637)">
        <tspan
           id="tspan16487"
           sodipodi:role="line"
           y="0"
           x="0 1.9200028 3.600003 7.0800018"
           style="font-size:7.10340023px;font-variant:normal;font-weight:normal;writing-mode:lr-tb;fill:#000000;fill-opacity:1;fill-rule:nonzero;stroke:none;font-family:Helvetica;-inkscape-font-specification:Helvetica">tick</tspan>
      </text>
    </g>
    <path
       id="path16489"
       style="fill:none;stroke:#000000;stroke-width:0.33210003;stroke-linecap:round;stroke-linejoin:round;stroke-miterlimit:10;stroke-dasharray:none;stroke-opacity:1"
       d="M 106.2251,104.89799 L 109.6748,110.74799 L 111.4751,105.64799 L 114.47513,110.59799" />
    <path
       id="path16491"
       style="fill:#000000;fill-opacity:1;fill-rule:evenodd;stroke:none"
       d="M 116.57525,114.64799 L 111.0249,110.89799 L 111.7749,110.74799 L 112.5249,110.59799 L 113.27488,110.29799 L 114.02488,109.99799 L 114.625,109.54799 L 115.22513,109.09799 L 115.67475,108.49799 L 116.27488,107.89799 L 116.27488,107.89799 L 116.57525,114.64799 L 116.57525,114.64799" />
    <g
       transform="matrix(1.25,0,0,-1.25,100.625,271.29424)"
       id="g16497">
      <text
         id="text16499"
         transform="matrix(1,0,0,-1,3.88008,137.797)">
        <tspan
           id="tspan16501"
           sodipodi:role="line"
           style="font-size:7.10340023px;font-variant:normal;font-weight:normal;writing-mode:lr-tb;fill:#000000;fill-opacity:1;fill-rule:nonzero;stroke:none;font-family:Helvetica;-inkscape-font-specification:Helvetica"
           x="0"
           y="0">Timer</tspan>
      </text>
    </g>
    <path
       id="path16519"
       style="fill:#808080;fill-opacity:1;fill-rule:evenodd;stroke:none"
       d="M 180.7834,121.03048 L 180.7834,120.27877 L 180.64883,119.97833 L 180.51425,119.52707 L 180.37968,119.22663 L 180.10997,118.9257 L 179.9754,118.62514 L 179.70626,118.32471 L 179.43655,118.17399 L 179.1674,117.87344 L 178.8977,117.72322 L 178.49398,117.42228 L 178.0897,117.42228 L 177.82056,117.27195 L 176.20401,117.27195 L 175.93486,117.42228 L 175.53058,117.42228 L 175.26144,117.72322 L 174.99229,117.87344 L 174.72258,118.17399 L 174.31887,118.32471 L 174.18374,118.62514 L 173.91459,118.9257 L 173.78001,119.22663 L 173.51031,119.52707 L 173.51031,119.97833 L 173.37573,120.27877 L 173.24117,120.57983 L 173.24117,121.33153 L 173.37573,121.78219 L 173.51031,122.08324 L 173.51031,122.53389 L 173.78001,122.83494 L 173.91459,123.13538 L 174.18374,123.43593 L 174.31887,123.73686 L 174.72258,123.88708 L 174.99229,124.18763 L 175.26144,124.33835 L 175.53058,124.48856 L 175.93486,124.63879 L 176.20401,124.63879 L 176.60829,124.78901 L 177.41628,124.78901 L 177.82056,124.63879 L 178.0897,124.63879 L 178.49398,124.48856 L 178.8977,124.33835 L 179.1674,124.18763 L 179.43655,123.88708 L 179.70626,123.73686 L 179.9754,123.43593 L 180.10997,123.13538 L 180.37968,122.83494 L 180.51425,122.53389 L 180.64883,122.08324 L 180.7834,121.78219 L 180.7834,121.03048" />
    <path
       id="path16521"
       style="fill:none;stroke:#000000;stroke-width:0.31504723;stroke-linecap:round;stroke-linejoin:round;stroke-miterlimit:10;stroke-dasharray:none;stroke-opacity:1"
       d="M 180.7834,121.03048 L 180.7834,120.27877 L 180.64883,119.97833 L 180.51425,119.52707 L 180.37968,119.22663 L 180.10997,118.9257 L 179.9754,118.62514 L 179.70626,118.32471 L 179.43655,118.17399 L 179.1674,117.87344 L 178.8977,117.72322 L 178.49398,117.42228 L 178.0897,117.42228 L 177.82056,117.27195 L 176.20401,117.27195 L 175.93486,117.42228 L 175.53058,117.42228 L 175.26144,117.72322 L 174.99229,117.87344 L 174.72258,118.17399 L 174.31887,118.32471 L 174.18374,118.62514 L 173.91459,118.9257 L 173.78001,119.22663 L 173.51031,119.52707 L 173.51031,119.97833 L 173.37573,120.27877 L 173.24117,120.57983 L 173.24117,121.33153 L 173.37573,121.78219 L 173.51031,122.08324 L 173.51031,122.53389 L 173.78001,122.83494 L 173.91459,123.13538 L 174.18374,123.43593 L 174.31887,123.73686 L 174.72258,123.88708 L 174.99229,124.18763 L 175.26144,124.33835 L 175.53058,124.48856 L 175.93486,124.63879 L 176.20401,124.63879 L 176.60829,124.78901 L 177.41628,124.78901 L 177.82056,124.63879 L 178.0897,124.63879 L 178.49398,124.48856 L 178.8977,124.33835 L 179.1674,124.18763 L 179.43655,123.88708 L 179.70626,123.73686 L 179.9754,123.43593 L 180.10997,123.13538 L 180.37968,122.83494 L 180.51425,122.53389 L 180.64883,122.08324 L 180.7834,121.78219 L 180.7834,121.03048" />
    <path
       id="path16625"
       style="fill:none;stroke:#000000;stroke-width:0.31504723;stroke-linecap:round;stroke-linejoin:round;stroke-miterlimit:10;stroke-dasharray:none;stroke-opacity:1"
       d="M 173.24117,121.03048 L 169.45932,121.04513"
       sodipodi:nodetypes="cc" />
    <path
       id="path16503"
       style="fill:#f8db60;fill-opacity:1;fill-rule:evenodd;stroke:none"
       d="M 75.936435,213.46669 L 144.93646,213.46669 L 145.38609,213.31681 L 145.83634,213.16693 L 146.13609,213.16693 L 146.58634,212.71669 L 146.73621,212.41693 L 147.03659,212.11668 L 147.03659,172.66693 L 146.73621,172.36668 L 146.58634,172.06681 L 146.13609,171.76706 L 145.83634,171.61668 L 145.38609,171.46668 L 75.486235,171.46668 L 75.036535,171.61668 L 74.736235,171.76706 L 74.286535,172.06681 L 74.136135,172.36668 L 73.836335,172.66693 L 73.836335,212.11668 L 74.136135,212.41693 L 74.286535,212.71669 L 74.736235,213.16693 L 75.036535,213.16693 L 75.486235,213.31681 L 75.936435,213.46669 L 75.936435,213.46669" />
    <path
       id="path16505"
       style="fill:none;stroke:#000000;stroke-width:0.33210003;stroke-linecap:round;stroke-linejoin:round;stroke-miterlimit:10;stroke-dasharray:none;stroke-opacity:1"
       d="M 75.936435,213.46669 L 144.93646,213.46669 L 145.38609,213.31681 L 145.83634,213.16693 L 146.13609,213.16693 L 146.58634,212.71669 L 146.73621,212.41693 L 147.03659,212.11668 L 147.03659,172.66693 L 146.73621,172.36668 L 146.58634,172.06681 L 146.13609,171.76706 L 145.83634,171.61668 L 145.38609,171.46668 L 75.486235,171.46668 L 75.036535,171.61668 L 74.736235,171.76706 L 74.286535,172.06681 L 74.136135,172.36668 L 73.836335,172.66693 L 73.836335,212.11668 L 74.136135,212.41693 L 74.286535,212.71669 L 74.736235,213.16693 L 75.036535,213.16693 L 75.486235,213.31681 L 75.936435,213.46669 L 75.936435,213.46669" />
    <path
       id="path16507"
       style="fill:#ffffff;fill-opacity:1;fill-rule:evenodd;stroke:none"
       d="M 87.486215,205.51706 L 131.73621,205.51706 L 131.88609,205.36668 L 132.03659,205.21669 L 132.18646,205.06681 L 132.33634,204.76706 L 132.48621,204.61668 L 132.48621,181.36668 L 132.33634,181.21669 L 132.18646,180.91693 L 132.03659,180.76706 L 131.88609,180.61668 L 131.73621,180.46669 L 131.43646,180.31681 L 87.336335,180.31681 L 87.036585,180.46669 L 86.886085,180.61668 L 86.586335,180.76706 L 86.586335,180.91693 L 86.436465,181.21669 L 86.286585,181.36668 L 86.286585,204.61668 L 86.436465,204.76706 L 86.586335,205.06681 L 86.586335,205.21669 L 86.886085,205.36668 L 87.036585,205.51706 L 87.486215,205.51706 L 87.486215,205.51706" />
    <path
       id="path16509"
       style="fill:none;stroke:#000000;stroke-width:0.33210003;stroke-linecap:round;stroke-linejoin:round;stroke-miterlimit:10;stroke-dasharray:none;stroke-opacity:1"
       d="M 87.486215,205.51706 L 131.73621,205.51706 L 131.88609,205.36668 L 132.03659,205.21669 L 132.18646,205.06681 L 132.33634,204.76706 L 132.48621,204.61668 L 132.48621,181.36668 L 132.33634,181.21669 L 132.18646,180.91693 L 132.03659,180.76706 L 131.88609,180.61668 L 131.73621,180.46669 L 131.43646,180.31681 L 87.336335,180.31681 L 87.036585,180.46669 L 86.886085,180.61668 L 86.586335,180.76706 L 86.586335,180.91693 L 86.436465,181.21669 L 86.286585,181.36668 L 86.286585,204.61668 L 86.436465,204.76706 L 86.586335,205.06681 L 86.586335,205.21669 L 86.886085,205.36668 L 87.036585,205.51706 L 87.486215,205.51706 L 87.486215,205.51706" />
    <g
       id="g16511"
       transform="matrix(1.25,0,0,-1.25,86.403455,282.62768)">
      <text
         id="text16513"
         transform="scale(1,-1)"
         x="18.60845"
         y="-71.197304"
         style="text-align:center;text-anchor:middle">
        <tspan
           sodipodi:role="line"
           x="18.60845"
           style="font-size:7.10340023px;font-variant:normal;font-weight:normal;text-align:center;writing-mode:lr-tb;text-anchor:middle;fill:#000000;fill-opacity:1;fill-rule:nonzero;stroke:none;font-family:Helvetica;-inkscape-font-specification:Helvetica"
           y="-71.197304"
           id="tspan16873">run</tspan>
      </text>
    </g>
    <path
       id="path16523"
       style="fill:#ffffff;fill-opacity:1;fill-rule:evenodd;stroke:none"
       d="M 77.220035,192.28366 L 77.220035,191.83405 L 77.070155,191.53367 L 76.920285,191.23392 L 76.770405,190.93367 L 76.770405,190.48392 L 76.470035,190.18367 L 76.320155,189.8838 L 76.020405,189.58405 L 75.570155,189.43367 L 75.270405,189.1338 L 74.970035,188.98392 L 74.670285,188.83405 L 74.220035,188.68367 L 73.770405,188.53367 L 72.120535,188.53367 L 71.670285,188.68367 L 71.370535,188.83405 L 70.920285,188.98392 L 70.620535,189.1338 L 70.320155,189.43367 L 70.020405,189.58405 L 69.720035,189.8838 L 69.570165,190.18367 L 69.270415,190.48392 L 69.120535,190.93367 L 68.970035,191.23392 L 68.820165,191.53367 L 68.820165,193.03366 L 68.970035,193.48391 L 69.120535,193.78366 L 69.270415,194.08404 L 69.570165,194.38379 L 69.720035,194.68366 L 70.020405,194.98391 L 70.320155,195.13379 L 70.620535,195.43366 L 70.920285,195.58404 L 71.370535,195.73391 L 71.670285,195.88379 L 72.120535,196.03366 L 73.770405,196.03366 L 74.220035,195.88379 L 74.670285,195.73391 L 74.970035,195.58404 L 75.270405,195.43366 L 75.570155,195.13379 L 76.020405,194.98391 L 76.320155,194.68366 L 76.470035,194.38379 L 76.770405,194.08404 L 76.770405,193.78366 L 76.920285,193.48391 L 77.070155,193.03366 L 77.220035,192.58404 L 77.220035,192.28366" />
    <text
       y="169.41637"
       x="74.343102"
       id="text16861"
       style="font-size:15px">
      <tspan
         id="tspan16863"
         sodipodi:role="line"
         style="font-size:8.87925053px;font-variant:normal;font-weight:normal;writing-mode:lr-tb;fill:#000000;fill-opacity:1;fill-rule:nonzero;stroke:none;font-family:Helvetica;-inkscape-font-specification:Helvetica"
         x="74.343102"
         y="169.41637">DataProcessor</tspan>
    </text>
    <path
       d="M 199.69668,142.96487 L 268.6967,142.96487 L 269.14633,142.815 L 269.59658,142.66512 L 269.89633,142.66512 L 270.34658,142.21487 L 270.49645,141.91512 L 270.79683,141.61487 L 270.79683,102.16512 L 270.49645,101.86487 L 270.34658,101.56499 L 269.89633,101.26524 L 269.59658,101.11487 L 269.14633,100.96487 L 199.24648,100.96487 L 198.79678,101.11487 L 198.49648,101.26524 L 198.04678,101.56499 L 197.89638,101.86487 L 197.59658,102.16512 L 197.59658,141.61487 L 197.89638,141.91512 L 198.04678,142.21487 L 198.49648,142.66512 L 198.79678,142.66512 L 199.24648,142.815 L 199.69668,142.96487 L 199.69668,142.96487"
       style="fill:#f8db60;fill-opacity:1;fill-rule:evenodd;stroke:none"
       id="path7456" />
    <path
       d="M 199.69668,142.96487 L 268.6967,142.96487 L 269.14633,142.815 L 269.59658,142.66512 L 269.89633,142.66512 L 270.34658,142.21487 L 270.49645,141.91512 L 270.79683,141.61487 L 270.79683,102.16512 L 270.49645,101.86487 L 270.34658,101.56499 L 269.89633,101.26524 L 269.59658,101.11487 L 269.14633,100.96487 L 199.24648,100.96487 L 198.79678,101.11487 L 198.49648,101.26524 L 198.04678,101.56499 L 197.89638,101.86487 L 197.59658,102.16512 L 197.59658,141.61487 L 197.89638,141.91512 L 198.04678,142.21487 L 198.49648,142.66512 L 198.79678,142.66512 L 199.24648,142.815 L 199.69668,142.96487 L 199.69668,142.96487"
       style="fill:none;stroke:#000000;stroke-width:0.33210003;stroke-linecap:round;stroke-linejoin:round;stroke-miterlimit:10;stroke-dasharray:none;stroke-opacity:1"
       id="path7458" />
    <path
       d="M 211.60861,134.22241 L 255.8586,134.22241 L 256.00848,134.07203 L 256.15898,133.92203 L 256.30885,133.77216 L 256.45873,133.47241 L 256.6086,133.32203 L 256.6086,110.07203 L 256.45873,109.92203 L 256.30885,109.62228 L 256.15898,109.47241 L 256.00848,109.32203 L 255.8586,109.17203 L 255.55885,109.02216 L 211.45873,109.02216 L 211.15898,109.17203 L 211.00848,109.32203 L 210.70873,109.47241 L 210.70873,109.62228 L 210.55886,109.92203 L 210.40898,110.07203 L 210.40898,133.32203 L 210.55886,133.47241 L 210.70873,133.77216 L 210.70873,133.92203 L 211.00848,134.07203 L 211.15898,134.22241 L 211.60861,134.22241 L 211.60861,134.22241"
       style="fill:#ffffff;fill-opacity:1;fill-rule:evenodd;stroke:none"
       id="path7460" />
    <path
       d="M 211.60861,134.22241 L 255.8586,134.22241 L 256.00848,134.07203 L 256.15898,133.92203 L 256.30885,133.77216 L 256.45873,133.47241 L 256.6086,133.32203 L 256.6086,110.07203 L 256.45873,109.92203 L 256.30885,109.62228 L 256.15898,109.47241 L 256.00848,109.32203 L 255.8586,109.17203 L 255.55885,109.02216 L 211.45873,109.02216 L 211.15898,109.17203 L 211.00848,109.32203 L 210.70873,109.47241 L 210.70873,109.62228 L 210.55886,109.92203 L 210.40898,110.07203 L 210.40898,133.32203 L 210.55886,133.47241 L 210.70873,133.77216 L 210.70873,133.92203 L 211.00848,134.07203 L 211.15898,134.22241 L 211.60861,134.22241 L 211.60861,134.22241"
       style="fill:none;stroke:#000000;stroke-width:0.33210003;stroke-linecap:round;stroke-linejoin:round;stroke-miterlimit:10;stroke-dasharray:none;stroke-opacity:1"
       id="path7462" />
    <g
       transform="matrix(1.25,0,0,-1.25,210.52585,211.33303)"
       id="g7464">
      <text
         style="text-align:center;text-anchor:middle"
         y="-71.197304"
         x="18.60845"
         transform="scale(1,-1)"
         id="text7466">
        <tspan
           id="tspan7468"
           y="-71.197304"
           style="font-size:7.10340023px;font-variant:normal;font-weight:normal;text-align:center;writing-mode:lr-tb;text-anchor:middle;fill:#000000;fill-opacity:1;fill-rule:nonzero;stroke:none;font-family:Helvetica;-inkscape-font-specification:Helvetica"
           x="18.60845"
           sodipodi:role="line">run</tspan>
      </text>
    </g>
    <path
       d="M 201.34243,120.98901 L 201.34243,120.53939 L 201.19255,120.23902 L 201.04268,119.93927 L 200.8928,119.63902 L 200.8928,119.18927 L 200.59243,118.88902 L 200.44255,118.58915 L 200.1428,118.28939 L 199.69255,118.13902 L 199.3928,117.83915 L 199.09243,117.68927 L 198.79268,117.53939 L 198.34243,117.38902 L 197.8928,117.23902 L 196.24293,117.23902 L 195.79268,117.38902 L 195.49293,117.53939 L 195.04268,117.68927 L 194.74293,117.83915 L 194.44255,118.13902 L 194.1428,118.28939 L 193.84243,118.58915 L 193.69256,118.88902 L 193.39281,119.18927 L 193.24293,119.63902 L 193.09243,119.93927 L 192.94256,120.23902 L 192.94256,121.73901 L 193.09243,122.18926 L 193.24293,122.48901 L 193.39281,122.78938 L 193.69256,123.08913 L 193.84243,123.38901 L 194.1428,123.68926 L 194.44255,123.83913 L 194.74293,124.13901 L 195.04268,124.28938 L 195.49293,124.43926 L 195.79268,124.58913 L 196.24293,124.73901 L 197.8928,124.73901 L 198.34243,124.58913 L 198.79268,124.43926 L 199.09243,124.28938 L 199.3928,124.13901 L 199.69255,123.83913 L 200.1428,123.68926 L 200.44255,123.38901 L 200.59243,123.08913 L 200.8928,122.78938 L 200.8928,122.48901 L 201.04268,122.18926 L 201.19255,121.73901 L 201.34243,121.28938 L 201.34243,120.98901"
       style="fill:#ffffff;fill-opacity:1;fill-rule:evenodd;stroke:none"
       id="path7470" />
    <text
       y="98.121719"
       x="198.4655"
       id="text7472"
       style="font-size:15px">
      <tspan
         id="tspan7474"
         sodipodi:role="line"
         style="font-size:8.87925053px;font-variant:normal;font-weight:normal;writing-mode:lr-tb;fill:#000000;fill-opacity:1;fill-rule:nonzero;stroke:none;font-family:Helvetica;-inkscape-font-specification:Helvetica"
         x="198.4655"
         y="98.121719">Sample</tspan>
    </text>
    <path
       d="M 193.73296,121.03393 L 193.73296,120.28222 L 193.86753,119.98178 L 194.00211,119.53052 L 194.13668,119.23008 L 194.40639,118.92914 L 194.54096,118.62858 L 194.8101,118.32816 L 195.07981,118.17743 L 195.34896,117.87688 L 195.61866,117.72667 L 196.02238,117.42573 L 196.42666,117.42573 L 196.6958,117.2754 L 198.31235,117.2754 L 198.5815,117.42573 L 198.98578,117.42573 L 199.25492,117.72667 L 199.52407,117.87688 L 199.79378,118.17743 L 200.19749,118.32816 L 200.33262,118.62858 L 200.60177,118.92914 L 200.73635,119.23008 L 201.00605,119.53052 L 201.00605,119.98178 L 201.14063,120.28222 L 201.27519,120.58328 L 201.27519,121.33498 L 201.14063,121.78563 L 201.00605,122.08668 L 201.00605,122.53733 L 200.73635,122.83838 L 200.60177,123.13883 L 200.33262,123.43938 L 200.19749,123.74031 L 199.79378,123.89053 L 199.52407,124.19108 L 199.25492,124.3418 L 198.98578,124.49201 L 198.5815,124.64223 L 198.31235,124.64223 L 197.90807,124.79246 L 197.10008,124.79246 L 196.6958,124.64223 L 196.42666,124.64223 L 196.02238,124.49201 L 195.61866,124.3418 L 195.34896,124.19108 L 195.07981,123.89053 L 194.8101,123.74031 L 194.54096,123.43938 L 194.40639,123.13883 L 194.13668,122.83838 L 194.00211,122.53733 L 193.86753,122.08668 L 193.73296,121.78563 L 193.73296,121.03393"
       style="fill:none;stroke:#000000;stroke-width:0.31504723;stroke-linecap:round;stroke-linejoin:round;stroke-miterlimit:10;stroke-dasharray:none;stroke-opacity:1"
       id="path7476" />
    <path
       sodipodi:nodetypes="cc"
       d="M 201.27519,120.94857 L 210.43467,120.96322"
       style="fill:none;stroke:#000000;stroke-width:0.31504723;stroke-linecap:round;stroke-linejoin:round;stroke-miterlimit:10;stroke-dasharray:none;stroke-opacity:1"
       id="path7478" />
    <path
       d="M 291.97958,142.53882 L 415.89182,142.53882 L 416.17733,142.38882 L 416.36766,142.23882 L 416.55803,141.93882 L 416.74835,141.63882 L 416.84352,141.18882 L 416.9387,140.88882 L 416.9387,102.33882 L 416.84352,101.88882 L 416.74835,101.58882 L 416.55803,101.13882 L 416.36766,100.98882 L 416.17733,100.68882 L 291.50372,100.68882 L 291.21845,100.98882 L 291.02788,101.13882 L 290.8377,101.58882 L 290.8377,101.88882 L 290.64751,102.33882 L 290.64751,140.88882 L 290.8377,141.18882 L 290.8377,141.63882 L 291.02788,141.93882 L 291.21845,142.23882 L 291.50372,142.38882 L 291.69432,142.53882 L 291.97958,142.53882 L 291.97958,142.53882"
       style="fill:#f8db60;fill-opacity:1;fill-rule:evenodd;stroke:none"
       id="path7538" />
    <path
       sodipodi:nodetypes="cccccccccccccccccccccccccccccc"
       d="M 291.85984,142.63273 L 416.01302,142.63273 L 416.29909,142.48249 L 416.48981,142.33225 L 416.68051,142.03176 L 416.87122,141.73129 L 416.96659,141.28057 L 417.06192,140.98008 L 417.06192,135.6477 L 417.06192,102.36828 L 416.96659,101.91756 L 416.87122,101.61707 L 416.68051,101.16636 L 416.48981,101.01612 L 416.29909,100.71563 L 291.38305,100.71563 L 291.09722,101.01612 L 290.90629,101.16636 L 290.71573,101.61707 L 290.71573,101.91756 L 290.52516,102.36828 L 290.52516,140.98008 L 290.71573,141.28057 L 290.71573,141.73129 L 290.90629,142.03176 L 291.09722,142.33225 L 291.38305,142.48249 L 291.574,142.63273 L 291.85984,142.63273 L 291.85984,142.63273"
       style="fill:none;stroke:#000000;stroke-width:0.26499909;stroke-linecap:round;stroke-linejoin:round;stroke-miterlimit:10;stroke-dasharray:none;stroke-opacity:1"
       id="path7540" />
    <path
       d="M 298.24727,134.13882 L 346.24727,134.13882 L 346.69727,133.98882 L 346.69727,133.98882 L 346.99726,133.83882 L 347.14727,133.53882 L 347.29726,133.38882 L 347.29726,109.68882 L 347.14727,109.53882 L 346.99726,109.38882 L 346.69727,109.23882 L 346.69727,109.08882 L 346.24727,109.08882 L 346.09726,108.93882 L 298.24727,108.93882 L 298.09726,109.08882 L 297.79726,109.08882 L 297.64727,109.23882 L 297.34726,109.38882 L 297.34726,109.53882 L 297.19727,109.68882 L 297.04726,109.98882 L 297.04726,133.08882 L 297.19727,133.38882 L 297.34726,133.53882 L 297.34726,133.83882 L 297.64727,133.98882 L 297.79726,133.98882 L 298.09726,134.13882 L 298.24727,134.13882 L 298.24727,134.13882"
       style="fill:#ffffff;fill-opacity:1;fill-rule:evenodd;stroke:none"
       id="path7552" />
    <path
       d="M 298.24727,134.13882 L 346.24727,134.13882 L 346.69727,133.98882 L 346.69727,133.98882 L 346.99726,133.83882 L 347.14727,133.53882 L 347.29726,133.38882 L 347.29726,109.68882 L 347.14727,109.53882 L 346.99726,109.38882 L 346.69727,109.23882 L 346.69727,109.08882 L 346.24727,109.08882 L 346.09726,108.93882 L 298.24727,108.93882 L 298.09726,109.08882 L 297.79726,109.08882 L 297.64727,109.23882 L 297.34726,109.38882 L 297.34726,109.53882 L 297.19727,109.68882 L 297.04726,109.98882 L 297.04726,133.08882 L 297.19727,133.38882 L 297.34726,133.53882 L 297.34726,133.83882 L 297.64727,133.98882 L 297.79726,133.98882 L 298.09726,134.13882 L 298.24727,134.13882 L 298.24727,134.13882"
       style="fill:none;stroke:#000000;stroke-width:0.33210003;stroke-linecap:round;stroke-linejoin:round;stroke-miterlimit:10;stroke-dasharray:none;stroke-opacity:1"
       id="path7554" />
    <g
       transform="matrix(1.25,0,0,-1.25,205.10265,270.44023)"
       id="g7556">
      <text
         y="-121.837"
         x="93.839943"
         style="text-align:center;text-anchor:middle"
         transform="scale(1,-1)"
         id="text7558">
        <tspan
           id="tspan7560"
           y="-121.837"
           x="93.839943"
           style="font-size:7.10340023px;font-variant:normal;font-weight:normal;text-align:center;writing-mode:lr-tb;text-anchor:middle;fill:#000000;fill-opacity:1;fill-rule:nonzero;stroke:none;font-family:Helvetica;-inkscape-font-specification:Helvetica"
           sodipodi:role="line">start</tspan>
        <tspan
           id="tspan7562"
           y="-112.95775"
           x="93.839943"
           style="font-size:7.10340023px;font-variant:normal;font-weight:normal;text-align:center;writing-mode:lr-tb;text-anchor:middle;fill:#000000;fill-opacity:1;fill-rule:nonzero;stroke:none;font-family:Helvetica;-inkscape-font-specification:Helvetica"
           sodipodi:role="line">mesurement</tspan>
      </text>
    </g>
    <path
       d="M 345.69727,103.68882 L 349.14752,109.53882 L 350.94727,104.43882 L 353.79738,109.38882"
       style="fill:none;stroke:#000000;stroke-width:0.33210003;stroke-linecap:round;stroke-linejoin:round;stroke-miterlimit:10;stroke-dasharray:none;stroke-opacity:1"
       id="path7564" />
    <path
       d="M 356.19727,113.28882 L 350.49701,109.68882 L 351.24702,109.53882 L 352.14752,109.23882 L 352.74702,109.08882 L 353.49701,108.78882 L 354.09713,108.33882 L 354.69727,107.73882 L 355.29738,107.13882 L 355.74702,106.68882 L 355.74702,106.68882 L 356.19727,113.28882 L 356.19727,113.28882"
       style="fill:#000000;fill-opacity:1;fill-rule:evenodd;stroke:none"
       id="path7566" />
    <path
       d="M 409.59727,121.53882 L 409.59727,120.18882 L 409.29726,119.43882 L 409.14726,118.83882 L 408.69727,118.23882 L 408.24727,117.48882 L 407.79726,116.88882 L 407.34726,116.13882 L 406.74727,115.68882 L 406.14727,115.08882 L 405.39726,114.33882 L 404.64727,113.88882 L 403.74727,113.43882 L 402.84727,112.83882 L 401.94727,112.23882 L 401.04726,111.78882 L 399.99726,111.33882 L 398.94727,110.88882 L 397.89726,110.58882 L 396.69727,110.13882 L 395.49726,109.83882 L 394.29726,109.53882 L 392.94727,109.23882 L 391.74727,108.78882 L 390.39726,108.63882 L 389.04726,108.33882 L 387.54726,108.33882 L 386.19727,108.03882 L 384.84726,107.88882 L 375.84726,107.88882 L 374.34726,108.03882 L 372.99726,108.33882 L 371.64752,108.33882 L 370.14751,108.63882 L 368.79738,108.78882 L 367.59713,109.23882 L 366.24702,109.53882 L 365.04738,109.83882 L 363.84713,110.13882 L 362.79738,110.58882 L 361.59713,110.88882 L 360.54738,111.33882 L 359.49701,111.78882 L 358.44727,112.23882 L 357.69726,112.83882 L 356.79738,113.43882 L 355.89752,113.88882 L 355.14751,114.33882 L 354.54738,115.08882 L 353.79738,115.68882 L 353.34713,116.13882 L 352.74702,116.88882 L 352.29738,117.48882 L 351.84713,118.23882 L 351.54738,118.83882 L 351.24702,119.43882 L 351.09713,120.18882 L 350.94727,120.78882 L 350.94727,122.28882 L 351.09713,123.03882 L 351.24702,123.78882 L 351.54738,124.38882 L 351.84713,124.98882 L 352.29738,125.73882 L 352.74702,126.33882 L 353.34713,126.93882 L 353.79738,127.53882 L 354.54738,128.13882 L 355.14751,128.73882 L 355.89752,129.33882 L 356.79738,129.78882 L 357.69726,130.38882 L 358.44727,130.83882 L 359.49701,131.43882 L 360.54738,131.88882 L 361.59713,132.33882 L 362.79738,132.63882 L 363.84713,133.08882 L 365.04738,133.38882 L 366.24702,133.68882 L 367.59713,133.98882 L 368.79738,134.28882 L 370.14751,134.43882 L 371.64752,134.73882 L 372.99726,134.88882 L 374.34726,135.03882 L 375.84726,135.33882 L 384.84726,135.33882 L 386.19727,135.03882 L 387.54726,134.88882 L 389.04726,134.73882 L 390.39726,134.43882 L 391.74727,134.28882 L 392.94727,133.98882 L 394.29726,133.68882 L 395.49726,133.38882 L 396.69727,133.08882 L 397.89726,132.63882 L 398.94727,132.33882 L 399.99726,131.88882 L 401.04726,131.43882 L 401.94727,130.83882 L 402.84727,130.38882 L 403.74727,129.78882 L 404.64727,129.33882 L 405.39726,128.73882 L 406.14727,128.13882 L 406.74727,127.53882 L 407.34726,126.93882 L 407.79726,126.33882 L 408.24727,125.73882 L 408.69727,124.98882 L 409.14726,124.38882 L 409.29726,123.78882 L 409.59727,123.03882 L 409.59727,121.53882"
       style="fill:#ffffff;fill-opacity:1;fill-rule:evenodd;stroke:none"
       id="path7568" />
    <path
       d="M 409.59727,121.53882 L 409.59727,120.18882 L 409.29726,119.43882 L 409.14726,118.83882 L 408.69727,118.23882 L 408.24727,117.48882 L 407.79726,116.88882 L 407.34726,116.13882 L 406.74727,115.68882 L 406.14727,115.08882 L 405.39726,114.33882 L 404.64727,113.88882 L 403.74727,113.43882 L 402.84727,112.83882 L 401.94727,112.23882 L 401.04726,111.78882 L 399.99726,111.33882 L 398.94727,110.88882 L 397.89726,110.58882 L 396.69727,110.13882 L 395.49726,109.83882 L 394.29726,109.53882 L 392.94727,109.23882 L 391.74727,108.78882 L 390.39726,108.63882 L 389.04726,108.33882 L 387.54726,108.33882 L 386.19727,108.03882 L 384.84726,107.88882 L 375.84726,107.88882 L 374.34726,108.03882 L 372.99726,108.33882 L 371.64752,108.33882 L 370.14751,108.63882 L 368.79738,108.78882 L 367.59713,109.23882 L 366.24702,109.53882 L 365.04738,109.83882 L 363.84713,110.13882 L 362.79738,110.58882 L 361.59713,110.88882 L 360.54738,111.33882 L 359.49701,111.78882 L 358.44727,112.23882 L 357.69726,112.83882 L 356.79738,113.43882 L 355.89752,113.88882 L 355.14751,114.33882 L 354.54738,115.08882 L 353.79738,115.68882 L 353.34713,116.13882 L 352.74702,116.88882 L 352.29738,117.48882 L 351.84713,118.23882 L 351.54738,118.83882 L 351.24702,119.43882 L 351.09713,120.18882 L 350.94727,120.78882 L 350.94727,122.28882 L 351.09713,123.03882 L 351.24702,123.78882 L 351.54738,124.38882 L 351.84713,124.98882 L 352.29738,125.73882 L 352.74702,126.33882 L 353.34713,126.93882 L 353.79738,127.53882 L 354.54738,128.13882 L 355.14751,128.73882 L 355.89752,129.33882 L 356.79738,129.78882 L 357.69726,130.38882 L 358.44727,130.83882 L 359.49701,131.43882 L 360.54738,131.88882 L 361.59713,132.33882 L 362.79738,132.63882 L 363.84713,133.08882 L 365.04738,133.38882 L 366.24702,133.68882 L 367.59713,133.98882 L 368.79738,134.28882 L 370.14751,134.43882 L 371.64752,134.73882 L 372.99726,134.88882 L 374.34726,135.03882 L 375.84726,135.33882 L 384.84726,135.33882 L 386.19727,135.03882 L 387.54726,134.88882 L 389.04726,134.73882 L 390.39726,134.43882 L 391.74727,134.28882 L 392.94727,133.98882 L 394.29726,133.68882 L 395.49726,133.38882 L 396.69727,133.08882 L 397.89726,132.63882 L 398.94727,132.33882 L 399.99726,131.88882 L 401.04726,131.43882 L 401.94727,130.83882 L 402.84727,130.38882 L 403.74727,129.78882 L 404.64727,129.33882 L 405.39726,128.73882 L 406.14727,128.13882 L 406.74727,127.53882 L 407.34726,126.93882 L 407.79726,126.33882 L 408.24727,125.73882 L 408.69727,124.98882 L 409.14726,124.38882 L 409.29726,123.78882 L 409.59727,123.03882 L 409.59727,121.53882"
       style="fill:none;stroke:#000000;stroke-width:0.33210003;stroke-linecap:round;stroke-linejoin:round;stroke-miterlimit:10;stroke-dasharray:none;stroke-opacity:1"
       id="path7570" />
    <g
       id="g7572"
       transform="matrix(1.25,0,0,-1.25,247.69727,271.28507)">
      <text
         transform="scale(1,-1)"
         id="text7574"
         x="98.990791"
         y="-117.637">
        <tspan
           style="font-size:7.10340023px;font-variant:normal;font-weight:normal;writing-mode:lr-tb;fill:#000000;fill-opacity:1;fill-rule:nonzero;stroke:none;font-family:Helvetica;-inkscape-font-specification:Helvetica"
           sodipodi:role="line"
           id="tspan7576"
           x="98.990791"
           y="-117.637">done</tspan>
      </text>
    </g>
    <text
       style="font-size:15px"
       y="98.867844"
       x="291.5719"
       id="text7578">
      <tspan
         id="tspan7580"
         sodipodi:role="line"
         style="font-size:8.87925053px;font-variant:normal;font-weight:normal;writing-mode:lr-tb;fill:#000000;fill-opacity:1;fill-rule:nonzero;stroke:none;font-family:Helvetica;-inkscape-font-specification:Helvetica"
         x="291.5719"
         y="98.867844">Analog Digital Converter</tspan>
    </text>
    <path
       d="M 294.39301,122.01978 L 294.39301,121.57017 L 294.24313,121.26979 L 294.09326,120.97004 L 293.94338,120.66979 L 293.94338,120.22004 L 293.64301,119.91979 L 293.49313,119.61992 L 293.19338,119.32017 L 292.74313,119.16979 L 292.44338,118.86992 L 292.14301,118.72004 L 291.84326,118.57017 L 291.39301,118.41979 L 290.94338,118.26979 L 289.29351,118.26979 L 288.84326,118.41979 L 288.54351,118.57017 L 288.09326,118.72004 L 287.79351,118.86992 L 287.49313,119.16979 L 287.19338,119.32017 L 286.89301,119.61992 L 286.74313,119.91979 L 286.44338,120.22004 L 286.29351,120.66979 L 286.14301,120.97004 L 285.99313,121.26979 L 285.99313,122.76978 L 286.14301,123.22003 L 286.29351,123.51978 L 286.44338,123.82017 L 286.74313,124.11992 L 286.89301,124.41978 L 287.19338,124.72003 L 287.49313,124.86992 L 287.79351,125.16978 L 288.09326,125.32017 L 288.54351,125.47003 L 288.84326,125.61992 L 289.29351,125.76978 L 290.94338,125.76978 L 291.39301,125.61992 L 291.84326,125.47003 L 292.14301,125.32017 L 292.44338,125.16978 L 292.74313,124.86992 L 293.19338,124.72003 L 293.49313,124.41978 L 293.64301,124.11992 L 293.94338,123.82017 L 293.94338,123.51978 L 294.09326,123.22003 L 294.24313,122.76978 L 294.39301,122.32017 L 294.39301,122.01978"
       style="fill:#ffffff;fill-opacity:1;fill-rule:evenodd;stroke:none"
       id="path7586" />
    <path
       d="M 286.78353,122.06471 L 286.78353,121.313 L 286.91811,121.01256 L 287.05268,120.5613 L 287.18726,120.26086 L 287.45697,119.95992 L 287.59153,119.65937 L 287.86068,119.35893 L 288.13038,119.20822 L 288.39953,118.90767 L 288.66923,118.75744 L 289.07296,118.45651 L 289.47723,118.45651 L 289.74638,118.30617 L 291.36293,118.30617 L 291.63208,118.45651 L 292.03636,118.45651 L 292.3055,118.75744 L 292.57465,118.90767 L 292.84436,119.20822 L 293.24807,119.35893 L 293.3832,119.65937 L 293.65235,119.95992 L 293.78693,120.26086 L 294.05663,120.5613 L 294.05663,121.01256 L 294.19121,121.313 L 294.32577,121.61406 L 294.32577,122.36576 L 294.19121,122.81642 L 294.05663,123.11747 L 294.05663,123.56812 L 293.78693,123.86917 L 293.65235,124.16961 L 293.3832,124.47016 L 293.24807,124.77108 L 292.84436,124.92131 L 292.57465,125.22186 L 292.3055,125.37257 L 292.03636,125.52278 L 291.63208,125.67302 L 291.36293,125.67302 L 290.95865,125.82323 L 290.15066,125.82323 L 289.74638,125.67302 L 289.47723,125.67302 L 289.07296,125.52278 L 288.66923,125.37257 L 288.39953,125.22186 L 288.13038,124.92131 L 287.86068,124.77108 L 287.59153,124.47016 L 287.45697,124.16961 L 287.18726,123.86917 L 287.05268,123.56812 L 286.91811,123.11747 L 286.78353,122.81642 L 286.78353,122.06471"
       style="fill:none;stroke:#000000;stroke-width:0.31504723;stroke-linecap:round;stroke-linejoin:round;stroke-miterlimit:10;stroke-dasharray:none;stroke-opacity:1"
       id="path7588" />
    <path
       sodipodi:nodetypes="cc"
       d="M 294.19773,121.93667 L 297.12598,121.86596"
       style="fill:none;stroke:#000000;stroke-width:0.31504723;stroke-linecap:round;stroke-linejoin:round;stroke-miterlimit:10;stroke-dasharray:none;stroke-opacity:1"
       id="path7590" />
    <path
       id="path2601"
       style="fill:none;stroke:#000000;stroke-width:0.31504723;stroke-linecap:round;stroke-linejoin:round;stroke-miterlimit:10;stroke-dasharray:none;stroke-opacity:1"
       d="M 69.610565,192.32858 L 69.610565,191.57687 L 69.745135,191.27643 L 69.879715,190.82517 L 70.014285,190.52473 L 70.283995,190.2238 L 70.418565,189.92324 L 70.687705,189.62281 L 70.957415,189.47209 L 71.226565,189.17154 L 71.496265,189.02132 L 71.899985,188.72038 L 72.304265,188.72038 L 72.573405,188.57005 L 74.189955,188.57005 L 74.459105,188.72038 L 74.863385,188.72038 L 75.132525,189.02132 L 75.401675,189.17154 L 75.671385,189.47209 L 76.075095,189.62281 L 76.210225,189.92324 L 76.479375,190.2238 L 76.613955,190.52473 L 76.883655,190.82517 L 76.883655,191.27643 L 77.018235,191.57687 L 77.152795,191.87793 L 77.152795,192.62963 L 77.018235,193.08029 L 76.883655,193.38134 L 76.883655,193.83199 L 76.613955,194.13304 L 76.479375,194.43348 L 76.210225,194.73403 L 76.075095,195.03496 L 75.671385,195.18518 L 75.401675,195.48573 L 75.132525,195.63645 L 74.863385,195.78666 L 74.459105,195.93689 L 74.189955,195.93689 L 73.785675,196.08711 L 72.977685,196.08711 L 72.573405,195.93689 L 72.304265,195.93689 L 71.899985,195.78666 L 71.496265,195.63645 L 71.226565,195.48573 L 70.957415,195.18518 L 70.687705,195.03496 L 70.418565,194.73403 L 70.283995,194.43348 L 70.014285,194.13304 L 69.879715,193.83199 L 69.745135,193.38134 L 69.610565,193.08029 L 69.610565,192.32858" />
    <path
       id="path2603"
       style="fill:none;stroke:#000000;stroke-width:0.31504723;stroke-linecap:round;stroke-linejoin:round;stroke-miterlimit:10;stroke-dasharray:none;stroke-opacity:1"
       d="M 77.152795,192.24322 L 86.312275,192.25787"
       sodipodi:nodetypes="cc" />
    <path
       style="fill:none;fill-rule:evenodd;stroke:#000000;stroke-width:0.40000001;stroke-linecap:butt;stroke-linejoin:miter;marker-end:url(#Arrow2Lend);stroke-miterlimit:4;stroke-dasharray:none;stroke-opacity:1"
       d="M 180.72761,121.1396 L 192.78523,121.1396"
       id="path3489"
       sodipodi:nodetypes="cc" />
    <g
       id="g2479"
       transform="translate(-33.860259,70.81454)">
      <path
         d="M 299.51269,142.54799 L 479.73771,142.54799 L 480.15297,142.39799 L 480.42981,142.24799 L 480.70666,141.94799 L 480.9835,141.64799 L 481.12192,141.19799 L 481.26034,140.89799 L 481.26034,102.34799 L 481.12192,101.89799 L 480.9835,101.59799 L 480.70666,101.14799 L 480.42981,100.99799 L 480.15297,100.69799 L 298.82058,100.69799 L 298.40566,100.99799 L 298.12847,101.14799 L 297.85186,101.59799 L 297.85186,101.89799 L 297.57525,102.34799 L 297.57525,140.89799 L 297.85186,141.19799 L 297.85186,141.64799 L 298.12847,141.94799 L 298.40566,142.24799 L 298.82058,142.39799 L 299.09777,142.54799 L 299.51269,142.54799 L 299.51269,142.54799"
         style="fill:#f8db60;fill-opacity:1;fill-rule:evenodd;stroke:none"
         id="path2481" />
      <path
         sodipodi:nodetypes="cccccccccccccccccccccccccccccc"
         d="M 299.50632,142.5545 L 479.7441,142.5545 L 480.1594,142.40445 L 480.43626,142.2544 L 480.71312,141.95431 L 480.98999,141.65422 L 481.12842,141.20408 L 481.26685,140.90398 L 481.26685,135.57848 L 481.26685,102.342 L 481.12842,101.89186 L 480.98999,101.59176 L 480.71312,101.14162 L 480.43626,100.99158 L 480.1594,100.69148 L 298.81416,100.69148 L 298.39921,100.99158 L 298.12201,101.14162 L 297.84537,101.59176 L 297.84537,101.89186 L 297.56874,102.342 L 297.56874,140.90398 L 297.84537,141.20408 L 297.84537,141.65422 L 298.12201,141.95431 L 298.39921,142.2544 L 298.81416,142.40445 L 299.09137,142.5545 L 299.50632,142.5545 L 299.50632,142.5545"
         style="fill:none;stroke:#000000;stroke-width:0.31908616;stroke-linecap:round;stroke-linejoin:round;stroke-miterlimit:10;stroke-dasharray:none;stroke-opacity:1"
         id="path2483" />
      <path
         d="M 478.825,121.54799 L 478.825,120.94799 L 478.675,120.19799 L 478.375,119.44799 L 478.225,118.84799 L 477.925,118.24799 L 477.625,117.49799 L 477.025,116.89799 L 476.575,116.29799 L 475.825,115.69799 L 475.375,115.09799 L 474.625,114.34799 L 473.725,113.89799 L 472.975,113.44799 L 472.075,112.84799 L 471.175,112.24799 L 470.275,111.79799 L 469.225,111.34799 L 468.175,110.89799 L 466.975,110.59799 L 465.925,110.14799 L 464.725,109.84799 L 463.525,109.54799 L 462.325,109.24799 L 460.975,108.79799 L 459.625,108.64799 L 458.275,108.34799 L 456.775,108.34799 L 455.425,108.04799 L 453.925,107.89799 L 445.075,107.89799 L 443.575,108.04799 L 442.225,108.34799 L 440.725,108.34799 L 439.375,108.64799 L 438.025,108.79799 L 436.675,109.24799 L 435.475,109.54799 L 434.275,109.84799 L 433.075,110.14799 L 432.025,110.59799 L 430.825,110.89799 L 429.775,111.34799 L 428.725,111.79799 L 427.825,112.24799 L 426.925,112.84799 L 426.025,113.44799 L 425.275,113.89799 L 424.375,114.34799 L 423.625,115.09799 L 423.025,115.69799 L 422.425,116.29799 L 421.825,116.89799 L 421.375,117.49799 L 421.075,118.24799 L 420.775,118.84799 L 420.475,119.44799 L 420.325,120.19799 L 420.175,120.79799 L 420.175,122.29799 L 420.325,123.04799 L 420.475,123.79799 L 420.775,124.39799 L 421.075,124.99799 L 421.375,125.74799 L 421.825,126.34799 L 422.425,126.94799 L 423.025,127.54799 L 423.625,128.14799 L 424.375,128.74799 L 425.275,129.34799 L 426.025,129.79799 L 426.925,130.39799 L 427.825,130.84799 L 428.725,131.44799 L 429.775,131.89799 L 430.825,132.34799 L 432.025,132.64799 L 433.075,133.09799 L 434.275,133.39799 L 435.475,133.69799 L 436.675,133.99799 L 438.025,134.29799 L 439.375,134.44799 L 440.725,134.74799 L 442.225,134.89799 L 443.575,135.04799 L 445.075,135.34799 L 453.925,135.34799 L 455.425,135.04799 L 456.775,134.89799 L 458.275,134.74799 L 459.625,134.44799 L 460.975,134.29799 L 462.325,133.99799 L 463.525,133.69799 L 464.725,133.39799 L 465.925,133.09799 L 466.975,132.64799 L 468.175,132.34799 L 469.225,131.89799 L 470.275,131.44799 L 471.175,130.84799 L 472.075,130.39799 L 472.975,129.79799 L 473.725,129.34799 L 474.625,128.74799 L 475.375,128.14799 L 475.825,127.54799 L 476.575,126.94799 L 477.025,126.34799 L 477.625,125.74799 L 477.925,124.99799 L 478.225,124.39799 L 478.375,123.79799 L 478.675,123.04799 L 478.825,122.29799 L 478.825,121.54799"
         style="fill:#ffffff;fill-opacity:1;fill-rule:evenodd;stroke:none"
         id="path2485" />
      <path
         d="M 478.825,121.54799 L 478.825,120.94799 L 478.675,120.19799 L 478.375,119.44799 L 478.225,118.84799 L 477.925,118.24799 L 477.625,117.49799 L 477.025,116.89799 L 476.575,116.29799 L 475.825,115.69799 L 475.375,115.09799 L 474.625,114.34799 L 473.725,113.89799 L 472.975,113.44799 L 472.075,112.84799 L 471.175,112.24799 L 470.275,111.79799 L 469.225,111.34799 L 468.175,110.89799 L 466.975,110.59799 L 465.925,110.14799 L 464.725,109.84799 L 463.525,109.54799 L 462.325,109.24799 L 460.975,108.79799 L 459.625,108.64799 L 458.275,108.34799 L 456.775,108.34799 L 455.425,108.04799 L 453.925,107.89799 L 445.075,107.89799 L 443.575,108.04799 L 442.225,108.34799 L 440.725,108.34799 L 439.375,108.64799 L 438.025,108.79799 L 436.675,109.24799 L 435.475,109.54799 L 434.275,109.84799 L 433.075,110.14799 L 432.025,110.59799 L 430.825,110.89799 L 429.775,111.34799 L 428.725,111.79799 L 427.825,112.24799 L 426.925,112.84799 L 426.025,113.44799 L 425.275,113.89799 L 424.375,114.34799 L 423.625,115.09799 L 423.025,115.69799 L 422.425,116.29799 L 421.825,116.89799 L 421.375,117.49799 L 421.075,118.24799 L 420.775,118.84799 L 420.475,119.44799 L 420.325,120.19799 L 420.175,120.79799 L 420.175,122.29799 L 420.325,123.04799 L 420.475,123.79799 L 420.775,124.39799 L 421.075,124.99799 L 421.375,125.74799 L 421.825,126.34799 L 422.425,126.94799 L 423.025,127.54799 L 423.625,128.14799 L 424.375,128.74799 L 425.275,129.34799 L 426.025,129.79799 L 426.925,130.39799 L 427.825,130.84799 L 428.725,131.44799 L 429.775,131.89799 L 430.825,132.34799 L 432.025,132.64799 L 433.075,133.09799 L 434.275,133.39799 L 435.475,133.69799 L 436.675,133.99799 L 438.025,134.29799 L 439.375,134.44799 L 440.725,134.74799 L 442.225,134.89799 L 443.575,135.04799 L 445.075,135.34799 L 453.925,135.34799 L 455.425,135.04799 L 456.775,134.89799 L 458.275,134.74799 L 459.625,134.44799 L 460.975,134.29799 L 462.325,133.99799 L 463.525,133.69799 L 464.725,133.39799 L 465.925,133.09799 L 466.975,132.64799 L 468.175,132.34799 L 469.225,131.89799 L 470.275,131.44799 L 471.175,130.84799 L 472.075,130.39799 L 472.975,129.79799 L 473.725,129.34799 L 474.625,128.74799 L 475.375,128.14799 L 475.825,127.54799 L 476.575,126.94799 L 477.025,126.34799 L 477.625,125.74799 L 477.925,124.99799 L 478.225,124.39799 L 478.375,123.79799 L 478.675,123.04799 L 478.825,122.29799 L 478.825,121.54799"
         style="fill:none;stroke:#000000;stroke-width:0.33210003;stroke-linecap:round;stroke-linejoin:round;stroke-miterlimit:10;stroke-dasharray:none;stroke-opacity:1"
         id="path2487" />
      <g
         id="g2489"
         transform="matrix(1.25,0,0,-1.25,190.625,271.29424)">
        <text
           transform="matrix(1,0,0,-1,204.16,117.637)"
           id="text2491">
          <tspan
             style="font-size:7.10340023px;font-variant:normal;font-weight:normal;writing-mode:lr-tb;fill:#000000;fill-opacity:1;fill-rule:nonzero;stroke:none;font-family:Helvetica;-inkscape-font-specification:Helvetica"
             x="0 2.4000025"
             y="0"
             sodipodi:role="line"
             id="tspan2493">rx</tspan>
        </text>
      </g>
      <path
         d="M 305.175,134.14799 L 353.175,134.14799 L 353.625,133.99799 L 353.625,133.99799 L 353.925,133.84799 L 354.075,133.54799 L 354.225,133.39799 L 354.225,109.69799 L 354.075,109.54799 L 353.925,109.39799 L 353.625,109.24799 L 353.625,109.09799 L 353.175,109.09799 L 353.025,108.94799 L 305.175,108.94799 L 305.025,109.09799 L 304.725,109.09799 L 304.575,109.24799 L 304.275,109.39799 L 304.275,109.54799 L 304.125,109.69799 L 303.975,109.99799 L 303.975,133.09799 L 304.125,133.39799 L 304.275,133.54799 L 304.275,133.84799 L 304.575,133.99799 L 304.725,133.99799 L 305.025,134.14799 L 305.175,134.14799 L 305.175,134.14799"
         style="fill:#ffffff;fill-opacity:1;fill-rule:evenodd;stroke:none"
         id="path2495" />
      <path
         d="M 305.175,134.14799 L 353.175,134.14799 L 353.625,133.99799 L 353.625,133.99799 L 353.925,133.84799 L 354.075,133.54799 L 354.225,133.39799 L 354.225,109.69799 L 354.075,109.54799 L 353.925,109.39799 L 353.625,109.24799 L 353.625,109.09799 L 353.175,109.09799 L 353.025,108.94799 L 305.175,108.94799 L 305.025,109.09799 L 304.725,109.09799 L 304.575,109.24799 L 304.275,109.39799 L 304.275,109.54799 L 304.125,109.69799 L 303.975,109.99799 L 303.975,133.09799 L 304.125,133.39799 L 304.275,133.54799 L 304.275,133.84799 L 304.575,133.99799 L 304.725,133.99799 L 305.025,134.14799 L 305.175,134.14799 L 305.175,134.14799"
         style="fill:none;stroke:#000000;stroke-width:0.33210003;stroke-linecap:round;stroke-linejoin:round;stroke-miterlimit:10;stroke-dasharray:none;stroke-opacity:1"
         id="path2497" />
      <g
         transform="matrix(1.25,0,0,-1.25,212.03039,270.4494)"
         id="g2499">
        <text
           y="-121.837"
           x="93.839943"
           style="text-align:center;text-anchor:middle"
           transform="scale(1,-1)"
           id="text2501">
          <tspan
             id="tspan2503"
             y="-121.837"
             x="93.839943"
             style="font-size:7.10340023px;font-variant:normal;font-weight:normal;text-align:center;writing-mode:lr-tb;text-anchor:middle;fill:#000000;fill-opacity:1;fill-rule:nonzero;stroke:none;font-family:Helvetica;-inkscape-font-specification:Helvetica"
             sodipodi:role="line">start</tspan>
          <tspan
             id="tspan2505"
             y="-112.95775"
             x="93.839943"
             style="font-size:7.10340023px;font-variant:normal;font-weight:normal;text-align:center;writing-mode:lr-tb;text-anchor:middle;fill:#000000;fill-opacity:1;fill-rule:nonzero;stroke:none;font-family:Helvetica;-inkscape-font-specification:Helvetica"
             sodipodi:role="line">transmit</tspan>
        </text>
      </g>
      <path
         d="M 352.625,103.69799 L 356.07525,109.54799 L 357.875,104.44799 L 360.72512,109.39799"
         style="fill:none;stroke:#000000;stroke-width:0.33210003;stroke-linecap:round;stroke-linejoin:round;stroke-miterlimit:10;stroke-dasharray:none;stroke-opacity:1"
         id="path2507" />
      <path
         d="M 363.125,113.29799 L 357.42475,109.69799 L 358.17475,109.54799 L 359.07525,109.24799 L 359.67475,109.09799 L 360.42475,108.79799 L 361.02487,108.34799 L 361.625,107.74799 L 362.22512,107.14799 L 362.67475,106.69799 L 362.67475,106.69799 L 363.125,113.29799 L 363.125,113.29799"
         style="fill:#000000;fill-opacity:1;fill-rule:evenodd;stroke:none"
         id="path2509" />
      <path
         d="M 416.525,121.54799 L 416.525,120.19799 L 416.225,119.44799 L 416.075,118.84799 L 415.625,118.24799 L 415.175,117.49799 L 414.725,116.89799 L 414.275,116.14799 L 413.675,115.69799 L 413.075,115.09799 L 412.325,114.34799 L 411.575,113.89799 L 410.675,113.44799 L 409.775,112.84799 L 408.875,112.24799 L 407.975,111.79799 L 406.925,111.34799 L 405.875,110.89799 L 404.825,110.59799 L 403.625,110.14799 L 402.425,109.84799 L 401.225,109.54799 L 399.875,109.24799 L 398.675,108.79799 L 397.325,108.64799 L 395.975,108.34799 L 394.475,108.34799 L 393.125,108.04799 L 391.775,107.89799 L 382.775,107.89799 L 381.275,108.04799 L 379.925,108.34799 L 378.57525,108.34799 L 377.07525,108.64799 L 375.72512,108.79799 L 374.52487,109.24799 L 373.17475,109.54799 L 371.97512,109.84799 L 370.77487,110.14799 L 369.72512,110.59799 L 368.52487,110.89799 L 367.47512,111.34799 L 366.42475,111.79799 L 365.375,112.24799 L 364.625,112.84799 L 363.72512,113.44799 L 362.82525,113.89799 L 362.07525,114.34799 L 361.47512,115.09799 L 360.72512,115.69799 L 360.27487,116.14799 L 359.67475,116.89799 L 359.22512,117.49799 L 358.77487,118.24799 L 358.47512,118.84799 L 358.17475,119.44799 L 358.02487,120.19799 L 357.875,120.79799 L 357.875,122.29799 L 358.02487,123.04799 L 358.17475,123.79799 L 358.47512,124.39799 L 358.77487,124.99799 L 359.22512,125.74799 L 359.67475,126.34799 L 360.27487,126.94799 L 360.72512,127.54799 L 361.47512,128.14799 L 362.07525,128.74799 L 362.82525,129.34799 L 363.72512,129.79799 L 364.625,130.39799 L 365.375,130.84799 L 366.42475,131.44799 L 367.47512,131.89799 L 368.52487,132.34799 L 369.72512,132.64799 L 370.77487,133.09799 L 371.97512,133.39799 L 373.17475,133.69799 L 374.52487,133.99799 L 375.72512,134.29799 L 377.07525,134.44799 L 378.57525,134.74799 L 379.925,134.89799 L 381.275,135.04799 L 382.775,135.34799 L 391.775,135.34799 L 393.125,135.04799 L 394.475,134.89799 L 395.975,134.74799 L 397.325,134.44799 L 398.675,134.29799 L 399.875,133.99799 L 401.225,133.69799 L 402.425,133.39799 L 403.625,133.09799 L 404.825,132.64799 L 405.875,132.34799 L 406.925,131.89799 L 407.975,131.44799 L 408.875,130.84799 L 409.775,130.39799 L 410.675,129.79799 L 411.575,129.34799 L 412.325,128.74799 L 413.075,128.14799 L 413.675,127.54799 L 414.275,126.94799 L 414.725,126.34799 L 415.175,125.74799 L 415.625,124.99799 L 416.075,124.39799 L 416.225,123.79799 L 416.525,123.04799 L 416.525,121.54799"
         style="fill:#ffffff;fill-opacity:1;fill-rule:evenodd;stroke:none"
         id="path2511" />
      <path
         d="M 416.525,121.54799 L 416.525,120.19799 L 416.225,119.44799 L 416.075,118.84799 L 415.625,118.24799 L 415.175,117.49799 L 414.725,116.89799 L 414.275,116.14799 L 413.675,115.69799 L 413.075,115.09799 L 412.325,114.34799 L 411.575,113.89799 L 410.675,113.44799 L 409.775,112.84799 L 408.875,112.24799 L 407.975,111.79799 L 406.925,111.34799 L 405.875,110.89799 L 404.825,110.59799 L 403.625,110.14799 L 402.425,109.84799 L 401.225,109.54799 L 399.875,109.24799 L 398.675,108.79799 L 397.325,108.64799 L 395.975,108.34799 L 394.475,108.34799 L 393.125,108.04799 L 391.775,107.89799 L 382.775,107.89799 L 381.275,108.04799 L 379.925,108.34799 L 378.57525,108.34799 L 377.07525,108.64799 L 375.72512,108.79799 L 374.52487,109.24799 L 373.17475,109.54799 L 371.97512,109.84799 L 370.77487,110.14799 L 369.72512,110.59799 L 368.52487,110.89799 L 367.47512,111.34799 L 366.42475,111.79799 L 365.375,112.24799 L 364.625,112.84799 L 363.72512,113.44799 L 362.82525,113.89799 L 362.07525,114.34799 L 361.47512,115.09799 L 360.72512,115.69799 L 360.27487,116.14799 L 359.67475,116.89799 L 359.22512,117.49799 L 358.77487,118.24799 L 358.47512,118.84799 L 358.17475,119.44799 L 358.02487,120.19799 L 357.875,120.79799 L 357.875,122.29799 L 358.02487,123.04799 L 358.17475,123.79799 L 358.47512,124.39799 L 358.77487,124.99799 L 359.22512,125.74799 L 359.67475,126.34799 L 360.27487,126.94799 L 360.72512,127.54799 L 361.47512,128.14799 L 362.07525,128.74799 L 362.82525,129.34799 L 363.72512,129.79799 L 364.625,130.39799 L 365.375,130.84799 L 366.42475,131.44799 L 367.47512,131.89799 L 368.52487,132.34799 L 369.72512,132.64799 L 370.77487,133.09799 L 371.97512,133.39799 L 373.17475,133.69799 L 374.52487,133.99799 L 375.72512,134.29799 L 377.07525,134.44799 L 378.57525,134.74799 L 379.925,134.89799 L 381.275,135.04799 L 382.775,135.34799 L 391.775,135.34799 L 393.125,135.04799 L 394.475,134.89799 L 395.975,134.74799 L 397.325,134.44799 L 398.675,134.29799 L 399.875,133.99799 L 401.225,133.69799 L 402.425,133.39799 L 403.625,133.09799 L 404.825,132.64799 L 405.875,132.34799 L 406.925,131.89799 L 407.975,131.44799 L 408.875,130.84799 L 409.775,130.39799 L 410.675,129.79799 L 411.575,129.34799 L 412.325,128.74799 L 413.075,128.14799 L 413.675,127.54799 L 414.275,126.94799 L 414.725,126.34799 L 415.175,125.74799 L 415.625,124.99799 L 416.075,124.39799 L 416.225,123.79799 L 416.525,123.04799 L 416.525,121.54799"
         style="fill:none;stroke:#000000;stroke-width:0.33210003;stroke-linecap:round;stroke-linejoin:round;stroke-miterlimit:10;stroke-dasharray:none;stroke-opacity:1"
         id="path2513" />
      <g
         id="g2515"
         transform="matrix(1.25,0,0,-1.25,254.625,271.29424)">
        <text
           transform="matrix(1,0,0,-1,103.24,117.637)"
           id="text2517">
          <tspan
             style="font-size:7.10340023px;font-variant:normal;font-weight:normal;writing-mode:lr-tb;fill:#000000;fill-opacity:1;fill-rule:nonzero;stroke:none;font-family:Helvetica;-inkscape-font-specification:Helvetica"
             x="0 2.040004"
             y="0"
             sodipodi:role="line"
             id="tspan2519">tx</tspan>
        </text>
      </g>
      <text
         style="font-size:15px"
         y="98.877007"
         x="298.49966"
         id="text2521">
        <tspan
           id="tspan2523"
           sodipodi:role="line"
           style="font-size:8.87925053px;font-variant:normal;font-weight:normal;writing-mode:lr-tb;fill:#000000;fill-opacity:1;fill-rule:nonzero;stroke:none;font-family:Helvetica;-inkscape-font-specification:Helvetica"
           x="298.49966"
           y="98.877007">Serial Interface</tspan>
      </text>
      <path
         d="M 417.6592,102.38849 L 421.10945,108.23849 L 422.9092,103.13849 L 425.75932,108.08849"
         style="fill:none;stroke:#000000;stroke-width:0.33210003;stroke-linecap:round;stroke-linejoin:round;stroke-miterlimit:10;stroke-dasharray:none;stroke-opacity:1"
         id="path2525" />
      <path
         d="M 428.1592,111.98849 L 422.45895,108.38849 L 423.20895,108.23849 L 424.10945,107.93849 L 424.70895,107.78849 L 425.45895,107.48849 L 426.05907,107.03849 L 426.6592,106.43849 L 427.25932,105.83849 L 427.70895,105.38849 L 427.70895,105.38849 L 428.1592,111.98849 L 428.1592,111.98849"
         style="fill:#000000;fill-opacity:1;fill-rule:evenodd;stroke:none"
         id="path2527" />
    </g>
    <path
       id="path2529"
       style="fill:#f8db60;fill-opacity:1;fill-rule:evenodd;stroke:none"
       d="M 172.93196,213.40521 L 241.93198,213.40521 L 242.38161,213.25533 L 242.83186,213.10545 L 243.13161,213.10545 L 243.58186,212.65521 L 243.73173,212.35545 L 244.03211,212.0552 L 244.03211,172.60545 L 243.73173,172.3052 L 243.58186,172.00533 L 243.13161,171.70558 L 242.83186,171.5552 L 242.38161,171.4052 L 172.48176,171.4052 L 172.03206,171.5552 L 171.73176,171.70558 L 171.28206,172.00533 L 171.13166,172.3052 L 170.83186,172.60545 L 170.83186,212.0552 L 171.13166,212.35545 L 171.28206,212.65521 L 171.73176,213.10545 L 172.03206,213.10545 L 172.48176,213.25533 L 172.93196,213.40521 L 172.93196,213.40521" />
    <path
       id="path2531"
       style="fill:none;stroke:#000000;stroke-width:0.33210003;stroke-linecap:round;stroke-linejoin:round;stroke-miterlimit:10;stroke-dasharray:none;stroke-opacity:1"
       d="M 172.93196,213.40521 L 241.93198,213.40521 L 242.38161,213.25533 L 242.83186,213.10545 L 243.13161,213.10545 L 243.58186,212.65521 L 243.73173,212.35545 L 244.03211,212.0552 L 244.03211,172.60545 L 243.73173,172.3052 L 243.58186,172.00533 L 243.13161,171.70558 L 242.83186,171.5552 L 242.38161,171.4052 L 172.48176,171.4052 L 172.03206,171.5552 L 171.73176,171.70558 L 171.28206,172.00533 L 171.13166,172.3052 L 170.83186,172.60545 L 170.83186,212.0552 L 171.13166,212.35545 L 171.28206,212.65521 L 171.73176,213.10545 L 172.03206,213.10545 L 172.48176,213.25533 L 172.93196,213.40521 L 172.93196,213.40521" />
    <text
       style="font-size:15px;text-align:center;text-anchor:middle"
       y="188.74092"
       x="205.45238"
       id="text2539">
      <tspan
         id="tspan2541"
         y="188.74092"
         style="font-size:8.87925053px;font-style:italic;font-variant:normal;font-weight:normal;text-align:center;writing-mode:lr-tb;text-anchor:middle;fill:#000000;fill-opacity:1;fill-rule:nonzero;stroke:none;font-family:Helvetica;-inkscape-font-specification:Helvetica"
         x="205.45238"
         sodipodi:role="line">write()</tspan>
    </text>
    <text
       id="text2571"
       y="201.02097"
       x="180.98106"
       style="font-size:9px;font-style:italic;font-weight:normal;fill:#000000;fill-opacity:1;stroke:none;stroke-width:1px;stroke-linecap:butt;stroke-linejoin:miter;stroke-opacity:1;font-family:Bitstream Vera Sans;-inkscape-font-specification:Sans Italic"
       xml:space="preserve"><tspan
         y="201.02097"
         x="180.98106"
         id="tspan2573"
         sodipodi:role="line">writeln()</tspan></text>
    <g
       id="g2545"
       transform="matrix(1.25,0,0,-1.25,166.48852,341.60114)">
      <text
         transform="matrix(1,0,0,-1,3.88008,137.797)"
         id="text2547">
        <tspan
           y="0"
           x="0"
           style="font-size:7.10340023px;font-variant:normal;font-weight:normal;writing-mode:lr-tb;fill:#000000;fill-opacity:1;fill-rule:nonzero;stroke:none;font-family:Helvetica;-inkscape-font-specification:Helvetica"
           sodipodi:role="line"
           id="tspan2549">OutputChannel</tspan>
      </text>
      <flowRoot
         xml:space="preserve"
         id="flowRoot2585"
         style="font-size:9px;font-style:italic;font-weight:normal;fill:#000000;fill-opacity:1;stroke:none;stroke-width:1px;stroke-linecap:butt;stroke-linejoin:miter;stroke-opacity:1;font-family:Bitstream Vera Sans;-inkscape-font-specification:Sans Italic"><flowRegion
           id="flowRegion2587"><rect
             id="rect2589"
             width="400.16397"
             height="109.94267"
             x="12.291726"
             y="55.834415" /></flowRegion><flowPara
           id="flowPara2591"></flowPara></flowRoot>    </g>
    <path
       id="path2555"
       style="fill:#808080;fill-opacity:1;fill-rule:evenodd;stroke:none"
       d="M 247.4852,192.50902 L 247.4852,191.75731 L 247.35063,191.45687 L 247.21605,191.00561 L 247.08148,190.70517 L 246.81177,190.40424 L 246.6772,190.10368 L 246.40806,189.80325 L 246.13835,189.65253 L 245.8692,189.35198 L 245.5995,189.20176 L 245.19578,188.90082 L 244.7915,188.90082 L 244.52236,188.75049 L 242.90581,188.75049 L 242.63666,188.90082 L 242.23238,188.90082 L 241.96324,189.20176 L 241.69409,189.35198 L 241.42438,189.65253 L 241.02067,189.80325 L 240.88554,190.10368 L 240.61639,190.40424 L 240.48181,190.70517 L 240.21211,191.00561 L 240.21211,191.45687 L 240.07753,191.75731 L 239.94297,192.05837 L 239.94297,192.81007 L 240.07753,193.26073 L 240.21211,193.56178 L 240.21211,194.01243 L 240.48181,194.31348 L 240.61639,194.61392 L 240.88554,194.91447 L 241.02067,195.2154 L 241.42438,195.36562 L 241.69409,195.66617 L 241.96324,195.81689 L 242.23238,195.9671 L 242.63666,196.11733 L 242.90581,196.11733 L 243.31009,196.26755 L 244.11808,196.26755 L 244.52236,196.11733 L 244.7915,196.11733 L 245.19578,195.9671 L 245.5995,195.81689 L 245.8692,195.66617 L 246.13835,195.36562 L 246.40806,195.2154 L 246.6772,194.91447 L 246.81177,194.61392 L 247.08148,194.31348 L 247.21605,194.01243 L 247.35063,193.56178 L 247.4852,193.26073 L 247.4852,192.50902" />
    <path
       id="path2557"
       style="fill:none;stroke:#000000;stroke-width:0.31504723;stroke-linecap:round;stroke-linejoin:round;stroke-miterlimit:10;stroke-dasharray:none;stroke-opacity:1"
       d="M 247.4852,192.50902 L 247.4852,191.75731 L 247.35063,191.45687 L 247.21605,191.00561 L 247.08148,190.70517 L 246.81177,190.40424 L 246.6772,190.10368 L 246.40806,189.80325 L 246.13835,189.65253 L 245.8692,189.35198 L 245.5995,189.20176 L 245.19578,188.90082 L 244.7915,188.90082 L 244.52236,188.75049 L 242.90581,188.75049 L 242.63666,188.90082 L 242.23238,188.90082 L 241.96324,189.20176 L 241.69409,189.35198 L 241.42438,189.65253 L 241.02067,189.80325 L 240.88554,190.10368 L 240.61639,190.40424 L 240.48181,190.70517 L 240.21211,191.00561 L 240.21211,191.45687 L 240.07753,191.75731 L 239.94297,192.05837 L 239.94297,192.81007 L 240.07753,193.26073 L 240.21211,193.56178 L 240.21211,194.01243 L 240.48181,194.31348 L 240.61639,194.61392 L 240.88554,194.91447 L 241.02067,195.2154 L 241.42438,195.36562 L 241.69409,195.66617 L 241.96324,195.81689 L 242.23238,195.9671 L 242.63666,196.11733 L 242.90581,196.11733 L 243.31009,196.26755 L 244.11808,196.26755 L 244.52236,196.11733 L 244.7915,196.11733 L 245.19578,195.9671 L 245.5995,195.81689 L 245.8692,195.66617 L 246.13835,195.36562 L 246.40806,195.2154 L 246.6772,194.91447 L 246.81177,194.61392 L 247.08148,194.31348 L 247.21605,194.01243 L 247.35063,193.56178 L 247.4852,193.26073 L 247.4852,192.50902" />
    <path
       id="path2559"
       style="fill:none;stroke:#000000;stroke-width:0.31504723;stroke-linecap:round;stroke-linejoin:round;stroke-miterlimit:10;stroke-dasharray:none;stroke-opacity:1"
       d="M 239.46011,192.26759 L 228.84952,192.28224"
       sodipodi:nodetypes="cc" />
    <path
       id="path2561"
       style="fill:#ffffff;fill-opacity:1;fill-rule:evenodd;stroke:none"
       d="M 267.46049,192.8435 L 267.46049,192.39389 L 267.31061,192.09351 L 267.16074,191.79376 L 267.01086,191.49351 L 267.01086,191.04376 L 266.71049,190.74351 L 266.56061,190.44364 L 266.26086,190.14389 L 265.81061,189.99351 L 265.51086,189.69364 L 265.21049,189.54376 L 264.91074,189.39389 L 264.46049,189.24351 L 264.01086,189.09351 L 262.36099,189.09351 L 261.91074,189.24351 L 261.61099,189.39389 L 261.16074,189.54376 L 260.86099,189.69364 L 260.56061,189.99351 L 260.26086,190.14389 L 259.96049,190.44364 L 259.81062,190.74351 L 259.51087,191.04376 L 259.36099,191.49351 L 259.21049,191.79376 L 259.06062,192.09351 L 259.06062,193.5935 L 259.21049,194.04375 L 259.36099,194.3435 L 259.51087,194.64388 L 259.81062,194.94363 L 259.96049,195.2435 L 260.26086,195.54375 L 260.56061,195.69363 L 260.86099,195.9935 L 261.16074,196.14388 L 261.61099,196.29375 L 261.91074,196.44363 L 262.36099,196.5935 L 264.01086,196.5935 L 264.46049,196.44363 L 264.91074,196.29375 L 265.21049,196.14388 L 265.51086,195.9935 L 265.81061,195.69363 L 266.26086,195.54375 L 266.56061,195.2435 L 266.71049,194.94363 L 267.01086,194.64388 L 267.01086,194.3435 L 267.16074,194.04375 L 267.31061,193.5935 L 267.46049,193.14388 L 267.46049,192.8435" />
    <path
       id="path2563"
       style="fill:none;stroke:#000000;stroke-width:0.31504723;stroke-linecap:round;stroke-linejoin:round;stroke-miterlimit:10;stroke-dasharray:none;stroke-opacity:1"
       d="M 259.85102,192.88842 L 259.85102,192.13671 L 259.98559,191.83627 L 260.12017,191.38501 L 260.25474,191.08457 L 260.52445,190.78364 L 260.65902,190.48308 L 260.92816,190.18265 L 261.19787,190.03193 L 261.46702,189.73138 L 261.73672,189.58116 L 262.14044,189.28022 L 262.54472,189.28022 L 262.81386,189.12989 L 264.43041,189.12989 L 264.69956,189.28022 L 265.10384,189.28022 L 265.37298,189.58116 L 265.64213,189.73138 L 265.91184,190.03193 L 266.31555,190.18265 L 266.45068,190.48308 L 266.71983,190.78364 L 266.85441,191.08457 L 267.12411,191.38501 L 267.12411,191.83627 L 267.25869,192.13671 L 267.39325,192.43777 L 267.39325,193.18947 L 267.25869,193.64013 L 267.12411,193.94118 L 267.12411,194.39183 L 266.85441,194.69288 L 266.71983,194.99332 L 266.45068,195.29387 L 266.31555,195.5948 L 265.91184,195.74502 L 265.64213,196.04557 L 265.37298,196.19629 L 265.10384,196.3465 L 264.69956,196.49673 L 264.43041,196.49673 L 264.02613,196.64695 L 263.21814,196.64695 L 262.81386,196.49673 L 262.54472,196.49673 L 262.14044,196.3465 L 261.73672,196.19629 L 261.46702,196.04557 L 261.19787,195.74502 L 260.92816,195.5948 L 260.65902,195.29387 L 260.52445,194.99332 L 260.25474,194.69288 L 260.12017,194.39183 L 259.98559,193.94118 L 259.85102,193.64013 L 259.85102,192.88842" />
    <path
       id="path2565"
       style="fill:none;stroke:#000000;stroke-width:0.31504723;stroke-linecap:round;stroke-linejoin:round;stroke-miterlimit:10;stroke-dasharray:none;stroke-opacity:1"
       d="M 267.26521,192.76038 L 270.19347,192.68967"
       sodipodi:nodetypes="cc" />
    <path
       style="fill:none;fill-rule:evenodd;stroke:#000000;stroke-width:0.40000001;stroke-linecap:butt;stroke-linejoin:miter;marker-end:url(#Arrow2Lend);stroke-miterlimit:4;stroke-dasharray:none;stroke-opacity:1"
       d="M 247.32831,192.6013 L 259.38592,192.6013"
       id="path2567"
       sodipodi:nodetypes="cc" />
    <path
       id="path2581"
       style="fill:none;stroke:#000000;stroke-width:0.31504723;stroke-linecap:round;stroke-linejoin:round;stroke-miterlimit:10;stroke-dasharray:none;stroke-opacity:1"
       d="M 219.80229,186.87899 L 228.96921,192.22244"
       sodipodi:nodetypes="cc"
       inkscape:transform-center-y="3.5679586"
       inkscape:transform-center-x="-0.671175" />
    <path
       id="path2583"
       style="fill:none;stroke:#000000;stroke-width:0.31504723;stroke-linecap:round;stroke-linejoin:round;stroke-miterlimit:10;stroke-dasharray:none;stroke-opacity:1"
       d="M 219.85541,197.46215 L 229.02233,192.1187"
       sodipodi:nodetypes="cc"
       inkscape:transform-center-y="-3.5679614"
       inkscape:transform-center-x="-0.671175" />
    <path
       style="fill:none;fill-rule:evenodd;stroke:#000000;stroke-width:0.99599999;stroke-linecap:butt;stroke-linejoin:miter;marker-start:url(#DotM);marker-end:url(#Arrow1Mstart);stroke-miterlimit:4;stroke-dasharray:2.98799998, 0.99599999;stroke-dashoffset:0;stroke-opacity:1"
       d="M 121.16249,190.44483 C 156.87607,162.58791 192.69711,193.44532 187.699,189.88084"
       id="path2614"
       sodipodi:nodetypes="cc" />
    <path
       id="path7592"
       style="fill:#808080;fill-opacity:1;fill-rule:evenodd;stroke:none"
       d="M 420.46707,122.14829 L 420.46707,121.39658 L 420.3325,121.09614 L 420.19792,120.64488 L 420.06335,120.34444 L 419.79364,120.04351 L 419.65907,119.74295 L 419.38993,119.44252 L 419.12022,119.2918 L 418.85107,118.99125 L 418.58137,118.84103 L 418.17765,118.54009 L 417.77337,118.54009 L 417.50423,118.38976 L 415.88768,118.38976 L 415.61853,118.54009 L 415.21425,118.54009 L 414.94511,118.84103 L 414.67596,118.99125 L 414.40625,119.2918 L 414.00254,119.44252 L 413.86741,119.74295 L 413.59826,120.04351 L 413.46368,120.34444 L 413.19398,120.64488 L 413.19398,121.09614 L 413.0594,121.39658 L 412.92484,121.69764 L 412.92484,122.44934 L 413.0594,122.9 L 413.19398,123.20105 L 413.19398,123.6517 L 413.46368,123.95275 L 413.59826,124.25319 L 413.86741,124.55374 L 414.00254,124.85467 L 414.40625,125.00489 L 414.67596,125.30544 L 414.94511,125.45616 L 415.21425,125.60637 L 415.61853,125.7566 L 415.88768,125.7566 L 416.29196,125.90682 L 417.09995,125.90682 L 417.50423,125.7566 L 417.77337,125.7566 L 418.17765,125.60637 L 418.58137,125.45616 L 418.85107,125.30544 L 419.12022,125.00489 L 419.38993,124.85467 L 419.65907,124.55374 L 419.79364,124.25319 L 420.06335,123.95275 L 420.19792,123.6517 L 420.3325,123.20105 L 420.46707,122.9 L 420.46707,122.14829" />
    <path
       id="path7594"
       style="fill:none;stroke:#000000;stroke-width:0.31504723;stroke-linecap:round;stroke-linejoin:round;stroke-miterlimit:10;stroke-dasharray:none;stroke-opacity:1"
       d="M 420.46707,122.14829 L 420.46707,121.39658 L 420.3325,121.09614 L 420.19792,120.64488 L 420.06335,120.34444 L 419.79364,120.04351 L 419.65907,119.74295 L 419.38993,119.44252 L 419.12022,119.2918 L 418.85107,118.99125 L 418.58137,118.84103 L 418.17765,118.54009 L 417.77337,118.54009 L 417.50423,118.38976 L 415.88768,118.38976 L 415.61853,118.54009 L 415.21425,118.54009 L 414.94511,118.84103 L 414.67596,118.99125 L 414.40625,119.2918 L 414.00254,119.44252 L 413.86741,119.74295 L 413.59826,120.04351 L 413.46368,120.34444 L 413.19398,120.64488 L 413.19398,121.09614 L 413.0594,121.39658 L 412.92484,121.69764 L 412.92484,122.44934 L 413.0594,122.9 L 413.19398,123.20105 L 413.19398,123.6517 L 413.46368,123.95275 L 413.59826,124.25319 L 413.86741,124.55374 L 414.00254,124.85467 L 414.40625,125.00489 L 414.67596,125.30544 L 414.94511,125.45616 L 415.21425,125.60637 L 415.61853,125.7566 L 415.88768,125.7566 L 416.29196,125.90682 L 417.09995,125.90682 L 417.50423,125.7566 L 417.77337,125.7566 L 418.17765,125.60637 L 418.58137,125.45616 L 418.85107,125.30544 L 419.12022,125.00489 L 419.38993,124.85467 L 419.65907,124.55374 L 419.79364,124.25319 L 420.06335,123.95275 L 420.19792,123.6517 L 420.3325,123.20105 L 420.46707,122.9 L 420.46707,122.14829" />
    <path
       id="path7596"
       style="fill:none;stroke:#000000;stroke-width:0.28920519;stroke-linecap:round;stroke-linejoin:round;stroke-miterlimit:10;stroke-dasharray:none;stroke-opacity:1"
       d="M 412.90564,122.03365 L 409.67077,122.07414"
       sodipodi:nodetypes="cc" />
    <path
       id="path7649"
       style="fill:#808080;fill-opacity:1;fill-rule:evenodd;stroke:none"
       d="M 274.42596,121.71567 L 274.42596,120.96396 L 274.29139,120.66352 L 274.15681,120.21226 L 274.02224,119.91182 L 273.75253,119.61089 L 273.61796,119.31033 L 273.34882,119.0099 L 273.07911,118.85918 L 272.80996,118.55863 L 272.54026,118.40841 L 272.13654,118.10747 L 271.73226,118.10747 L 271.46312,117.95714 L 269.84657,117.95714 L 269.57742,118.10747 L 269.17314,118.10747 L 268.904,118.40841 L 268.63485,118.55863 L 268.36514,118.85918 L 267.96143,119.0099 L 267.8263,119.31033 L 267.55715,119.61089 L 267.42257,119.91182 L 267.15287,120.21226 L 267.15287,120.66352 L 267.01829,120.96396 L 266.88373,121.26502 L 266.88373,122.01672 L 267.01829,122.46738 L 267.15287,122.76843 L 267.15287,123.21908 L 267.42257,123.52013 L 267.55715,123.82057 L 267.8263,124.12112 L 267.96143,124.42205 L 268.36514,124.57227 L 268.63485,124.87282 L 268.904,125.02354 L 269.17314,125.17375 L 269.57742,125.32398 L 269.84657,125.32398 L 270.25085,125.4742 L 271.05884,125.4742 L 271.46312,125.32398 L 271.73226,125.32398 L 272.13654,125.17375 L 272.54026,125.02354 L 272.80996,124.87282 L 273.07911,124.57227 L 273.34882,124.42205 L 273.61796,124.12112 L 273.75253,123.82057 L 274.02224,123.52013 L 274.15681,123.21908 L 274.29139,122.76843 L 274.42596,122.46738 L 274.42596,121.71567" />
    <path
       id="path7651"
       style="fill:none;stroke:#000000;stroke-width:0.31504723;stroke-linecap:round;stroke-linejoin:round;stroke-miterlimit:10;stroke-dasharray:none;stroke-opacity:1"
       d="M 274.42596,121.71567 L 274.42596,120.96396 L 274.29139,120.66352 L 274.15681,120.21226 L 274.02224,119.91182 L 273.75253,119.61089 L 273.61796,119.31033 L 273.34882,119.0099 L 273.07911,118.85918 L 272.80996,118.55863 L 272.54026,118.40841 L 272.13654,118.10747 L 271.73226,118.10747 L 271.46312,117.95714 L 269.84657,117.95714 L 269.57742,118.10747 L 269.17314,118.10747 L 268.904,118.40841 L 268.63485,118.55863 L 268.36514,118.85918 L 267.96143,119.0099 L 267.8263,119.31033 L 267.55715,119.61089 L 267.42257,119.91182 L 267.15287,120.21226 L 267.15287,120.66352 L 267.01829,120.96396 L 266.88373,121.26502 L 266.88373,122.01672 L 267.01829,122.46738 L 267.15287,122.76843 L 267.15287,123.21908 L 267.42257,123.52013 L 267.55715,123.82057 L 267.8263,124.12112 L 267.96143,124.42205 L 268.36514,124.57227 L 268.63485,124.87282 L 268.904,125.02354 L 269.17314,125.17375 L 269.57742,125.32398 L 269.84657,125.32398 L 270.25085,125.4742 L 271.05884,125.4742 L 271.46312,125.32398 L 271.73226,125.32398 L 272.13654,125.17375 L 272.54026,125.02354 L 272.80996,124.87282 L 273.07911,124.57227 L 273.34882,124.42205 L 273.61796,124.12112 L 273.75253,123.82057 L 274.02224,123.52013 L 274.15681,123.21908 L 274.29139,122.76843 L 274.42596,122.46738 L 274.42596,121.71567" />
    <path
       id="path7653"
       style="fill:none;stroke:#000000;stroke-width:0.32379699;stroke-linecap:round;stroke-linejoin:round;stroke-miterlimit:10;stroke-dasharray:none;stroke-opacity:1"
       d="M 266.87936,121.72004 L 256.96039,121.72595"
       sodipodi:nodetypes="cc" />
    <path
       style="fill:none;fill-rule:evenodd;stroke:#000000;stroke-width:0.40000001;stroke-linecap:butt;stroke-linejoin:miter;marker-end:url(#Arrow2Lend);stroke-miterlimit:4;stroke-dasharray:none;stroke-opacity:1"
       d="M 274.37017,121.82479 L 286.42778,121.82479"
       id="path7655"
       sodipodi:nodetypes="cc" />
    <path
       style="fill:none;fill-rule:evenodd;stroke:#000000;stroke-width:0.6;stroke-linecap:butt;stroke-linejoin:miter;marker-end:url(#Arrow2Lend);stroke-miterlimit:4;stroke-dasharray:none;stroke-opacity:1"
       d="M 420.36566,122.71404 L 446.40071,122.7994 C 446.32023,136.05582 446.06903,147.23278 445.98855,156.86688 C 334.70084,156.8249 168.48257,156.38583 60.17138,156.34385 L 60.207891,192.69025 L 69.153605,192.71404"
       id="path7657"
       sodipodi:nodetypes="cccccc" />
  </g>
</svg>
