<?xml version="1.0" encoding="UTF-8" standalone="no"?>
<!-- Created with Inkscape (http://www.inkscape.org/) -->
<svg
   xmlns:dc="http://purl.org/dc/elements/1.1/"
   xmlns:cc="http://creativecommons.org/ns#"
   xmlns:rdf="http://www.w3.org/1999/02/22-rdf-syntax-ns#"
   xmlns:svg="http://www.w3.org/2000/svg"
   xmlns="http://www.w3.org/2000/svg"
   xmlns:sodipodi="http://sodipodi.sourceforge.net/DTD/sodipodi-0.dtd"
   xmlns:inkscape="http://www.inkscape.org/namespaces/inkscape"
   id="svg16360"
   sodipodi:version="0.32"
   inkscape:version="0.46"
   width="458.75"
   height="182.5"
   xml:space="preserve"
   sodipodi:docname="energieBeispielGraph.svg"
   inkscape:output_extension="org.inkscape.output.svg.inkscape"><metadata
     id="metadata16365"><rdf:RDF><cc:Work
         rdf:about=""><dc:format>image/svg+xml</dc:format><dc:type
           rdf:resource="http://purl.org/dc/dcmitype/StillImage" /></cc:Work></rdf:RDF></metadata><defs
     id="defs16363"><inkscape:perspective
       sodipodi:type="inkscape:persp3d"
       inkscape:vp_x="0 : 526.18109 : 1"
       inkscape:vp_y="0 : 1000 : 0"
       inkscape:vp_z="744.09448 : 526.18109 : 1"
       inkscape:persp3d-origin="372.04724 : 350.78739 : 1"
       id="perspective16367" /></defs><sodipodi:namedview
     inkscape:window-height="825"
     inkscape:window-width="1440"
     inkscape:pageshadow="2"
     inkscape:pageopacity="0.0"
     guidetolerance="10.0"
     gridtolerance="10.0"
     objecttolerance="10.0"
     borderopacity="1.0"
     bordercolor="#666666"
     pagecolor="#ffffff"
     id="base"
     showgrid="false"
     showguides="true"
     inkscape:guide-bbox="true"
     inkscape:zoom="18.938419"
     inkscape:cx="93.068601"
     inkscape:cy="79.564207"
     inkscape:window-x="0"
     inkscape:window-y="26"
     inkscape:current-layer="g16369"><sodipodi:guide
       orientation="1,0"
       position="348.28102,144.27078"
       id="guide16957" /></sodipodi:namedview><g
     id="g16369"
     inkscape:groupmode="layer"
     inkscape:label="energieBeispielGraph"
     transform="matrix(1.25,0,0,-1.25,0,182.5)"><path
   id="path16373"
   style="fill:#f8db60;fill-opacity:1;fill-rule:evenodd;stroke:none"
   d="M 79.2398,52.5973 L 235.12,52.5973 L 235.48,52.7172 L 235.84,52.8371 L 236.08,52.8371 L 236.32,53.1973 L 236.56,53.4371 L 236.68,53.6773 L 236.8,53.9172 L 236.8,84.8773 L 236.68,85.2371 L 236.56,85.4773 L 236.32,85.7172 L 236.08,85.957 L 235.84,86.0773 L 235.48,86.1973 L 78.8801,86.1973 L 78.6398,86.0773 L 78.2801,85.957 L 78.0398,85.7172 L 77.8,85.4773 L 77.8,85.2371 L 77.5602,84.8773 L 77.5602,53.9172 L 77.8,53.6773 L 77.8,53.4371 L 78.0398,53.1973 L 78.2801,52.8371 L 78.6398,52.8371 L 78.8801,52.7172 L 79.2398,52.5973 L 79.2398,52.5973" /><path
   id="path16377"
   style="fill:#f8db60;fill-opacity:1;fill-rule:evenodd;stroke:none"
   d="M 79.2398,102.997 L 235.48,102.997 L 235.84,103.117 L 236.08,103.237 L 236.32,103.477 L 236.56,103.717 L 236.68,104.077 L 236.8,104.317 L 236.8,135.157 L 236.68,135.517 L 236.56,135.757 L 236.32,136.117 L 236.08,136.237 L 235.84,136.477 L 78.6398,136.477 L 78.2801,136.237 L 78.0398,136.117 L 77.8,135.757 L 77.8,135.517 L 77.5602,135.157 L 77.5602,104.317 L 77.8,104.077 L 77.8,103.717 L 78.0398,103.477 L 78.2801,103.237 L 78.6398,103.117 L 78.8801,102.997 L 79.2398,102.997 L 79.2398,102.997" /><path
   id="path16379"
   style="fill:none;stroke:#000000;stroke-width:0.26568002;stroke-linecap:round;stroke-linejoin:round;stroke-miterlimit:10;stroke-dasharray:none;stroke-opacity:1"
   d="M 79.2398,102.997 L 235.48,102.997 L 235.84,103.117 L 236.08,103.237 L 236.32,103.477 L 236.56,103.717 L 236.68,104.077 L 236.8,104.317 L 236.8,135.157 L 236.68,135.517 L 236.56,135.757 L 236.32,136.117 L 236.08,136.237 L 235.84,136.477 L 78.6398,136.477 L 78.2801,136.237 L 78.0398,136.117 L 77.8,135.757 L 77.8,135.517 L 77.5602,135.157 L 77.5602,104.317 L 77.8,104.077 L 77.8,103.717 L 78.0398,103.477 L 78.2801,103.237 L 78.6398,103.117 L 78.8801,102.997 L 79.2398,102.997 L 79.2398,102.997" /><path
   id="path16381"
   style="fill:#808080;fill-opacity:1;fill-rule:evenodd;stroke:none"
   d="M 211.24,102.997 L 211.24,103.357 L 211.12,103.597 L 211.12,103.837 L 211,104.077 L 210.88,104.317 L 210.76,104.677 L 210.52,104.917 L 210.28,105.037 L 210.04,105.277 L 209.8,105.397 L 209.44,105.637 L 209.2,105.757 L 208.96,105.877 L 208.6,105.997 L 207.28,105.997 L 206.92,105.877 L 206.68,105.757 L 206.32,105.637 L 206.08,105.397 L 205.72,105.277 L 205.6,105.037 L 205.36,104.917 L 205.12,104.677 L 205,104.317 L 204.88,104.077 L 204.76,103.837 L 204.64,103.597 L 204.64,102.277 L 204.76,102.037 L 204.88,101.797 L 205,101.557 L 205.12,101.317 L 205.36,101.077 L 205.6,100.837 L 205.72,100.597 L 206.08,100.477 L 206.32,100.237 L 206.68,100.237 L 206.92,100.117 L 207.28,99.9973 L 207.64,99.8773 L 208.24,99.8773 L 208.6,99.9973 L 208.96,100.117 L 209.2,100.237 L 209.44,100.237 L 209.8,100.477 L 210.04,100.597 L 210.28,100.837 L 210.52,101.077 L 210.76,101.317 L 210.88,101.557 L 211,101.797 L 211.12,102.037 L 211.12,102.277 L 211.24,102.637 L 211.24,102.997" /><path
   id="path16383"
   style="fill:none;stroke:#000000;stroke-width:0.26568002;stroke-linecap:round;stroke-linejoin:round;stroke-miterlimit:10;stroke-dasharray:none;stroke-opacity:1"
   d="M 211.24,102.997 L 211.24,103.357 L 211.12,103.597 L 211.12,103.837 L 211,104.077 L 210.88,104.317 L 210.76,104.677 L 210.52,104.917 L 210.28,105.037 L 210.04,105.277 L 209.8,105.397 L 209.44,105.637 L 209.2,105.757 L 208.96,105.877 L 208.6,105.997 L 207.28,105.997 L 206.92,105.877 L 206.68,105.757 L 206.32,105.637 L 206.08,105.397 L 205.72,105.277 L 205.6,105.037 L 205.36,104.917 L 205.12,104.677 L 205,104.317 L 204.88,104.077 L 204.76,103.837 L 204.64,103.597 L 204.64,102.277 L 204.76,102.037 L 204.88,101.797 L 205,101.557 L 205.12,101.317 L 205.36,101.077 L 205.6,100.837 L 205.72,100.597 L 206.08,100.477 L 206.32,100.237 L 206.68,100.237 L 206.92,100.117 L 207.28,99.9973 L 207.64,99.8773 L 208.24,99.8773 L 208.6,99.9973 L 208.96,100.117 L 209.2,100.237 L 209.44,100.237 L 209.8,100.477 L 210.04,100.597 L 210.28,100.837 L 210.52,101.077 L 210.76,101.317 L 210.88,101.557 L 211,101.797 L 211.12,102.037 L 211.12,102.277 L 211.24,102.637 L 211.24,102.997" /><path
   id="path16385"
   style="fill:#ffffff;fill-opacity:1;fill-rule:evenodd;stroke:none"
   d="M 230.56,119.797 L 230.56,120.277 L 230.44,120.877 L 230.2,121.477 L 230.08,121.957 L 229.84,122.437 L 229.6,123.037 L 229.12,123.517 L 228.76,123.997 L 228.16,124.477 L 227.8,124.957 L 227.2,125.557 L 226.48,125.917 L 225.88,126.277 L 225.16,126.757 L 224.44,127.237 L 223.72,127.597 L 222.88,127.957 L 222.04,128.317 L 221.08,128.557 L 220.24,128.917 L 219.28,129.157 L 218.32,129.397 L 217.36,129.637 L 216.28,129.997 L 215.2,130.117 L 214.12,130.357 L 212.92,130.357 L 211.84,130.597 L 210.64,130.717 L 203.56,130.717 L 202.36,130.597 L 201.28,130.357 L 200.08,130.357 L 199,130.117 L 197.92,129.997 L 196.84,129.637 L 195.88,129.397 L 194.92,129.157 L 193.96,128.917 L 193.12,128.557 L 192.16,128.317 L 191.32,127.957 L 190.48,127.597 L 189.76,127.237 L 189.04,126.757 L 188.32,126.277 L 187.72,125.917 L 187,125.557 L 186.4,124.957 L 185.92,124.477 L 185.44,123.997 L 184.96,123.517 L 184.6,123.037 L 184.36,122.437 L 184.12,121.957 L 183.88,121.477 L 183.76,120.877 L 183.64,120.397 L 183.64,119.197 L 183.76,118.597 L 183.88,117.997 L 184.12,117.517 L 184.36,117.037 L 184.6,116.437 L 184.96,115.957 L 185.44,115.477 L 185.92,114.997 L 186.4,114.517 L 187,114.037 L 187.72,113.557 L 188.32,113.197 L 189.04,112.717 L 189.76,112.357 L 190.48,111.877 L 191.32,111.517 L 192.16,111.157 L 193.12,110.917 L 193.96,110.557 L 194.92,110.317 L 195.88,110.077 L 196.84,109.837 L 197.92,109.597 L 199,109.477 L 200.08,109.237 L 201.28,109.117 L 202.36,108.997 L 203.56,108.757 L 210.64,108.757 L 211.84,108.997 L 212.92,109.117 L 214.12,109.237 L 215.2,109.477 L 216.28,109.597 L 217.36,109.837 L 218.32,110.077 L 219.28,110.317 L 220.24,110.557 L 221.08,110.917 L 222.04,111.157 L 222.88,111.517 L 223.72,111.877 L 224.44,112.357 L 225.16,112.717 L 225.88,113.197 L 226.48,113.557 L 227.2,114.037 L 227.8,114.517 L 228.16,114.997 L 228.76,115.477 L 229.12,115.957 L 229.6,116.437 L 229.84,117.037 L 230.08,117.517 L 230.2,117.997 L 230.44,118.597 L 230.56,119.197 L 230.56,119.797" /><path
   id="path16387"
   style="fill:none;stroke:#000000;stroke-width:0.26568002;stroke-linecap:round;stroke-linejoin:round;stroke-miterlimit:10;stroke-dasharray:none;stroke-opacity:1"
   d="M 230.56,119.797 L 230.56,120.277 L 230.44,120.877 L 230.2,121.477 L 230.08,121.957 L 229.84,122.437 L 229.6,123.037 L 229.12,123.517 L 228.76,123.997 L 228.16,124.477 L 227.8,124.957 L 227.2,125.557 L 226.48,125.917 L 225.88,126.277 L 225.16,126.757 L 224.44,127.237 L 223.72,127.597 L 222.88,127.957 L 222.04,128.317 L 221.08,128.557 L 220.24,128.917 L 219.28,129.157 L 218.32,129.397 L 217.36,129.637 L 216.28,129.997 L 215.2,130.117 L 214.12,130.357 L 212.92,130.357 L 211.84,130.597 L 210.64,130.717 L 203.56,130.717 L 202.36,130.597 L 201.28,130.357 L 200.08,130.357 L 199,130.117 L 197.92,129.997 L 196.84,129.637 L 195.88,129.397 L 194.92,129.157 L 193.96,128.917 L 193.12,128.557 L 192.16,128.317 L 191.32,127.957 L 190.48,127.597 L 189.76,127.237 L 189.04,126.757 L 188.32,126.277 L 187.72,125.917 L 187,125.557 L 186.4,124.957 L 185.92,124.477 L 185.44,123.997 L 184.96,123.517 L 184.6,123.037 L 184.36,122.437 L 184.12,121.957 L 183.88,121.477 L 183.76,120.877 L 183.64,120.397 L 183.64,119.197 L 183.76,118.597 L 183.88,117.997 L 184.12,117.517 L 184.36,117.037 L 184.6,116.437 L 184.96,115.957 L 185.44,115.477 L 185.92,114.997 L 186.4,114.517 L 187,114.037 L 187.72,113.557 L 188.32,113.197 L 189.04,112.717 L 189.76,112.357 L 190.48,111.877 L 191.32,111.517 L 192.16,111.157 L 193.12,110.917 L 193.96,110.557 L 194.92,110.317 L 195.88,110.077 L 196.84,109.837 L 197.92,109.597 L 199,109.477 L 200.08,109.237 L 201.28,109.117 L 202.36,108.997 L 203.56,108.757 L 210.64,108.757 L 211.84,108.997 L 212.92,109.117 L 214.12,109.237 L 215.2,109.477 L 216.28,109.597 L 217.36,109.837 L 218.32,110.077 L 219.28,110.317 L 220.24,110.557 L 221.08,110.917 L 222.04,111.157 L 222.88,111.517 L 223.72,111.877 L 224.44,112.357 L 225.16,112.717 L 225.88,113.197 L 226.48,113.557 L 227.2,114.037 L 227.8,114.517 L 228.16,114.997 L 228.76,115.477 L 229.12,115.957 L 229.6,116.437 L 229.84,117.037 L 230.08,117.517 L 230.2,117.997 L 230.44,118.597 L 230.56,119.197 L 230.56,119.797" /><g
   id="g16389"><text
   id="text16391"
   transform="matrix(1,0,0,-1,204.16,117.637)"><tspan
     id="tspan16393"
     sodipodi:role="line"
     y="0"
     x="0 2.4000025"
     style="font-size:7.10340023px;font-variant:normal;font-weight:normal;writing-mode:lr-tb;fill:#000000;fill-opacity:1;fill-rule:nonzero;stroke:none;font-family:Helvetica;-inkscape-font-specification:Helvetica">rx</tspan></text>



</g><path
   id="path16395"
   style="fill:#ffffff;fill-opacity:1;fill-rule:evenodd;stroke:none"
   d="M 133.96,59.3172 L 179.08,59.3172 L 179.2,59.4371 L 179.44,59.557 L 179.56,59.6773 L 179.68,59.7973 L 179.8,60.0371 L 179.92,60.157 L 179.92,78.757 L 179.8,78.8773 L 179.68,79.1172 L 179.56,79.1172 L 179.44,79.357 L 179.2,79.4773 L 133.6,79.4773 L 133.36,79.357 L 133.24,79.1172 L 133.12,79.1172 L 133,78.8773 L 132.88,78.757 L 132.88,60.157 L 133,60.0371 L 133.12,59.7973 L 133.24,59.6773 L 133.36,59.557 L 133.6,59.4371 L 133.72,59.3172 L 133.96,59.3172 L 133.96,59.3172" /><path
   id="path16397"
   style="fill:none;stroke:#000000;stroke-width:0.26568002;stroke-linecap:round;stroke-linejoin:round;stroke-miterlimit:10;stroke-dasharray:none;stroke-opacity:1"
   d="M 133.96,59.3172 L 179.08,59.3172 L 179.2,59.4371 L 179.44,59.557 L 179.56,59.6773 L 179.68,59.7973 L 179.8,60.0371 L 179.92,60.157 L 179.92,78.757 L 179.8,78.8773 L 179.68,79.1172 L 179.56,79.1172 L 179.44,79.357 L 179.2,79.4773 L 133.6,79.4773 L 133.36,79.357 L 133.24,79.1172 L 133.12,79.1172 L 133,78.8773 L 132.88,78.757 L 132.88,60.157 L 133,60.0371 L 133.12,59.7973 L 133.24,59.6773 L 133.36,59.557 L 133.6,59.4371 L 133.72,59.3172 L 133.96,59.3172 L 133.96,59.3172" /><g
   id="g16399"><text
   id="text16401"
   transform="scale(1,-1)"
   style="text-align:center;text-anchor:middle"
   x="157.09686"
   y="-71.556999"><tspan
     id="tspan16405"
     sodipodi:role="line"
     style="font-size:7.10340023px;font-variant:normal;font-weight:normal;text-align:center;writing-mode:lr-tb;text-anchor:middle;fill:#000000;fill-opacity:1;fill-rule:nonzero;stroke:none;font-family:Helvetica;-inkscape-font-specification:Helvetica"
     x="157.09686"
     y="-71.556999">analyse</tspan><tspan
     sodipodi:role="line"
     style="font-size:7.10340023px;font-variant:normal;font-weight:normal;text-align:center;writing-mode:lr-tb;text-anchor:middle;fill:#000000;fill-opacity:1;fill-rule:nonzero;stroke:none;font-family:Helvetica;-inkscape-font-specification:Helvetica"
     x="157.09686"
     y="-62.67775"
     id="tspan16881">value</tspan></text>



</g><path
   id="path16407"
   style="fill:#ffffff;fill-opacity:1;fill-rule:evenodd;stroke:none"
   d="M 80.649245,59.3172 L 129.38938,59.3172 L 129.54867,59.4371 L 129.86723,59.557 L 130.02651,59.6773 L 130.18579,59.7973 L 130.34508,60.0371 L 130.34508,78.8773 L 130.18579,79.1172 L 130.02651,79.1172 L 129.86723,79.357 L 129.54867,79.4773 L 80.011988,79.4773 L 79.852839,79.357 L 79.693692,79.1172 L 79.375395,79.1172 L 79.375395,78.8773 L 79.215582,78.757 L 79.215582,60.157 L 79.375395,60.0371 L 79.375395,59.7973 L 79.693692,59.6773 L 79.852839,59.557 L 80.011988,59.4371 L 80.171799,59.3172 L 80.649245,59.3172 L 80.649245,59.3172" /><path
   id="path16409"
   style="fill:none;stroke:#000000;stroke-width:0.30535477;stroke-linecap:round;stroke-linejoin:round;stroke-miterlimit:10;stroke-dasharray:none;stroke-opacity:1"
   d="M 80.559403,59.337038 L 129.16105,59.337038 L 129.31989,59.456701 L 129.63754,59.576366 L 129.79638,59.69643 L 129.95519,59.816193 L 130.11403,60.05552 L 130.11403,78.858644 L 129.95519,79.09807 L 129.79638,79.09807 L 129.63754,79.337399 L 129.31989,79.457462 L 79.923957,79.457462 L 79.76526,79.337399 L 79.606566,79.09807 L 79.289172,79.09807 L 79.289172,78.858644 L 79.129815,78.738581 L 79.129815,60.175184 L 79.289172,60.05552 L 79.289172,59.816193 L 79.606566,59.69643 L 79.76526,59.576366 L 79.923957,59.456701 L 80.083315,59.337038 L 80.559403,59.337038 L 80.559403,59.337038" /><g
   id="g16411"><text
   id="text16413"
   transform="scale(1,-1)"
   style="text-align:center;text-anchor:middle"
   x="104.14657"
   y="-71.894936"><tspan
     id="tspan16417"
     sodipodi:role="line"
     style="font-size:7.10340023px;font-variant:normal;font-weight:normal;text-align:center;writing-mode:lr-tb;text-anchor:middle;fill:#000000;fill-opacity:1;fill-rule:nonzero;stroke:none;font-family:Helvetica;-inkscape-font-specification:Helvetica"
     x="104.14657"
     y="-71.894936">start</tspan><tspan
     sodipodi:role="line"
     style="font-size:7.10340023px;font-variant:normal;font-weight:normal;text-align:center;writing-mode:lr-tb;text-anchor:middle;fill:#000000;fill-opacity:1;fill-rule:nonzero;stroke:none;font-family:Helvetica;-inkscape-font-specification:Helvetica"
     x="104.14657"
     y="-63.015686"
     id="tspan16897">measurement</tspan></text>



</g><path
   id="path16419"
   style="fill:#f8db60;fill-opacity:1;fill-rule:evenodd;stroke:none"
   d="M 79.2398,2.31719 L 185.2,2.31719 L 185.56,2.43711 L 185.8,2.67734 L 186.04,2.79727 L 186.28,3.03711 L 186.4,3.27734 L 186.52,3.63711 L 186.52,34.4773 L 186.4,34.8371 L 186.28,35.0773 L 186.04,35.4371 L 185.8,35.557 L 185.56,35.7973 L 184.96,35.7973 L 78.6398,35.7973 L 78.2801,35.557 L 78.0398,35.4371 L 77.8,35.0773 L 77.8,34.8371 L 77.5602,34.4773 L 77.5602,3.63711 L 77.8,3.27734 L 77.8,3.03711 L 78.0398,2.79727 L 78.2801,2.67734 L 78.6398,2.43711 L 78.8801,2.31719 L 79.2398,2.31719 L 79.2398,2.31719" /><path
   id="path16421"
   style="fill:none;stroke:#000000;stroke-width:0.26568002;stroke-linecap:round;stroke-linejoin:round;stroke-miterlimit:10;stroke-dasharray:none;stroke-opacity:1"
   d="M 79.2398,2.31719 L 185.2,2.31719 L 185.56,2.43711 L 185.8,2.67734 L 186.04,2.79727 L 186.28,3.03711 L 186.4,3.27734 L 186.52,3.63711 L 186.52,34.4773 L 186.4,34.8371 L 186.28,35.0773 L 186.04,35.4371 L 185.8,35.557 L 185.56,35.7973 L 184.96,35.7973 L 78.6398,35.7973 L 78.2801,35.557 L 78.0398,35.4371 L 77.8,35.0773 L 77.8,34.8371 L 77.5602,34.4773 L 77.5602,3.63711 L 77.8,3.27734 L 77.8,3.03711 L 78.0398,2.79727 L 78.2801,2.67734 L 78.6398,2.43711 L 78.8801,2.31719 L 79.2398,2.31719 L 79.2398,2.31719" /><path
   id="path16423"
   style="fill:#ffffff;fill-opacity:1;fill-rule:evenodd;stroke:none"
   d="M 106,35.7973 L 106,36.757 L 105.76,37.1172 L 105.64,37.357 L 105.52,37.4773 L 105.28,37.8371 L 105.04,37.957 L 104.92,38.1973 L 104.68,38.3172 L 104.32,38.4371 L 103.96,38.6773 L 103.72,38.7973 L 101.68,38.7973 L 101.44,38.6773 L 101.2,38.4371 L 100.84,38.3172 L 100.6,38.1973 L 100.36,37.957 L 100.12,37.8371 L 99.8801,37.4773 L 99.7602,37.357 L 99.6398,37.1172 L 99.5199,36.757 L 99.4,36.3973 L 99.4,35.1973 L 99.5199,34.957 L 99.6398,34.7172 L 99.7602,34.357 L 99.8801,34.1172 L 100.12,33.9973 L 100.36,33.6371 L 100.6,33.5172 L 100.84,33.3973 L 101.2,33.157 L 101.44,33.0371 L 101.68,33.0371 L 102.04,32.9172 L 102.4,32.7973 L 103,32.7973 L 103.36,32.9172 L 103.72,33.0371 L 103.96,33.0371 L 104.32,33.157 L 104.68,33.3973 L 104.92,33.5172 L 105.04,33.6371 L 105.28,33.9973 L 105.52,34.1172 L 105.64,34.357 L 105.76,34.7172 L 106,34.957 L 106,35.7973" /><path
   id="path16425"
   style="fill:none;stroke:#000000;stroke-width:0.26568002;stroke-linecap:round;stroke-linejoin:round;stroke-miterlimit:10;stroke-dasharray:none;stroke-opacity:1"
   d="M 106,35.7973 L 106,36.757 L 105.76,37.1172 L 105.64,37.357 L 105.52,37.4773 L 105.28,37.8371 L 105.04,37.957 L 104.92,38.1973 L 104.68,38.3172 L 104.32,38.4371 L 103.96,38.6773 L 103.72,38.7973 L 101.68,38.7973 L 101.44,38.6773 L 101.2,38.4371 L 100.84,38.3172 L 100.6,38.1973 L 100.36,37.957 L 100.12,37.8371 L 99.8801,37.4773 L 99.7602,37.357 L 99.6398,37.1172 L 99.5199,36.757 L 99.4,36.3973 L 99.4,35.1973 L 99.5199,34.957 L 99.6398,34.7172 L 99.7602,34.357 L 99.8801,34.1172 L 100.12,33.9973 L 100.36,33.6371 L 100.6,33.5172 L 100.84,33.3973 L 101.2,33.157 L 101.44,33.0371 L 101.68,33.0371 L 102.04,32.9172 L 102.4,32.7973 L 103,32.7973 L 103.36,32.9172 L 103.72,33.0371 L 103.96,33.0371 L 104.32,33.157 L 104.68,33.3973 L 104.92,33.5172 L 105.04,33.6371 L 105.28,33.9973 L 105.52,34.1172 L 105.64,34.357 L 105.76,34.7172 L 106,34.957 L 106,35.7973" /><path
   id="path16431"
   style="fill:#808080;fill-opacity:1;fill-rule:evenodd;stroke:none"
   d="M 160.48,35.7973 L 160.48,36.757 L 160.36,37.1172 L 160.12,37.357 L 160,37.4773 L 159.76,37.8371 L 159.52,37.957 L 159.4,38.1973 L 159.04,38.3172 L 158.8,38.4371 L 158.44,38.6773 L 158.2,38.7973 L 156.16,38.7973 L 155.92,38.6773 L 155.68,38.4371 L 155.32,38.3172 L 155.08,38.1973 L 154.84,37.957 L 154.72,37.8371 L 154.36,37.4773 L 154.24,37.357 L 154.12,37.1172 L 154,36.757 L 154,36.3973 L 153.88,36.157 L 153.88,35.557 L 154,35.1973 L 154,34.957 L 154.12,34.7172 L 154.24,34.357 L 154.36,34.1172 L 154.72,33.9973 L 154.84,33.6371 L 155.08,33.5172 L 155.32,33.3973 L 155.68,33.157 L 155.92,33.0371 L 156.16,33.0371 L 156.52,32.9172 L 156.88,32.7973 L 157.6,32.7973 L 157.84,32.9172 L 158.2,33.0371 L 158.44,33.0371 L 158.8,33.157 L 159.04,33.3973 L 159.4,33.5172 L 159.52,33.6371 L 159.76,33.9973 L 160,34.1172 L 160.12,34.357 L 160.36,34.7172 L 160.48,34.957 L 160.48,35.7973" /><path
   id="path16433"
   style="fill:none;stroke:#000000;stroke-width:0.26568002;stroke-linecap:round;stroke-linejoin:round;stroke-miterlimit:10;stroke-dasharray:none;stroke-opacity:1"
   d="M 160.48,35.7973 L 160.48,36.757 L 160.36,37.1172 L 160.12,37.357 L 160,37.4773 L 159.76,37.8371 L 159.52,37.957 L 159.4,38.1973 L 159.04,38.3172 L 158.8,38.4371 L 158.44,38.6773 L 158.2,38.7973 L 156.16,38.7973 L 155.92,38.6773 L 155.68,38.4371 L 155.32,38.3172 L 155.08,38.1973 L 154.84,37.957 L 154.72,37.8371 L 154.36,37.4773 L 154.24,37.357 L 154.12,37.1172 L 154,36.757 L 154,36.3973 L 153.88,36.157 L 153.88,35.557 L 154,35.1973 L 154,34.957 L 154.12,34.7172 L 154.24,34.357 L 154.36,34.1172 L 154.72,33.9973 L 154.84,33.6371 L 155.08,33.5172 L 155.32,33.3973 L 155.68,33.157 L 155.92,33.0371 L 156.16,33.0371 L 156.52,32.9172 L 156.88,32.7973 L 157.6,32.7973 L 157.84,32.9172 L 158.2,33.0371 L 158.44,33.0371 L 158.8,33.157 L 159.04,33.3973 L 159.4,33.5172 L 159.52,33.6371 L 159.76,33.9973 L 160,34.1172 L 160.12,34.357 L 160.36,34.7172 L 160.48,34.957 L 160.48,35.7973" /><path
   id="path16439"
   style="fill:none;stroke:#000000;stroke-width:0.26568002;stroke-linecap:round;stroke-linejoin:round;stroke-miterlimit:10;stroke-dasharray:none;stroke-opacity:1"
   d="M 31.6,99.8773 L 31.6,92.7973" /><path
   id="path16441"
   style="fill:#000000;fill-opacity:1;fill-rule:evenodd;stroke:none"
   d="M 31.6,89.1973 L 29.2,93.9973 L 29.8,93.757 L 30.4,93.5172 L 31,93.3973 L 32.2,93.3973 L 32.8,93.5172 L 33.4,93.757 L 34,93.9973 L 31.6,89.1973 L 31.6,89.1973" /><path
   id="path16443"
   style="fill:none;stroke:#000000;stroke-width:0.26568002;stroke-linecap:round;stroke-linejoin:round;stroke-miterlimit:10;stroke-dasharray:none;stroke-opacity:1"
   d="M 208,100.477 L 208,92.7973" /><path
   id="path16445"
   style="fill:#000000;fill-opacity:1;fill-rule:evenodd;stroke:none"
   d="M 208,89.1973 L 205.6,93.9973 L 206.08,93.757 L 206.8,93.5172 L 207.4,93.3973 L 208.6,93.3973 L 209.2,93.5172 L 209.8,93.757 L 210.4,93.9973 L 210.4,93.9973 L 208,89.1973 L 208,89.1973" /><path
   id="path16447"
   style="fill:none;stroke:#000000;stroke-width:0.26568002;stroke-linecap:round;stroke-linejoin:round;stroke-miterlimit:10;stroke-dasharray:none;stroke-opacity:1"
   d="M 157.24,30.0371 L 157.24,32.7973" /><path
   id="path16449"
   style="fill:#ffffff;fill-opacity:1;fill-rule:evenodd;stroke:none"
   d="M 138.04,109.717 L 176.44,109.717 L 176.8,109.837 L 176.8,109.837 L 177.04,109.957 L 177.16,110.197 L 177.28,110.317 L 177.28,129.277 L 177.16,129.397 L 177.04,129.517 L 176.8,129.637 L 176.8,129.757 L 176.44,129.757 L 176.32,129.877 L 138.04,129.877 L 137.92,129.757 L 137.68,129.757 L 137.56,129.637 L 137.32,129.517 L 137.32,129.397 L 137.2,129.277 L 137.08,129.037 L 137.08,110.557 L 137.2,110.317 L 137.32,110.197 L 137.32,109.957 L 137.56,109.837 L 137.68,109.837 L 137.92,109.717 L 138.04,109.717 L 138.04,109.717" /><path
   id="path16451"
   style="fill:none;stroke:#000000;stroke-width:0.26568002;stroke-linecap:round;stroke-linejoin:round;stroke-miterlimit:10;stroke-dasharray:none;stroke-opacity:1"
   d="M 138.04,109.717 L 176.44,109.717 L 176.8,109.837 L 176.8,109.837 L 177.04,109.957 L 177.16,110.197 L 177.28,110.317 L 177.28,129.277 L 177.16,129.397 L 177.04,129.517 L 176.8,129.637 L 176.8,129.757 L 176.44,129.757 L 176.32,129.877 L 138.04,129.877 L 137.92,129.757 L 137.68,129.757 L 137.56,129.637 L 137.32,129.517 L 137.32,129.397 L 137.2,129.277 L 137.08,129.037 L 137.08,110.557 L 137.2,110.317 L 137.32,110.197 L 137.32,109.957 L 137.56,109.837 L 137.68,109.837 L 137.92,109.717 L 138.04,109.717 L 138.04,109.717" /><g
   id="g16453"
   transform="translate(9.1243094,0.6758748)"><text
   id="text16455"
   transform="matrix(1,0,0,-1,148.24,121.837)"
   style="text-align:center;text-anchor:middle"><tspan
     id="tspan16459"
     sodipodi:role="line"
     style="font-size:7.10340023px;font-variant:normal;font-weight:normal;text-align:center;writing-mode:lr-tb;text-anchor:middle;fill:#000000;fill-opacity:1;fill-rule:nonzero;stroke:none;font-family:Helvetica;-inkscape-font-specification:Helvetica"
     x="8.3819032e-08"
     y="0">start</tspan><tspan
     sodipodi:role="line"
     style="font-size:7.10340023px;font-variant:normal;font-weight:normal;text-align:center;writing-mode:lr-tb;text-anchor:middle;fill:#000000;fill-opacity:1;fill-rule:nonzero;stroke:none;font-family:Helvetica;-inkscape-font-specification:Helvetica"
     x="-2.2817403e-07"
     y="8.8792505"
     id="tspan16877">sending</tspan></text>



</g><path
   id="path16461"
   style="fill:#ffffff;fill-opacity:1;fill-rule:evenodd;stroke:none"
   d="M 160.48,102.997 L 160.48,103.837 L 160.36,104.077 L 160.12,104.317 L 160,104.677 L 159.76,104.917 L 159.52,105.037 L 159.4,105.277 L 159.04,105.397 L 158.8,105.637 L 158.44,105.757 L 158.2,105.877 L 157.84,105.997 L 156.52,105.997 L 156.16,105.877 L 155.92,105.757 L 155.68,105.637 L 155.32,105.397 L 155.08,105.277 L 154.84,105.037 L 154.72,104.917 L 154.36,104.677 L 154.24,104.317 L 154.12,104.077 L 154,103.837 L 154,103.597 L 153.88,103.357 L 153.88,102.637 L 154,102.277 L 154,102.037 L 154.12,101.797 L 154.24,101.557 L 154.36,101.317 L 154.72,101.077 L 154.84,100.837 L 155.08,100.597 L 155.32,100.477 L 155.68,100.237 L 155.92,100.237 L 156.16,100.117 L 156.52,99.9973 L 156.88,99.8773 L 157.6,99.8773 L 157.84,99.9973 L 158.2,100.117 L 158.44,100.237 L 158.8,100.237 L 159.04,100.477 L 159.4,100.597 L 159.52,100.837 L 159.76,101.077 L 160,101.317 L 160.12,101.557 L 160.36,101.797 L 160.48,102.037 L 160.48,102.997" /><path
   id="path16463"
   style="fill:none;stroke:#000000;stroke-width:0.26568002;stroke-linecap:round;stroke-linejoin:round;stroke-miterlimit:10;stroke-dasharray:none;stroke-opacity:1"
   d="M 160.48,102.997 L 160.48,103.837 L 160.36,104.077 L 160.12,104.317 L 160,104.677 L 159.76,104.917 L 159.52,105.037 L 159.4,105.277 L 159.04,105.397 L 158.8,105.637 L 158.44,105.757 L 158.2,105.877 L 157.84,105.997 L 156.52,105.997 L 156.16,105.877 L 155.92,105.757 L 155.68,105.637 L 155.32,105.397 L 155.08,105.277 L 154.84,105.037 L 154.72,104.917 L 154.36,104.677 L 154.24,104.317 L 154.12,104.077 L 154,103.837 L 154,103.597 L 153.88,103.357 L 153.88,102.637 L 154,102.277 L 154,102.037 L 154.12,101.797 L 154.24,101.557 L 154.36,101.317 L 154.72,101.077 L 154.84,100.837 L 155.08,100.597 L 155.32,100.477 L 155.68,100.237 L 155.92,100.237 L 156.16,100.117 L 156.52,99.9973 L 156.88,99.8773 L 157.6,99.8773 L 157.84,99.9973 L 158.2,100.117 L 158.44,100.237 L 158.8,100.237 L 159.04,100.477 L 159.4,100.597 L 159.52,100.837 L 159.76,101.077 L 160,101.317 L 160.12,101.557 L 160.36,101.797 L 160.48,102.037 L 160.48,102.997" /><path
   id="path16475"
   style="fill:#f8db60;fill-opacity:1;fill-rule:evenodd;stroke:none"
   d="M 3.88008,102.997 L 59.4398,102.997 L 59.8,103.117 L 60.0398,103.237 L 60.4,103.477 L 60.5199,103.717 L 60.7602,104.077 L 60.7602,135.517 L 60.5199,135.757 L 60.4,136.117 L 60.0398,136.237 L 59.8,136.477 L 3.16016,136.477 L 2.91992,136.237 L 2.56016,136.117 L 2.43984,135.757 L 2.2,135.517 L 2.2,104.077 L 2.43984,103.717 L 2.56016,103.477 L 2.91992,103.237 L 3.16016,103.117 L 3.51992,102.997 L 3.88008,102.997 L 3.88008,102.997" /><path
   id="path16477"
   style="fill:none;stroke:#000000;stroke-width:0.26568002;stroke-linecap:round;stroke-linejoin:round;stroke-miterlimit:10;stroke-dasharray:none;stroke-opacity:1"
   d="M 3.88008,102.997 L 59.4398,102.997 L 59.8,103.117 L 60.0398,103.237 L 60.4,103.477 L 60.5199,103.717 L 60.7602,104.077 L 60.7602,135.517 L 60.5199,135.757 L 60.4,136.117 L 60.0398,136.237 L 59.8,136.477 L 3.16016,136.477 L 2.91992,136.237 L 2.56016,136.117 L 2.43984,135.757 L 2.2,135.517 L 2.2,104.077 L 2.43984,103.717 L 2.56016,103.477 L 2.91992,103.237 L 3.16016,103.117 L 3.51992,102.997 L 3.88008,102.997 L 3.88008,102.997" /><path
   id="path16479"
   style="fill:#ffffff;fill-opacity:1;fill-rule:evenodd;stroke:none"
   d="M 55,119.797 L 55,120.397 L 54.8801,120.877 L 54.6398,121.477 L 54.5199,121.957 L 54.2801,122.437 L 53.9199,123.037 L 53.5602,123.517 L 53.0801,124.117 L 52.6,124.477 L 52.1199,124.957 L 51.5199,125.557 L 50.9199,125.917 L 50.2,126.277 L 49.4801,126.757 L 48.7602,127.237 L 48.0398,127.597 L 47.2,127.957 L 46.4801,128.317 L 45.5199,128.557 L 44.5602,128.917 L 43.7199,129.157 L 42.6398,129.397 L 41.6801,129.637 L 40.6,129.997 L 39.5199,130.117 L 38.4398,130.357 L 37.2398,130.357 L 36.2801,130.597 L 35.0801,130.717 L 27.8801,130.717 L 26.6801,130.597 L 25.6,130.357 L 24.5199,130.357 L 23.3199,130.117 L 22.2398,129.997 L 21.2801,129.637 L 20.2,129.397 L 19.2398,129.157 L 18.2801,128.917 L 17.4398,128.557 L 16.4801,128.317 L 15.6398,127.957 L 14.8,127.597 L 14.0801,127.237 L 13.3602,126.757 L 12.6398,126.277 L 12.0398,125.917 L 11.3199,125.557 L 10.8398,124.957 L 10.3602,124.477 L 9.88008,124.117 L 9.4,123.517 L 9.03984,123.037 L 8.68008,122.437 L 8.43984,121.957 L 8.31992,121.477 L 8.08008,120.877 L 7.96016,120.397 L 7.96016,119.197 L 8.08008,118.597 L 8.31992,117.997 L 8.43984,117.517 L 8.68008,117.037 L 9.03984,116.437 L 9.4,115.957 L 9.88008,115.477 L 10.3602,114.997 L 10.8398,114.517 L 11.3199,114.037 L 12.0398,113.557 L 12.6398,113.197 L 13.3602,112.717 L 14.0801,112.357 L 14.8,111.877 L 15.6398,111.517 L 16.4801,111.157 L 17.4398,110.917 L 18.2801,110.557 L 19.2398,110.317 L 20.2,110.077 L 21.2801,109.837 L 22.2398,109.597 L 23.3199,109.477 L 24.5199,109.237 L 25.6,109.117 L 26.6801,108.997 L 27.8801,108.757 L 35.0801,108.757 L 36.2801,108.997 L 37.2398,109.117 L 38.4398,109.237 L 39.5199,109.477 L 40.6,109.597 L 41.6801,109.837 L 42.6398,110.077 L 43.7199,110.317 L 44.5602,110.557 L 45.5199,110.917 L 46.4801,111.157 L 47.2,111.517 L 48.0398,111.877 L 48.7602,112.357 L 49.4801,112.717 L 50.2,113.197 L 50.9199,113.557 L 51.5199,114.037 L 52.1199,114.517 L 52.6,114.997 L 53.0801,115.477 L 53.5602,115.957 L 53.9199,116.437 L 54.2801,117.037 L 54.5199,117.517 L 54.6398,117.997 L 54.8801,118.597 L 55,119.197 L 55,119.797" /><path
   id="path16481"
   style="fill:none;stroke:#000000;stroke-width:0.26568002;stroke-linecap:round;stroke-linejoin:round;stroke-miterlimit:10;stroke-dasharray:none;stroke-opacity:1"
   d="M 55,119.797 L 55,120.397 L 54.8801,120.877 L 54.6398,121.477 L 54.5199,121.957 L 54.2801,122.437 L 53.9199,123.037 L 53.5602,123.517 L 53.0801,124.117 L 52.6,124.477 L 52.1199,124.957 L 51.5199,125.557 L 50.9199,125.917 L 50.2,126.277 L 49.4801,126.757 L 48.7602,127.237 L 48.0398,127.597 L 47.2,127.957 L 46.4801,128.317 L 45.5199,128.557 L 44.5602,128.917 L 43.7199,129.157 L 42.6398,129.397 L 41.6801,129.637 L 40.6,129.997 L 39.5199,130.117 L 38.4398,130.357 L 37.2398,130.357 L 36.2801,130.597 L 35.0801,130.717 L 27.8801,130.717 L 26.6801,130.597 L 25.6,130.357 L 24.5199,130.357 L 23.3199,130.117 L 22.2398,129.997 L 21.2801,129.637 L 20.2,129.397 L 19.2398,129.157 L 18.2801,128.917 L 17.4398,128.557 L 16.4801,128.317 L 15.6398,127.957 L 14.8,127.597 L 14.0801,127.237 L 13.3602,126.757 L 12.6398,126.277 L 12.0398,125.917 L 11.3199,125.557 L 10.8398,124.957 L 10.3602,124.477 L 9.88008,124.117 L 9.4,123.517 L 9.03984,123.037 L 8.68008,122.437 L 8.43984,121.957 L 8.31992,121.477 L 8.08008,120.877 L 7.96016,120.397 L 7.96016,119.197 L 8.08008,118.597 L 8.31992,117.997 L 8.43984,117.517 L 8.68008,117.037 L 9.03984,116.437 L 9.4,115.957 L 9.88008,115.477 L 10.3602,114.997 L 10.8398,114.517 L 11.3199,114.037 L 12.0398,113.557 L 12.6398,113.197 L 13.3602,112.717 L 14.0801,112.357 L 14.8,111.877 L 15.6398,111.517 L 16.4801,111.157 L 17.4398,110.917 L 18.2801,110.557 L 19.2398,110.317 L 20.2,110.077 L 21.2801,109.837 L 22.2398,109.597 L 23.3199,109.477 L 24.5199,109.237 L 25.6,109.117 L 26.6801,108.997 L 27.8801,108.757 L 35.0801,108.757 L 36.2801,108.997 L 37.2398,109.117 L 38.4398,109.237 L 39.5199,109.477 L 40.6,109.597 L 41.6801,109.837 L 42.6398,110.077 L 43.7199,110.317 L 44.5602,110.557 L 45.5199,110.917 L 46.4801,111.157 L 47.2,111.517 L 48.0398,111.877 L 48.7602,112.357 L 49.4801,112.717 L 50.2,113.197 L 50.9199,113.557 L 51.5199,114.037 L 52.1199,114.517 L 52.6,114.997 L 53.0801,115.477 L 53.5602,115.957 L 53.9199,116.437 L 54.2801,117.037 L 54.5199,117.517 L 54.6398,117.997 L 54.8801,118.597 L 55,119.197 L 55,119.797" /><g
   id="g16483"><text
   id="text16485"
   transform="matrix(1,0,0,-1,26.0801,117.637)"><tspan
     id="tspan16487"
     sodipodi:role="line"
     y="0"
     x="0 1.9200028 3.600003 7.0800018"
     style="font-size:7.10340023px;font-variant:normal;font-weight:normal;writing-mode:lr-tb;fill:#000000;fill-opacity:1;fill-rule:nonzero;stroke:none;font-family:Helvetica;-inkscape-font-specification:Helvetica">tick</tspan></text>



</g><path
   id="path16489"
   style="fill:none;stroke:#000000;stroke-width:0.26568002;stroke-linecap:round;stroke-linejoin:round;stroke-miterlimit:10;stroke-dasharray:none;stroke-opacity:1"
   d="M 4.48008,133.117 L 7.23984,128.437 L 8.68008,132.517 L 11.0801,128.557" /><path
   id="path16491"
   style="fill:#000000;fill-opacity:1;fill-rule:evenodd;stroke:none"
   d="M 12.7602,125.317 L 8.31992,128.317 L 8.91992,128.437 L 9.51992,128.557 L 10.1199,128.797 L 10.7199,129.037 L 11.2,129.397 L 11.6801,129.757 L 12.0398,130.237 L 12.5199,130.717 L 12.5199,130.717 L 12.7602,125.317 L 12.7602,125.317" /><path
   id="path16493"
   style="fill:#808080;fill-opacity:1;fill-rule:evenodd;stroke:none"
   d="M 34.8398,102.997 L 34.8398,103.357 L 34.7199,103.597 L 34.6,103.837 L 34.4801,104.077 L 34.4801,104.317 L 34.2398,104.677 L 34.1199,104.917 L 33.8801,105.037 L 33.5199,105.277 L 33.2801,105.397 L 33.0398,105.637 L 32.8,105.757 L 32.4398,105.877 L 32.0801,105.997 L 30.7602,105.997 L 30.4,105.877 L 30.1602,105.757 L 29.8,105.637 L 29.5602,105.397 L 29.3199,105.277 L 29.0801,105.037 L 28.8398,104.917 L 28.7199,104.677 L 28.4801,104.317 L 28.3602,104.077 L 28.2398,103.837 L 28.1199,103.597 L 28.1199,102.277 L 28.2398,102.037 L 28.3602,101.797 L 28.4801,101.557 L 28.7199,101.317 L 28.8398,101.077 L 29.0801,100.837 L 29.3199,100.597 L 29.5602,100.477 L 29.8,100.237 L 30.1602,100.237 L 30.4,100.117 L 30.7602,99.9973 L 31.1199,99.8773 L 31.8398,99.8773 L 32.0801,99.9973 L 32.4398,100.117 L 32.8,100.237 L 33.0398,100.237 L 33.2801,100.477 L 33.5199,100.597 L 33.8801,100.837 L 34.1199,101.077 L 34.2398,101.317 L 34.4801,101.557 L 34.4801,101.797 L 34.6,102.037 L 34.7199,102.277 L 34.8398,102.637 L 34.8398,102.997" /><path
   id="path16495"
   style="fill:none;stroke:#000000;stroke-width:0.26568002;stroke-linecap:round;stroke-linejoin:round;stroke-miterlimit:10;stroke-dasharray:none;stroke-opacity:1"
   d="M 34.8398,102.997 L 34.8398,103.357 L 34.7199,103.597 L 34.6,103.837 L 34.4801,104.077 L 34.4801,104.317 L 34.2398,104.677 L 34.1199,104.917 L 33.8801,105.037 L 33.5199,105.277 L 33.2801,105.397 L 33.0398,105.637 L 32.8,105.757 L 32.4398,105.877 L 32.0801,105.997 L 30.7602,105.997 L 30.4,105.877 L 30.1602,105.757 L 29.8,105.637 L 29.5602,105.397 L 29.3199,105.277 L 29.0801,105.037 L 28.8398,104.917 L 28.7199,104.677 L 28.4801,104.317 L 28.3602,104.077 L 28.2398,103.837 L 28.1199,103.597 L 28.1199,102.277 L 28.2398,102.037 L 28.3602,101.797 L 28.4801,101.557 L 28.7199,101.317 L 28.8398,101.077 L 29.0801,100.837 L 29.3199,100.597 L 29.5602,100.477 L 29.8,100.237 L 30.1602,100.237 L 30.4,100.117 L 30.7602,99.9973 L 31.1199,99.8773 L 31.8398,99.8773 L 32.0801,99.9973 L 32.4398,100.117 L 32.8,100.237 L 33.0398,100.237 L 33.2801,100.477 L 33.5199,100.597 L 33.8801,100.837 L 34.1199,101.077 L 34.2398,101.317 L 34.4801,101.557 L 34.4801,101.797 L 34.6,102.037 L 34.7199,102.277 L 34.8398,102.637 L 34.8398,102.997" /><g
   id="g16497"><text
   id="text16499"
   transform="matrix(1,0,0,-1,3.88008,137.797)"><tspan
     id="tspan16501"
     sodipodi:role="line"
     style="font-size:7.10340023px;font-variant:normal;font-weight:normal;writing-mode:lr-tb;fill:#000000;fill-opacity:1;fill-rule:nonzero;stroke:none;font-family:Helvetica;-inkscape-font-specification:Helvetica"
     x="0"
     y="0">real time clock</tspan></text>



</g><path
   id="path16503"
   style="fill:#f8db60;fill-opacity:1;fill-rule:evenodd;stroke:none"
   d="M 3.88008,52.5973 L 59.0801,52.5973 L 59.4398,52.7172 L 59.8,52.8371 L 60.0398,52.8371 L 60.4,53.1973 L 60.5199,53.4371 L 60.7602,53.6773 L 60.7602,85.2371 L 60.5199,85.4773 L 60.4,85.7172 L 60.0398,85.957 L 59.8,86.0773 L 59.4398,86.1973 L 3.51992,86.1973 L 3.16016,86.0773 L 2.91992,85.957 L 2.56016,85.7172 L 2.43984,85.4773 L 2.2,85.2371 L 2.2,53.6773 L 2.43984,53.4371 L 2.56016,53.1973 L 2.91992,52.8371 L 3.16016,52.8371 L 3.51992,52.7172 L 3.88008,52.5973 L 3.88008,52.5973" /><path
   id="path16505"
   style="fill:none;stroke:#000000;stroke-width:0.26568002;stroke-linecap:round;stroke-linejoin:round;stroke-miterlimit:10;stroke-dasharray:none;stroke-opacity:1"
   d="M 3.88008,52.5973 L 59.0801,52.5973 L 59.4398,52.7172 L 59.8,52.8371 L 60.0398,52.8371 L 60.4,53.1973 L 60.5199,53.4371 L 60.7602,53.6773 L 60.7602,85.2371 L 60.5199,85.4773 L 60.4,85.7172 L 60.0398,85.957 L 59.8,86.0773 L 59.4398,86.1973 L 3.51992,86.1973 L 3.16016,86.0773 L 2.91992,85.957 L 2.56016,85.7172 L 2.43984,85.4773 L 2.2,85.2371 L 2.2,53.6773 L 2.43984,53.4371 L 2.56016,53.1973 L 2.91992,52.8371 L 3.16016,52.8371 L 3.51992,52.7172 L 3.88008,52.5973 L 3.88008,52.5973" /><path
   id="path16507"
   style="fill:#ffffff;fill-opacity:1;fill-rule:evenodd;stroke:none"
   d="M 13.1199,58.957 L 48.5199,58.957 L 48.6398,59.0773 L 48.7602,59.1973 L 48.8801,59.3172 L 49,59.557 L 49.1199,59.6773 L 49.1199,78.2773 L 49,78.3973 L 48.8801,78.6371 L 48.7602,78.757 L 48.6398,78.8773 L 48.5199,78.9973 L 48.2801,79.1172 L 13,79.1172 L 12.7602,78.9973 L 12.6398,78.8773 L 12.4,78.757 L 12.4,78.6371 L 12.2801,78.3973 L 12.1602,78.2773 L 12.1602,59.6773 L 12.2801,59.557 L 12.4,59.3172 L 12.4,59.1973 L 12.6398,59.0773 L 12.7602,58.957 L 13.1199,58.957 L 13.1199,58.957" /><path
   id="path16509"
   style="fill:none;stroke:#000000;stroke-width:0.26568002;stroke-linecap:round;stroke-linejoin:round;stroke-miterlimit:10;stroke-dasharray:none;stroke-opacity:1"
   d="M 13.1199,58.957 L 48.5199,58.957 L 48.6398,59.0773 L 48.7602,59.1973 L 48.8801,59.3172 L 49,59.557 L 49.1199,59.6773 L 49.1199,78.2773 L 49,78.3973 L 48.8801,78.6371 L 48.7602,78.757 L 48.6398,78.8773 L 48.5199,78.9973 L 48.2801,79.1172 L 13,79.1172 L 12.7602,78.9973 L 12.6398,78.8773 L 12.4,78.757 L 12.4,78.6371 L 12.2801,78.3973 L 12.1602,78.2773 L 12.1602,59.6773 L 12.2801,59.557 L 12.4,59.3172 L 12.4,59.1973 L 12.6398,59.0773 L 12.7602,58.957 L 13.1199,58.957 L 13.1199,58.957" /><g
   id="g16511"
   transform="translate(12.8,0)"><text
   id="text16513"
   transform="scale(1,-1)"
   x="18.60845"
   y="-71.197304"
   style="text-align:center;text-anchor:middle"><tspan
     id="tspan16517"
     sodipodi:role="line"
     x="18.60845"
     style="font-size:7.10340023px;font-variant:normal;font-weight:normal;text-align:center;writing-mode:lr-tb;text-anchor:middle;fill:#000000;fill-opacity:1;fill-rule:nonzero;stroke:none;font-family:Helvetica;-inkscape-font-specification:Helvetica"
     y="-71.197304">change</tspan><tspan
     sodipodi:role="line"
     x="18.60845"
     style="font-size:7.10340023px;font-variant:normal;font-weight:normal;text-align:center;writing-mode:lr-tb;text-anchor:middle;fill:#000000;fill-opacity:1;fill-rule:nonzero;stroke:none;font-family:Helvetica;-inkscape-font-specification:Helvetica"
     y="-62.318054"
     id="tspan16873">mode</tspan></text>



</g><path
   id="path16519"
   style="fill:#808080;fill-opacity:1;fill-rule:evenodd;stroke:none"
   d="M 64.1199,69.3973 L 64.1199,69.9973 L 64,70.2371 L 63.8801,70.5973 L 63.7602,70.8371 L 63.5199,71.0773 L 63.4,71.3172 L 63.1602,71.557 L 62.9199,71.6773 L 62.6801,71.9172 L 62.4398,72.0371 L 62.0801,72.2773 L 61.7199,72.2773 L 61.4801,72.3973 L 60.0398,72.3973 L 59.8,72.2773 L 59.4398,72.2773 L 59.2,72.0371 L 58.9602,71.9172 L 58.7199,71.6773 L 58.3602,71.557 L 58.2398,71.3172 L 58,71.0773 L 57.8801,70.8371 L 57.6398,70.5973 L 57.6398,70.2371 L 57.5199,69.9973 L 57.4,69.757 L 57.4,69.157 L 57.5199,68.7973 L 57.6398,68.557 L 57.6398,68.1973 L 57.8801,67.957 L 58,67.7172 L 58.2398,67.4773 L 58.3602,67.2371 L 58.7199,67.1172 L 58.9602,66.8773 L 59.2,66.757 L 59.4398,66.6371 L 59.8,66.5172 L 60.0398,66.5172 L 60.4,66.3973 L 61.1199,66.3973 L 61.4801,66.5172 L 61.7199,66.5172 L 62.0801,66.6371 L 62.4398,66.757 L 62.6801,66.8773 L 62.9199,67.1172 L 63.1602,67.2371 L 63.4,67.4773 L 63.5199,67.7172 L 63.7602,67.957 L 63.8801,68.1973 L 64,68.557 L 64.1199,68.7973 L 64.1199,69.3973" /><path
   id="path16521"
   style="fill:none;stroke:#000000;stroke-width:0.26568002;stroke-linecap:round;stroke-linejoin:round;stroke-miterlimit:10;stroke-dasharray:none;stroke-opacity:1"
   d="M 64.1199,69.3973 L 64.1199,69.9973 L 64,70.2371 L 63.8801,70.5973 L 63.7602,70.8371 L 63.5199,71.0773 L 63.4,71.3172 L 63.1602,71.557 L 62.9199,71.6773 L 62.6801,71.9172 L 62.4398,72.0371 L 62.0801,72.2773 L 61.7199,72.2773 L 61.4801,72.3973 L 60.0398,72.3973 L 59.8,72.2773 L 59.4398,72.2773 L 59.2,72.0371 L 58.9602,71.9172 L 58.7199,71.6773 L 58.3602,71.557 L 58.2398,71.3172 L 58,71.0773 L 57.8801,70.8371 L 57.6398,70.5973 L 57.6398,70.2371 L 57.5199,69.9973 L 57.4,69.757 L 57.4,69.157 L 57.5199,68.7973 L 57.6398,68.557 L 57.6398,68.1973 L 57.8801,67.957 L 58,67.7172 L 58.2398,67.4773 L 58.3602,67.2371 L 58.7199,67.1172 L 58.9602,66.8773 L 59.2,66.757 L 59.4398,66.6371 L 59.8,66.5172 L 60.0398,66.5172 L 60.4,66.3973 L 61.1199,66.3973 L 61.4801,66.5172 L 61.7199,66.5172 L 62.0801,66.6371 L 62.4398,66.757 L 62.6801,66.8773 L 62.9199,67.1172 L 63.1602,67.2371 L 63.4,67.4773 L 63.5199,67.7172 L 63.7602,67.957 L 63.8801,68.1973 L 64,68.557 L 64.1199,68.7973 L 64.1199,69.3973" /><path
   id="path16523"
   style="fill:#ffffff;fill-opacity:1;fill-rule:evenodd;stroke:none"
   d="M 34.8398,86.1973 L 34.8398,86.557 L 34.7199,86.7973 L 34.6,87.0371 L 34.4801,87.2773 L 34.4801,87.6371 L 34.2398,87.8773 L 34.1199,88.1172 L 33.8801,88.357 L 33.5199,88.4773 L 33.2801,88.7172 L 33.0398,88.8371 L 32.8,88.957 L 32.4398,89.0773 L 32.0801,89.1973 L 30.7602,89.1973 L 30.4,89.0773 L 30.1602,88.957 L 29.8,88.8371 L 29.5602,88.7172 L 29.3199,88.4773 L 29.0801,88.357 L 28.8398,88.1172 L 28.7199,87.8773 L 28.4801,87.6371 L 28.3602,87.2773 L 28.2398,87.0371 L 28.1199,86.7973 L 28.1199,85.5973 L 28.2398,85.2371 L 28.3602,84.9973 L 28.4801,84.757 L 28.7199,84.5172 L 28.8398,84.2773 L 29.0801,84.0371 L 29.3199,83.9172 L 29.5602,83.6773 L 29.8,83.557 L 30.1602,83.4371 L 30.4,83.3172 L 30.7602,83.1973 L 32.0801,83.1973 L 32.4398,83.3172 L 32.8,83.4371 L 33.0398,83.557 L 33.2801,83.6773 L 33.5199,83.9172 L 33.8801,84.0371 L 34.1199,84.2773 L 34.2398,84.5172 L 34.4801,84.757 L 34.4801,84.9973 L 34.6,85.2371 L 34.7199,85.5973 L 34.8398,85.957 L 34.8398,86.1973" /><path
   id="path16525"
   style="fill:none;stroke:#000000;stroke-width:0.26568002;stroke-linecap:round;stroke-linejoin:round;stroke-miterlimit:10;stroke-dasharray:none;stroke-opacity:1"
   d="M 34.8398,86.1973 L 34.8398,86.557 L 34.7199,86.7973 L 34.6,87.0371 L 34.4801,87.2773 L 34.4801,87.6371 L 34.2398,87.8773 L 34.1199,88.1172 L 33.8801,88.357 L 33.5199,88.4773 L 33.2801,88.7172 L 33.0398,88.8371 L 32.8,88.957 L 32.4398,89.0773 L 32.0801,89.1973 L 30.7602,89.1973 L 30.4,89.0773 L 30.1602,88.957 L 29.8,88.8371 L 29.5602,88.7172 L 29.3199,88.4773 L 29.0801,88.357 L 28.8398,88.1172 L 28.7199,87.8773 L 28.4801,87.6371 L 28.3602,87.2773 L 28.2398,87.0371 L 28.1199,86.7973 L 28.1199,85.5973 L 28.2398,85.2371 L 28.3602,84.9973 L 28.4801,84.757 L 28.7199,84.5172 L 28.8398,84.2773 L 29.0801,84.0371 L 29.3199,83.9172 L 29.5602,83.6773 L 29.8,83.557 L 30.1602,83.4371 L 30.4,83.3172 L 30.7602,83.1973 L 32.0801,83.1973 L 32.4398,83.3172 L 32.8,83.4371 L 33.0398,83.557 L 33.2801,83.6773 L 33.5199,83.9172 L 33.8801,84.0371 L 34.1199,84.2773 L 34.2398,84.5172 L 34.4801,84.757 L 34.4801,84.9973 L 34.6,85.2371 L 34.7199,85.5973 L 34.8398,85.957 L 34.8398,86.1973" /><g
   id="g16527"><text
   id="text16529"
   transform="scale(1,-1)"
   x="12.892481"
   y="-88.891113"><tspan
     id="tspan16531"
     sodipodi:role="line"
     style="font-size:7.10340023px;font-variant:normal;font-weight:normal;writing-mode:lr-tb;fill:#000000;fill-opacity:1;fill-rule:nonzero;stroke:none;font-family:Helvetica;-inkscape-font-specification:Helvetica"
     x="12.892481"
     y="-88.891113">sleep control</tspan></text>



</g><path
   id="path16533"
   style="fill:none;stroke:#000000;stroke-width:0.26568002;stroke-linecap:round;stroke-linejoin:round;stroke-miterlimit:10;stroke-dasharray:none;stroke-opacity:1"
   d="M 78.4,134.077 L 81.1602,129.397 L 82.6,133.477 L 84.8801,129.517" /><path
   id="path16535"
   style="fill:#000000;fill-opacity:1;fill-rule:evenodd;stroke:none"
   d="M 86.8,126.397 L 82.2398,129.277 L 82.8398,129.397 L 83.5602,129.637 L 84.0398,129.757 L 84.6398,129.997 L 85.1199,130.357 L 85.6,130.837 L 86.0801,131.317 L 86.4398,131.677 L 86.4398,131.677 L 86.8,126.397 L 86.8,126.397" /><path
   id="path16537"
   style="fill:#ffffff;fill-opacity:1;fill-rule:evenodd;stroke:none"
   d="M 129.52,119.797 L 129.52,120.877 L 129.28,121.477 L 129.16,121.957 L 128.8,122.437 L 128.44,123.037 L 128.08,123.517 L 127.72,124.117 L 127.24,124.477 L 126.76,124.957 L 126.16,125.557 L 125.56,125.917 L 124.84,126.277 L 124.12,126.757 L 123.4,127.237 L 122.68,127.597 L 121.84,127.957 L 121,128.317 L 120.16,128.557 L 119.2,128.917 L 118.24,129.157 L 117.28,129.397 L 116.2,129.637 L 115.24,129.997 L 114.16,130.117 L 113.08,130.357 L 111.88,130.357 L 110.8,130.597 L 109.72,130.717 L 102.52,130.717 L 101.32,130.597 L 100.24,130.357 L 99.1602,130.357 L 97.9602,130.117 L 96.8801,129.997 L 95.9199,129.637 L 94.8398,129.397 L 93.8801,129.157 L 92.9199,128.917 L 92.0801,128.557 L 91.1199,128.317 L 90.2801,127.957 L 89.4398,127.597 L 88.6,127.237 L 88,126.757 L 87.2801,126.277 L 86.5602,125.917 L 85.9602,125.557 L 85.4801,124.957 L 84.8801,124.477 L 84.5199,124.117 L 84.0398,123.517 L 83.6801,123.037 L 83.3199,122.437 L 83.0801,121.957 L 82.8398,121.477 L 82.7199,120.877 L 82.6,120.397 L 82.6,119.197 L 82.7199,118.597 L 82.8398,117.997 L 83.0801,117.517 L 83.3199,117.037 L 83.6801,116.437 L 84.0398,115.957 L 84.5199,115.477 L 84.8801,114.997 L 85.4801,114.517 L 85.9602,114.037 L 86.5602,113.557 L 87.2801,113.197 L 88,112.717 L 88.6,112.357 L 89.4398,111.877 L 90.2801,111.517 L 91.1199,111.157 L 92.0801,110.917 L 92.9199,110.557 L 93.8801,110.317 L 94.8398,110.077 L 95.9199,109.837 L 96.8801,109.597 L 97.9602,109.477 L 99.1602,109.237 L 100.24,109.117 L 101.32,108.997 L 102.52,108.757 L 109.72,108.757 L 110.8,108.997 L 111.88,109.117 L 113.08,109.237 L 114.16,109.477 L 115.24,109.597 L 116.2,109.837 L 117.28,110.077 L 118.24,110.317 L 119.2,110.557 L 120.16,110.917 L 121,111.157 L 121.84,111.517 L 122.68,111.877 L 123.4,112.357 L 124.12,112.717 L 124.84,113.197 L 125.56,113.557 L 126.16,114.037 L 126.76,114.517 L 127.24,114.997 L 127.72,115.477 L 128.08,115.957 L 128.44,116.437 L 128.8,117.037 L 129.16,117.517 L 129.28,117.997 L 129.52,118.597 L 129.52,119.797" /><path
   id="path16539"
   style="fill:none;stroke:#000000;stroke-width:0.26568002;stroke-linecap:round;stroke-linejoin:round;stroke-miterlimit:10;stroke-dasharray:none;stroke-opacity:1"
   d="M 129.52,119.797 L 129.52,120.877 L 129.28,121.477 L 129.16,121.957 L 128.8,122.437 L 128.44,123.037 L 128.08,123.517 L 127.72,124.117 L 127.24,124.477 L 126.76,124.957 L 126.16,125.557 L 125.56,125.917 L 124.84,126.277 L 124.12,126.757 L 123.4,127.237 L 122.68,127.597 L 121.84,127.957 L 121,128.317 L 120.16,128.557 L 119.2,128.917 L 118.24,129.157 L 117.28,129.397 L 116.2,129.637 L 115.24,129.997 L 114.16,130.117 L 113.08,130.357 L 111.88,130.357 L 110.8,130.597 L 109.72,130.717 L 102.52,130.717 L 101.32,130.597 L 100.24,130.357 L 99.1602,130.357 L 97.9602,130.117 L 96.8801,129.997 L 95.9199,129.637 L 94.8398,129.397 L 93.8801,129.157 L 92.9199,128.917 L 92.0801,128.557 L 91.1199,128.317 L 90.2801,127.957 L 89.4398,127.597 L 88.6,127.237 L 88,126.757 L 87.2801,126.277 L 86.5602,125.917 L 85.9602,125.557 L 85.4801,124.957 L 84.8801,124.477 L 84.5199,124.117 L 84.0398,123.517 L 83.6801,123.037 L 83.3199,122.437 L 83.0801,121.957 L 82.8398,121.477 L 82.7199,120.877 L 82.6,120.397 L 82.6,119.197 L 82.7199,118.597 L 82.8398,117.997 L 83.0801,117.517 L 83.3199,117.037 L 83.6801,116.437 L 84.0398,115.957 L 84.5199,115.477 L 84.8801,114.997 L 85.4801,114.517 L 85.9602,114.037 L 86.5602,113.557 L 87.2801,113.197 L 88,112.717 L 88.6,112.357 L 89.4398,111.877 L 90.2801,111.517 L 91.1199,111.157 L 92.0801,110.917 L 92.9199,110.557 L 93.8801,110.317 L 94.8398,110.077 L 95.9199,109.837 L 96.8801,109.597 L 97.9602,109.477 L 99.1602,109.237 L 100.24,109.117 L 101.32,108.997 L 102.52,108.757 L 109.72,108.757 L 110.8,108.997 L 111.88,109.117 L 113.08,109.237 L 114.16,109.477 L 115.24,109.597 L 116.2,109.837 L 117.28,110.077 L 118.24,110.317 L 119.2,110.557 L 120.16,110.917 L 121,111.157 L 121.84,111.517 L 122.68,111.877 L 123.4,112.357 L 124.12,112.717 L 124.84,113.197 L 125.56,113.557 L 126.16,114.037 L 126.76,114.517 L 127.24,114.997 L 127.72,115.477 L 128.08,115.957 L 128.44,116.437 L 128.8,117.037 L 129.16,117.517 L 129.28,117.997 L 129.52,118.597 L 129.52,119.797" /><g
   id="g16541"><text
   id="text16543"
   transform="matrix(1,0,0,-1,103.24,117.637)"><tspan
     id="tspan16545"
     sodipodi:role="line"
     y="0"
     x="0 2.040004"
     style="font-size:7.10340023px;font-variant:normal;font-weight:normal;writing-mode:lr-tb;fill:#000000;fill-opacity:1;fill-rule:nonzero;stroke:none;font-family:Helvetica;-inkscape-font-specification:Helvetica">tx</tspan></text>



</g><path
   id="path16547"
   style="fill:#ffffff;fill-opacity:1;fill-rule:evenodd;stroke:none"
   d="M 187.12,59.3172 L 228.88,59.3172 L 229.12,59.4371 L 229.24,59.557 L 229.48,59.6773 L 229.6,59.7973 L 229.6,60.0371 L 229.72,60.157 L 229.72,78.757 L 229.6,78.8773 L 229.6,79.1172 L 229.48,79.1172 L 229.24,79.357 L 229.12,79.4773 L 186.76,79.4773 L 186.64,79.357 L 186.4,79.1172 L 186.28,79.1172 L 186.28,78.8773 L 186.16,78.757 L 186.16,60.157 L 186.28,60.0371 L 186.28,59.7973 L 186.4,59.6773 L 186.64,59.557 L 186.76,59.4371 L 187,59.3172 L 187.12,59.3172 L 187.12,59.3172" /><path
   id="path16549"
   style="fill:none;stroke:#000000;stroke-width:0.26568002;stroke-linecap:round;stroke-linejoin:round;stroke-miterlimit:10;stroke-dasharray:none;stroke-opacity:1"
   d="M 187.12,59.3172 L 228.88,59.3172 L 229.12,59.4371 L 229.24,59.557 L 229.48,59.6773 L 229.6,59.7973 L 229.6,60.0371 L 229.72,60.157 L 229.72,78.757 L 229.6,78.8773 L 229.6,79.1172 L 229.48,79.1172 L 229.24,79.357 L 229.12,79.4773 L 186.76,79.4773 L 186.64,79.357 L 186.4,79.1172 L 186.28,79.1172 L 186.28,78.8773 L 186.16,78.757 L 186.16,60.157 L 186.28,60.0371 L 186.28,59.7973 L 186.4,59.6773 L 186.64,59.557 L 186.76,59.4371 L 187,59.3172 L 187.12,59.3172 L 187.12,59.3172" /><g
   id="g16551"><text
   id="text16553"
   transform="scale(1,-1)"
   style="text-align:center;text-anchor:middle"
   x="207.52005"
   y="-71.556999"><tspan
     id="tspan16557"
     sodipodi:role="line"
     style="font-size:7.10340023px;font-variant:normal;font-weight:normal;text-align:center;writing-mode:lr-tb;text-anchor:middle;fill:#000000;fill-opacity:1;fill-rule:nonzero;stroke:none;font-family:Helvetica;-inkscape-font-specification:Helvetica"
     x="207.52005"
     y="-71.556999">process</tspan><tspan
     sodipodi:role="line"
     style="font-size:7.10340023px;font-variant:normal;font-weight:normal;text-align:center;writing-mode:lr-tb;text-anchor:middle;fill:#000000;fill-opacity:1;fill-rule:nonzero;stroke:none;font-family:Helvetica;-inkscape-font-specification:Helvetica"
     x="207.52005"
     y="-62.67775"
     id="tspan16889">instruction</tspan></text>



</g><path
   id="path16563"
   style="fill:none;stroke:#000000;stroke-width:0.26568002;stroke-linecap:round;stroke-linejoin:round;stroke-miterlimit:10;stroke-dasharray:none;stroke-opacity:1"
   d="M 130,33.0371 L 132.64,28.2371 L 134.2,32.4371 L 136.48,28.4773" /><path
   id="path16565"
   style="fill:#000000;fill-opacity:1;fill-rule:evenodd;stroke:none"
   d="M 138.28,25.2371 L 133.84,28.2371 L 134.44,28.2371 L 135.04,28.4773 L 135.64,28.5973 L 136.24,28.957 L 136.72,29.1973 L 137.2,29.6773 L 137.68,30.157 L 138.04,30.6371 L 138.04,30.6371 L 138.28,25.2371 L 138.28,25.2371" /><path
   id="path16567"
   style="fill:#ffffff;fill-opacity:1;fill-rule:evenodd;stroke:none"
   d="M 82.8398,9.03711 L 122.92,9.03711 L 123.04,9.15703 L 123.28,9.15703 L 123.4,9.27734 L 123.52,9.39727 L 123.64,9.63711 L 123.64,28.5973 L 123.52,28.7172 L 123.4,28.8371 L 123.28,28.957 L 123.04,29.0773 L 122.92,29.0773 L 122.68,29.1973 L 82.8398,29.1973 L 82.4801,29.0773 L 82.3602,29.0773 L 82.1199,28.957 L 82.1199,28.8371 L 81.8801,28.7172 L 81.8801,28.357 L 81.7602,28.1172 L 81.7602,9.99727 L 81.8801,9.75703 L 81.8801,9.39727 L 82.1199,9.27734 L 82.1199,9.15703 L 82.3602,9.15703 L 82.4801,9.03711 L 82.8398,9.03711 L 82.8398,9.03711" /><path
   id="path16569"
   style="fill:none;stroke:#000000;stroke-width:0.26568002;stroke-linecap:round;stroke-linejoin:round;stroke-miterlimit:10;stroke-dasharray:none;stroke-opacity:1"
   d="M 82.8398,9.03711 L 122.92,9.03711 L 123.04,9.15703 L 123.28,9.15703 L 123.4,9.27734 L 123.52,9.39727 L 123.64,9.63711 L 123.64,28.5973 L 123.52,28.7172 L 123.4,28.8371 L 123.28,28.957 L 123.04,29.0773 L 122.92,29.0773 L 122.68,29.1973 L 82.8398,29.1973 L 82.4801,29.0773 L 82.3602,29.0773 L 82.1199,28.957 L 82.1199,28.8371 L 81.8801,28.7172 L 81.8801,28.357 L 81.7602,28.1172 L 81.7602,9.99727 L 81.8801,9.75703 L 81.8801,9.39727 L 82.1199,9.27734 L 82.1199,9.15703 L 82.3602,9.15703 L 82.4801,9.03711 L 82.8398,9.03711 L 82.8398,9.03711" /><g
   id="g16571"><text
   id="text16573"
   transform="scale(1,-1)"
   style="text-align:center;text-anchor:middle"
   x="103.48009"
   y="-21.157"><tspan
     id="tspan16577"
     sodipodi:role="line"
     style="font-size:7.10340023px;font-variant:normal;font-weight:normal;text-align:center;writing-mode:lr-tb;text-anchor:middle;fill:#000000;fill-opacity:1;fill-rule:nonzero;stroke:none;font-family:Helvetica;-inkscape-font-specification:Helvetica"
     x="103.48009"
     y="-21.157">start</tspan><tspan
     sodipodi:role="line"
     style="font-size:7.10340023px;font-variant:normal;font-weight:normal;text-align:center;writing-mode:lr-tb;text-anchor:middle;fill:#000000;fill-opacity:1;fill-rule:nonzero;stroke:none;font-family:Helvetica;-inkscape-font-specification:Helvetica"
     x="103.48009"
     y="-12.277749"
     id="tspan16885">converter</tspan></text>



</g><path
   id="path16579"
   style="fill:#ffffff;fill-opacity:1;fill-rule:evenodd;stroke:none"
   d="M 181.12,18.9973 L 181.12,19.7172 L 181,20.1973 L 180.88,20.6773 L 180.64,21.2773 L 180.4,21.757 L 180.04,22.357 L 179.68,22.8371 L 179.2,23.4371 L 178.84,23.7973 L 178.24,24.3973 L 177.76,24.757 L 177.16,25.2371 L 176.44,25.7172 L 175.72,26.0773 L 175,26.557 L 174.16,26.9172 L 173.44,27.157 L 172.6,27.5172 L 171.64,27.8773 L 170.68,28.2371 L 169.84,28.5973 L 168.88,28.8371 L 167.8,28.957 L 166.72,29.1973 L 165.64,29.4371 L 164.56,29.557 L 163.48,29.7973 L 162.4,29.9172 L 161.2,29.9172 L 160,30.0371 L 155.2,30.0371 L 154,29.9172 L 152.92,29.9172 L 151.72,29.7973 L 150.64,29.557 L 149.56,29.4371 L 148.48,29.1973 L 147.52,28.957 L 146.44,28.7172 L 145.48,28.5973 L 144.52,28.2371 L 143.56,27.8773 L 142.72,27.5172 L 141.88,27.157 L 141.04,26.9172 L 140.32,26.557 L 139.48,26.0773 L 138.76,25.7172 L 138.16,25.2371 L 137.56,24.757 L 136.96,24.3973 L 136.48,23.7973 L 136,23.4371 L 135.64,22.8371 L 135.28,22.357 L 134.92,21.757 L 134.56,21.2773 L 134.44,20.6773 L 134.2,20.1973 L 134.2,18.0371 L 134.44,17.3172 L 134.56,16.8371 L 134.92,16.2371 L 135.28,15.757 L 135.64,15.2773 L 136,14.7973 L 136.48,14.1973 L 136.96,13.8371 L 137.56,13.357 L 138.16,12.8773 L 138.76,12.5172 L 139.48,12.0371 L 140.32,11.6773 L 141.04,11.3172 L 141.88,10.8371 L 142.72,10.5973 L 143.56,10.2371 L 144.52,9.87734 L 145.48,9.63711 L 146.44,9.39727 L 147.52,9.15703 L 148.48,8.91719 L 149.56,8.79727 L 150.64,8.55703 L 151.72,8.43711 L 152.92,8.31719 L 154,8.19727 L 155.2,8.07734 L 160,8.07734 L 161.2,8.19727 L 162.4,8.31719 L 163.48,8.43711 L 164.56,8.55703 L 165.64,8.79727 L 166.72,8.91719 L 167.8,9.15703 L 168.88,9.39727 L 169.84,9.63711 L 170.68,9.87734 L 171.64,10.2371 L 172.6,10.5973 L 173.44,10.8371 L 174.16,11.3172 L 175,11.6773 L 175.72,12.0371 L 176.44,12.5172 L 177.16,12.8773 L 177.76,13.357 L 178.24,13.8371 L 178.84,14.1973 L 179.2,14.7973 L 179.68,15.2773 L 180.04,15.757 L 180.4,16.2371 L 180.64,16.8371 L 180.88,17.3172 L 181,18.0371 L 181.12,18.5172 L 181.12,18.9973" /><path
   id="path16581"
   style="fill:none;stroke:#000000;stroke-width:0.26568002;stroke-linecap:round;stroke-linejoin:round;stroke-miterlimit:10;stroke-dasharray:none;stroke-opacity:1"
   d="M 181.12,18.9973 L 181.12,19.7172 L 181,20.1973 L 180.88,20.6773 L 180.64,21.2773 L 180.4,21.757 L 180.04,22.357 L 179.68,22.8371 L 179.2,23.4371 L 178.84,23.7973 L 178.24,24.3973 L 177.76,24.757 L 177.16,25.2371 L 176.44,25.7172 L 175.72,26.0773 L 175,26.557 L 174.16,26.9172 L 173.44,27.157 L 172.6,27.5172 L 171.64,27.8773 L 170.68,28.2371 L 169.84,28.5973 L 168.88,28.8371 L 167.8,28.957 L 166.72,29.1973 L 165.64,29.4371 L 164.56,29.557 L 163.48,29.7973 L 162.4,29.9172 L 161.2,29.9172 L 160,30.0371 L 155.2,30.0371 L 154,29.9172 L 152.92,29.9172 L 151.72,29.7973 L 150.64,29.557 L 149.56,29.4371 L 148.48,29.1973 L 147.52,28.957 L 146.44,28.7172 L 145.48,28.5973 L 144.52,28.2371 L 143.56,27.8773 L 142.72,27.5172 L 141.88,27.157 L 141.04,26.9172 L 140.32,26.557 L 139.48,26.0773 L 138.76,25.7172 L 138.16,25.2371 L 137.56,24.757 L 136.96,24.3973 L 136.48,23.7973 L 136,23.4371 L 135.64,22.8371 L 135.28,22.357 L 134.92,21.757 L 134.56,21.2773 L 134.44,20.6773 L 134.2,20.1973 L 134.2,18.0371 L 134.44,17.3172 L 134.56,16.8371 L 134.92,16.2371 L 135.28,15.757 L 135.64,15.2773 L 136,14.7973 L 136.48,14.1973 L 136.96,13.8371 L 137.56,13.357 L 138.16,12.8773 L 138.76,12.5172 L 139.48,12.0371 L 140.32,11.6773 L 141.04,11.3172 L 141.88,10.8371 L 142.72,10.5973 L 143.56,10.2371 L 144.52,9.87734 L 145.48,9.63711 L 146.44,9.39727 L 147.52,9.15703 L 148.48,8.91719 L 149.56,8.79727 L 150.64,8.55703 L 151.72,8.43711 L 152.92,8.31719 L 154,8.19727 L 155.2,8.07734 L 160,8.07734 L 161.2,8.19727 L 162.4,8.31719 L 163.48,8.43711 L 164.56,8.55703 L 165.64,8.79727 L 166.72,8.91719 L 167.8,9.15703 L 168.88,9.39727 L 169.84,9.63711 L 170.68,9.87734 L 171.64,10.2371 L 172.6,10.5973 L 173.44,10.8371 L 174.16,11.3172 L 175,11.6773 L 175.72,12.0371 L 176.44,12.5172 L 177.16,12.8773 L 177.76,13.357 L 178.24,13.8371 L 178.84,14.1973 L 179.2,14.7973 L 179.68,15.2773 L 180.04,15.757 L 180.4,16.2371 L 180.64,16.8371 L 180.88,17.3172 L 181,18.0371 L 181.12,18.5172 L 181.12,18.9973" /><g
   id="g16583"><text
   id="text16585"
   transform="scale(1,-1)"
   x="137.91998"
   y="-16.957001"><tspan
     id="tspan16587"
     sodipodi:role="line"
     style="font-size:7.10340023px;font-variant:normal;font-weight:normal;writing-mode:lr-tb;fill:#000000;fill-opacity:1;fill-rule:nonzero;stroke:none;font-family:Helvetica;-inkscape-font-specification:Helvetica"
     x="137.91998"
     y="-16.957001">read value</tspan></text>



</g><path
   id="path16593"
   style="fill:none;stroke:#000000;stroke-width:0.26568002;stroke-linecap:round;stroke-linejoin:round;stroke-miterlimit:10;stroke-dasharray:none;stroke-opacity:1"
   d="M 102.76,49.5973 L 102.64,42.5172" /><path
   id="path16595"
   style="fill:#000000;fill-opacity:1;fill-rule:evenodd;stroke:none"
   d="M 102.64,38.7973 L 100.24,43.5973 L 100.84,43.357 L 101.56,43.2371 L 102.04,43.1172 L 103.24,43.1172 L 103.96,43.2371 L 104.56,43.357 L 105.16,43.5973 L 105.16,43.5973 L 102.64,38.7973 L 102.64,38.7973" /><path
   id="path16597"
   style="fill:none;stroke:#000000;stroke-width:0.26568002;stroke-linecap:round;stroke-linejoin:round;stroke-miterlimit:10;stroke-dasharray:none;stroke-opacity:1"
   d="M 157.24,38.9172 L 157.24,45.9973" /><path
   id="path16599"
   style="fill:#000000;fill-opacity:1;fill-rule:evenodd;stroke:none"
   d="M 157.24,49.7172 L 154.84,44.9172 L 155.32,45.157 L 156.04,45.2773 L 156.64,45.3973 L 157.84,45.3973 L 158.44,45.2773 L 159.04,45.157 L 159.64,44.9172 L 159.64,44.9172 L 157.24,49.7172 L 157.24,49.7172" /><path
   id="path16601"
   style="fill:none;stroke:#000000;stroke-width:0.26568002;stroke-linecap:round;stroke-linejoin:round;stroke-miterlimit:10;stroke-dasharray:none;stroke-opacity:1"
   d="M 157.24,88.8371 L 157.24,95.9172" /><path
   id="path16603"
   style="fill:#000000;fill-opacity:1;fill-rule:evenodd;stroke:none"
   d="M 157.24,99.6371 L 154.84,94.8371 L 155.32,95.0773 L 156.04,95.1973 L 156.64,95.3172 L 157.84,95.3172 L 158.44,95.1973 L 159.04,95.0773 L 159.64,94.8371 L 159.64,94.8371 L 157.24,99.6371 L 157.24,99.6371" /><path
   id="path16605"
   style="fill:none;stroke:#000000;stroke-width:0.26568002;stroke-linecap:round;stroke-linejoin:round;stroke-miterlimit:10;stroke-dasharray:none;stroke-opacity:1"
   d="M 102.76,29.1973 L 102.76,32.7973" /><path
   id="path16607"
   style="fill:none;stroke:#000000;stroke-width:0.26568002;stroke-linecap:round;stroke-linejoin:round;stroke-miterlimit:10;stroke-dasharray:none;stroke-opacity:1"
   d="M 31.4801,79.8371 L 31.4801,82.5973" /><path
   id="path16609"
   style="fill:none;stroke:#000000;stroke-width:0.26568002;stroke-linecap:round;stroke-linejoin:round;stroke-miterlimit:10;stroke-dasharray:none;stroke-opacity:1"
   d="M 31.4801,105.877 L 31.4801,108.637" /><path
   id="path16611"
   style="fill:none;stroke:#000000;stroke-width:0.26568002;stroke-linecap:round;stroke-linejoin:round;stroke-miterlimit:10;stroke-dasharray:none;stroke-opacity:1"
   d="M 102.76,56.1973 L 102.76,58.957" /><path
   id="path16613"
   style="fill:none;stroke:#000000;stroke-width:0.26568002;stroke-linecap:round;stroke-linejoin:round;stroke-miterlimit:10;stroke-dasharray:none;stroke-opacity:1"
   d="M 156.76,56.1973 L 156.76,58.957" /><path
   id="path16615"
   style="fill:none;stroke:#000000;stroke-width:0.26568002;stroke-linecap:round;stroke-linejoin:round;stroke-miterlimit:10;stroke-dasharray:none;stroke-opacity:1"
   d="M 157.24,80.0773 L 157.24,82.8371" /><path
   id="path16617"
   style="fill:none;stroke:#000000;stroke-width:0.26568002;stroke-linecap:round;stroke-linejoin:round;stroke-miterlimit:10;stroke-dasharray:none;stroke-opacity:1"
   d="M 207.88,79.4773 L 207.88,82.2371" /><path
   id="path16619"
   style="fill:none;stroke:#000000;stroke-width:0.26568002;stroke-linecap:round;stroke-linejoin:round;stroke-miterlimit:10;stroke-dasharray:none;stroke-opacity:1"
   d="M 157.24,106.357 L 157.24,109.117" /><path
   id="path16621"
   style="fill:none;stroke:#000000;stroke-width:0.26568002;stroke-linecap:round;stroke-linejoin:round;stroke-miterlimit:10;stroke-dasharray:none;stroke-opacity:1"
   d="M 207.88,105.997 L 207.88,108.757" /><path
   id="path16623"
   style="fill:none;stroke:#000000;stroke-width:0.26568002;stroke-linecap:round;stroke-linejoin:round;stroke-miterlimit:10;stroke-dasharray:none;stroke-opacity:1"
   d="M 160.12,84.757 L 186.52,79.4773" /><path
   id="path16625"
   style="fill:none;stroke:#000000;stroke-width:0.26568002;stroke-linecap:round;stroke-linejoin:round;stroke-miterlimit:10;stroke-dasharray:none;stroke-opacity:1"
   d="M 57.4,69.3973 L 49.1199,69.3973" /><path
   id="path16633"
   style="fill:none;stroke:#000000;stroke-width:0.26568002;stroke-linecap:round;stroke-linejoin:round;stroke-miterlimit:10;stroke-dasharray:none;stroke-opacity:1"
   d="M 64.1199,69.8773 L 70.6,69.6371" /><path
   id="path16635"
   style="fill:#000000;fill-opacity:1;fill-rule:evenodd;stroke:none"
   d="M 74.157758,69.6371 L 69.517841,72.157 L 69.636712,71.557 L 69.874948,70.957 L 69.874948,69.157 L 69.756078,68.557 L 69.517841,67.8371 L 69.2801,67.357 L 74.157758,69.6371 L 74.157758,69.6371" /><path
   id="path16637"
   style="fill:#ffffff;fill-opacity:1;fill-rule:evenodd;stroke:none"
   d="M 273.76,9.03711 L 273.76,9.51719 L 273.64,9.75703 L 273.52,9.99727 L 273.52,10.2371 L 273.28,10.4773 L 273.16,10.7172 L 272.92,10.957 L 272.44,11.4371 L 272.08,11.7973 L 271.48,12.157 L 270.76,12.5172 L 270.04,12.8773 L 269.32,13.2371 L 268.48,13.4773 L 267.64,13.5973 L 266.68,13.8371 L 265.72,13.8371 L 264.64,13.957 L 263.68,14.0773 L 262.6,13.957 L 261.64,13.8371 L 260.68,13.8371 L 259.84,13.5973 L 258.88,13.4773 L 258.04,13.2371 L 257.32,12.8773 L 256.6,12.5172 L 255.88,12.157 L 255.4,11.7973 L 254.8,11.4371 L 254.44,10.957 L 254.2,10.7172 L 254.08,10.4773 L 253.96,10.2371 L 253.84,9.99727 L 253.72,9.75703 L 253.72,9.51719 L 253.6,9.27734 L 253.6,8.79727 L 253.72,8.43711 L 253.72,8.19727 L 253.84,7.95703 L 253.96,7.71719 L 254.08,7.47734 L 254.2,7.23711 L 254.44,7.11719 L 254.8,6.63711 L 255.4,6.15703 L 255.88,5.79727 L 256.6,5.43711 L 257.32,5.07734 L 258.04,4.83711 L 258.88,4.59727 L 259.84,4.35703 L 260.68,4.23711 L 261.64,3.99727 L 265.72,3.99727 L 266.68,4.23711 L 267.64,4.35703 L 268.48,4.59727 L 269.32,4.83711 L 270.04,5.07734 L 270.76,5.43711 L 271.48,5.79727 L 272.08,6.15703 L 272.44,6.63711 L 272.92,7.11719 L 273.16,7.23711 L 273.28,7.47734 L 273.52,7.71719 L 273.52,7.95703 L 273.64,8.19727 L 273.76,8.43711 L 273.76,9.03711" /><path
   id="path16639"
   style="fill:none;stroke:#000000;stroke-width:0.26568002;stroke-linecap:round;stroke-linejoin:round;stroke-miterlimit:10;stroke-dasharray:none;stroke-opacity:1"
   d="M 273.76,9.03711 L 273.76,9.51719 L 273.64,9.75703 L 273.52,9.99727 L 273.52,10.2371 L 273.28,10.4773 L 273.16,10.7172 L 272.92,10.957 L 272.44,11.4371 L 272.08,11.7973 L 271.48,12.157 L 270.76,12.5172 L 270.04,12.8773 L 269.32,13.2371 L 268.48,13.4773 L 267.64,13.5973 L 266.68,13.8371 L 265.72,13.8371 L 264.64,13.957 L 263.68,14.0773 L 262.6,13.957 L 261.64,13.8371 L 260.68,13.8371 L 259.84,13.5973 L 258.88,13.4773 L 258.04,13.2371 L 257.32,12.8773 L 256.6,12.5172 L 255.88,12.157 L 255.4,11.7973 L 254.8,11.4371 L 254.44,10.957 L 254.2,10.7172 L 254.08,10.4773 L 253.96,10.2371 L 253.84,9.99727 L 253.72,9.75703 L 253.72,9.51719 L 253.6,9.27734 L 253.6,8.79727 L 253.72,8.43711 L 253.72,8.19727 L 253.84,7.95703 L 253.96,7.71719 L 254.08,7.47734 L 254.2,7.23711 L 254.44,7.11719 L 254.8,6.63711 L 255.4,6.15703 L 255.88,5.79727 L 256.6,5.43711 L 257.32,5.07734 L 258.04,4.83711 L 258.88,4.59727 L 259.84,4.35703 L 260.68,4.23711 L 261.64,3.99727 L 265.72,3.99727 L 266.68,4.23711 L 267.64,4.35703 L 268.48,4.59727 L 269.32,4.83711 L 270.04,5.07734 L 270.76,5.43711 L 271.48,5.79727 L 272.08,6.15703 L 272.44,6.63711 L 272.92,7.11719 L 273.16,7.23711 L 273.28,7.47734 L 273.52,7.71719 L 273.52,7.95703 L 273.64,8.19727 L 273.76,8.43711 L 273.76,9.03711" /><path
   id="path16641"
   style="fill:#ffffff;fill-opacity:1;fill-rule:evenodd;stroke:none"
   d="M 255.16,117.997 L 273.52,117.997 L 273.64,118.117 L 273.76,118.237 L 274,118.357 L 274.12,118.477 L 274.12,118.717 L 274.24,118.837 L 274.24,127.357 L 274.12,127.597 L 274.12,127.717 L 274,127.837 L 273.76,127.957 L 273.64,128.077 L 273.52,128.077 L 273.28,128.197 L 255.16,128.197 L 255.04,128.077 L 254.8,128.077 L 254.68,127.957 L 254.44,127.837 L 254.44,127.717 L 254.32,127.597 L 254.2,127.357 L 254.2,118.837 L 254.32,118.717 L 254.44,118.477 L 254.44,118.357 L 254.68,118.237 L 254.8,118.117 L 255.04,117.997 L 255.16,117.997 L 255.16,117.997" /><path
   id="path16643"
   style="fill:none;stroke:#000000;stroke-width:0.26568002;stroke-linecap:round;stroke-linejoin:round;stroke-miterlimit:10;stroke-dasharray:none;stroke-opacity:1"
   d="M 255.16,117.997 L 273.52,117.997 L 273.64,118.117 L 273.76,118.237 L 274,118.357 L 274.12,118.477 L 274.12,118.717 L 274.24,118.837 L 274.24,127.357 L 274.12,127.597 L 274.12,127.717 L 274,127.837 L 273.76,127.957 L 273.64,128.077 L 273.52,128.077 L 273.28,128.197 L 255.16,128.197 L 255.04,128.077 L 254.8,128.077 L 254.68,127.957 L 254.44,127.837 L 254.44,127.717 L 254.32,127.597 L 254.2,127.357 L 254.2,118.837 L 254.32,118.717 L 254.44,118.477 L 254.44,118.357 L 254.68,118.237 L 254.8,118.117 L 255.04,117.997 L 255.16,117.997 L 255.16,117.997" /><path
   id="path16645"
   style="fill:#f8db60;fill-opacity:1;fill-rule:evenodd;stroke:none"
   d="M 255.88,101.317 L 272.92,101.317 L 273.28,101.437 L 273.52,101.557 L 273.76,101.797 L 274,102.037 L 274.12,102.277 L 274.24,102.637 L 274.24,110.077 L 274.12,110.317 L 274,110.557 L 273.76,110.917 L 273.52,111.037 L 273.28,111.157 L 272.92,111.277 L 272.68,111.397 L 255.88,111.397 L 255.52,111.277 L 255.16,111.157 L 254.92,111.037 L 254.68,110.917 L 254.44,110.557 L 254.32,110.317 L 254.2,110.077 L 254.2,102.637 L 254.32,102.277 L 254.44,102.037 L 254.68,101.797 L 254.92,101.557 L 255.16,101.437 L 255.52,101.317 L 255.88,101.317 L 255.88,101.317" /><path
   id="path16647"
   style="fill:none;stroke:#000000;stroke-width:0.26568002;stroke-linecap:round;stroke-linejoin:round;stroke-miterlimit:10;stroke-dasharray:none;stroke-opacity:1"
   d="M 255.88,101.317 L 272.92,101.317 L 273.28,101.437 L 273.52,101.557 L 273.76,101.797 L 274,102.037 L 274.12,102.277 L 274.24,102.637 L 274.24,110.077 L 274.12,110.317 L 274,110.557 L 273.76,110.917 L 273.52,111.037 L 273.28,111.157 L 272.92,111.277 L 272.68,111.397 L 255.88,111.397 L 255.52,111.277 L 255.16,111.157 L 254.92,111.037 L 254.68,110.917 L 254.44,110.557 L 254.32,110.317 L 254.2,110.077 L 254.2,102.637 L 254.32,102.277 L 254.44,102.037 L 254.68,101.797 L 254.92,101.557 L 255.16,101.437 L 255.52,101.317 L 255.88,101.317 L 255.88,101.317" /><path
   id="path16649"
   style="fill:none;stroke:#000000;stroke-width:0.26568002;stroke-linecap:round;stroke-linejoin:round;stroke-miterlimit:10;stroke-dasharray:none;stroke-opacity:1"
   d="M 257.44,52.5973 L 265.96,52.5973 L 261.52,55.957 L 270.64,55.957" /><path
   id="path16651"
   style="fill:#000000;fill-opacity:1;fill-rule:evenodd;stroke:none"
   d="M 274.24,55.957 L 269.44,53.557 L 269.68,54.157 L 269.92,54.757 L 270.04,55.357 L 270.04,56.557 L 269.92,57.2773 L 269.68,57.8773 L 269.44,58.357 L 269.44,58.357 L 274.24,55.957 L 274.24,55.957" /><path
   id="path16653"
   style="fill:none;stroke:#000000;stroke-width:0.26568002;stroke-linecap:round;stroke-linejoin:round;stroke-miterlimit:10;stroke-dasharray:none;stroke-opacity:1"
   d="M 256.96,39.157 L 270.04,39.157" /><path
   id="path16655"
   style="fill:#000000;fill-opacity:1;fill-rule:evenodd;stroke:none"
   d="M 273.76,39.157 L 268.96,36.757 L 269.08,37.357 L 269.32,37.957 L 269.44,38.557 L 269.44,39.8773 L 269.32,40.4773 L 269.08,41.0773 L 268.96,41.557 L 268.96,41.557 L 273.76,39.157 L 273.76,39.157" /><path
   id="path16657"
   style="fill:#808080;fill-opacity:1;fill-rule:evenodd;stroke:none"
   d="M 267.64,72.757 L 267.64,72.9973 L 267.52,73.357 L 267.4,73.5973 L 267.28,73.957 L 267.16,74.1973 L 267.04,74.4371 L 266.8,74.6773 L 266.68,74.9172 L 266.32,75.0371 L 266.08,75.2773 L 265.84,75.3973 L 265.6,75.5172 L 265.24,75.6371 L 265,75.6371 L 264.64,75.757 L 263.92,75.757 L 263.56,75.6371 L 263.2,75.6371 L 262.96,75.5172 L 262.6,75.3973 L 262.36,75.2773 L 262.12,75.0371 L 261.88,74.9172 L 261.64,74.6773 L 261.52,74.4371 L 261.28,74.1973 L 261.16,73.957 L 261.04,73.5973 L 260.92,73.357 L 260.92,72.157 L 261.04,71.9172 L 261.16,71.557 L 261.28,71.3172 L 261.52,71.0773 L 261.64,70.8371 L 261.88,70.5973 L 262.12,70.4773 L 262.36,70.2371 L 262.6,70.1172 L 262.96,69.9973 L 263.2,69.8773 L 263.56,69.8773 L 263.92,69.757 L 264.64,69.757 L 265,69.8773 L 265.24,69.8773 L 265.6,69.9973 L 265.84,70.1172 L 266.08,70.2371 L 266.32,70.4773 L 266.68,70.5973 L 266.8,70.8371 L 267.04,71.0773 L 267.16,71.3172 L 267.28,71.557 L 267.4,71.9172 L 267.52,72.157 L 267.64,72.5172 L 267.64,72.757" /><path
   id="path16659"
   style="fill:none;stroke:#000000;stroke-width:0.26568002;stroke-linecap:round;stroke-linejoin:round;stroke-miterlimit:10;stroke-dasharray:none;stroke-opacity:1"
   d="M 267.64,72.757 L 267.64,72.9973 L 267.52,73.357 L 267.4,73.5973 L 267.28,73.957 L 267.16,74.1973 L 267.04,74.4371 L 266.8,74.6773 L 266.68,74.9172 L 266.32,75.0371 L 266.08,75.2773 L 265.84,75.3973 L 265.6,75.5172 L 265.24,75.6371 L 265,75.6371 L 264.64,75.757 L 263.92,75.757 L 263.56,75.6371 L 263.2,75.6371 L 262.96,75.5172 L 262.6,75.3973 L 262.36,75.2773 L 262.12,75.0371 L 261.88,74.9172 L 261.64,74.6773 L 261.52,74.4371 L 261.28,74.1973 L 261.16,73.957 L 261.04,73.5973 L 260.92,73.357 L 260.92,72.157 L 261.04,71.9172 L 261.16,71.557 L 261.28,71.3172 L 261.52,71.0773 L 261.64,70.8371 L 261.88,70.5973 L 262.12,70.4773 L 262.36,70.2371 L 262.6,70.1172 L 262.96,69.9973 L 263.2,69.8773 L 263.56,69.8773 L 263.92,69.757 L 264.64,69.757 L 265,69.8773 L 265.24,69.8773 L 265.6,69.9973 L 265.84,70.1172 L 266.08,70.2371 L 266.32,70.4773 L 266.68,70.5973 L 266.8,70.8371 L 267.04,71.0773 L 267.16,71.3172 L 267.28,71.557 L 267.4,71.9172 L 267.52,72.157 L 267.64,72.5172 L 267.64,72.757" /><path
   id="path16661"
   style="fill:#ffffff;fill-opacity:1;fill-rule:evenodd;stroke:none"
   d="M 267.64,89.557 L 267.64,89.7973 L 267.52,90.157 L 267.4,90.3973 L 267.28,90.757 L 267.16,90.9973 L 267.04,91.2371 L 266.8,91.4773 L 266.68,91.7172 L 266.32,91.8371 L 266.08,92.0773 L 265.84,92.1973 L 265.6,92.3172 L 265.24,92.4371 L 265,92.4371 L 264.64,92.557 L 263.92,92.557 L 263.56,92.4371 L 263.2,92.4371 L 262.96,92.3172 L 262.6,92.1973 L 262.36,92.0773 L 262.12,91.8371 L 261.88,91.7172 L 261.64,91.4773 L 261.52,91.2371 L 261.28,90.9973 L 261.16,90.757 L 261.04,90.3973 L 260.92,90.157 L 260.92,88.957 L 261.04,88.7172 L 261.16,88.357 L 261.28,88.1172 L 261.52,87.8773 L 261.64,87.6371 L 261.88,87.3973 L 262.12,87.2773 L 262.36,87.0371 L 262.6,86.9172 L 262.96,86.7973 L 263.2,86.6773 L 263.56,86.6773 L 263.92,86.557 L 264.64,86.557 L 265,86.6773 L 265.24,86.6773 L 265.6,86.7973 L 265.84,86.9172 L 266.08,87.0371 L 266.32,87.2773 L 266.68,87.3973 L 266.8,87.6371 L 267.04,87.8773 L 267.16,88.1172 L 267.28,88.357 L 267.4,88.7172 L 267.52,88.957 L 267.64,89.3172 L 267.64,89.557" /><path
   id="path16663"
   style="fill:none;stroke:#000000;stroke-width:0.26568002;stroke-linecap:round;stroke-linejoin:round;stroke-miterlimit:10;stroke-dasharray:none;stroke-opacity:1"
   d="M 267.64,89.557 L 267.64,89.7973 L 267.52,90.157 L 267.4,90.3973 L 267.28,90.757 L 267.16,90.9973 L 267.04,91.2371 L 266.8,91.4773 L 266.68,91.7172 L 266.32,91.8371 L 266.08,92.0773 L 265.84,92.1973 L 265.6,92.3172 L 265.24,92.4371 L 265,92.4371 L 264.64,92.557 L 263.92,92.557 L 263.56,92.4371 L 263.2,92.4371 L 262.96,92.3172 L 262.6,92.1973 L 262.36,92.0773 L 262.12,91.8371 L 261.88,91.7172 L 261.64,91.4773 L 261.52,91.2371 L 261.28,90.9973 L 261.16,90.757 L 261.04,90.3973 L 260.92,90.157 L 260.92,88.957 L 261.04,88.7172 L 261.16,88.357 L 261.28,88.1172 L 261.52,87.8773 L 261.64,87.6371 L 261.88,87.3973 L 262.12,87.2773 L 262.36,87.0371 L 262.6,86.9172 L 262.96,86.7973 L 263.2,86.6773 L 263.56,86.6773 L 263.92,86.557 L 264.64,86.557 L 265,86.6773 L 265.24,86.6773 L 265.6,86.7973 L 265.84,86.9172 L 266.08,87.0371 L 266.32,87.2773 L 266.68,87.3973 L 266.8,87.6371 L 267.04,87.8773 L 267.16,88.1172 L 267.28,88.357 L 267.4,88.7172 L 267.52,88.957 L 267.64,89.3172 L 267.64,89.557" /><path
   id="path16665"
   style="fill:none;stroke:#000000;stroke-width:0.26568002;stroke-linecap:round;stroke-linejoin:round;stroke-miterlimit:10;stroke-dasharray:none;stroke-opacity:1"
   d="M 272.92,23.557 L 256.12,23.557" /><g
   id="g16853"
   transform="translate(74.419649,0.1367852)"><text
   id="text16855"
   transform="matrix(1,0,0,-1,3.88008,137.797)"><tspan
     id="tspan16857"
     sodipodi:role="line"
     style="font-size:7.10340023px;font-variant:normal;font-weight:normal;writing-mode:lr-tb;fill:#000000;fill-opacity:1;fill-rule:nonzero;stroke:none;font-family:Helvetica;-inkscape-font-specification:Helvetica"
     x="0"
     y="0">serial interface</tspan></text>



<g
   transform="translate(1.0138124,-49.676796)"
   id="g16859"><text
   id="text16861"
   transform="matrix(1,0,0,-1,3.88008,137.797)"><tspan
     id="tspan16863"
     sodipodi:role="line"
     style="font-size:7.10340023px;font-variant:normal;font-weight:normal;writing-mode:lr-tb;fill:#000000;fill-opacity:1;fill-rule:nonzero;stroke:none;font-family:Helvetica;-inkscape-font-specification:Helvetica"
     x="0"
     y="0">application</tspan></text>



</g><g
   transform="translate(40.552487,-154.09945)"
   id="g16865"><text
   id="text16867"
   transform="scale(1,-1)"
   x="-6.5959787"
   y="-191.1911"><tspan
     id="tspan16869"
     sodipodi:role="line"
     style="font-size:7.10340023px;font-variant:normal;font-weight:normal;writing-mode:lr-tb;fill:#000000;fill-opacity:1;fill-rule:nonzero;stroke:none;font-family:Helvetica;-inkscape-font-specification:Helvetica"
     x="-6.5959787"
     y="-191.1911">ad converter</tspan></text>



</g></g><text
   xml:space="preserve"
   style="font-size:20px;font-style:normal;font-weight:normal;text-align:center;text-anchor:middle;fill:#000000;fill-opacity:1;stroke:none;stroke-width:1px;stroke-linecap:butt;stroke-linejoin:miter;stroke-opacity:1;font-family:Bitstream Vera Sans"
   x="109.40723"
   y="85.765427"
   id="text16893"
   transform="matrix(0.8,0,0,-0.8,0,146)"><tspan
     sodipodi:role="line"
     id="tspan16895" /></text>



<path
   id="path16901"
   style="fill:none;stroke:#000000;stroke-width:0.26568002;stroke-linecap:round;stroke-linejoin:round;stroke-miterlimit:10;stroke-dasharray:none;stroke-opacity:1"
   d="M 79.234204,52.709086 L 235.47441,52.709086 L 235.83441,52.829086 L 236.07441,52.949086 L 236.31441,53.189086 L 236.55441,53.429086 L 236.67441,53.789086 L 236.79441,54.029086 L 236.79441,84.869086 L 236.67441,85.229086 L 236.55441,85.469086 L 236.31441,85.829086 L 236.07441,85.949086 L 235.83441,86.189086 L 78.634204,86.189086 L 78.274504,85.949086 L 78.034204,85.829086 L 77.794404,85.469086 L 77.794404,85.229086 L 77.554604,84.869086 L 77.554604,54.029086 L 77.794404,53.789086 L 77.794404,53.429086 L 78.034204,53.189086 L 78.274504,52.949086 L 78.634204,52.829086 L 78.874504,52.709086 L 79.234204,52.709086 L 79.234204,52.709086" /><path
   id="path16627"
   style="fill:#ffffff;fill-opacity:1;fill-rule:evenodd;stroke:none"
   d="M 80.9199,69.3973 L 80.9199,69.757 L 80.8,69.9973 L 80.8,70.2371 L 80.6801,70.5973 L 80.4398,70.8371 L 80.3199,71.0773 L 80.0801,71.3172 L 79.9602,71.557 L 79.7199,71.6773 L 79.4801,71.9172 L 79.1199,72.0371 L 78.8801,72.2773 L 78.5199,72.2773 L 78.2801,72.3973 L 76.8398,72.3973 L 76.6,72.2773 L 76.2398,72.2773 L 76,72.0371 L 75.7602,71.9172 L 75.4,71.6773 L 75.1602,71.557 L 75.0398,71.3172 L 74.8,71.0773 L 74.6801,70.8371 L 74.4398,70.5973 L 74.3199,70.2371 L 74.3199,69.9973 L 74.2,69.757 L 74.2,69.157 L 74.3199,68.7973 L 74.3199,68.557 L 74.4398,68.1973 L 74.6801,67.957 L 74.8,67.7172 L 75.0398,67.4773 L 75.1602,67.2371 L 75.4,67.1172 L 75.7602,66.8773 L 76,66.757 L 76.2398,66.6371 L 76.6,66.5172 L 76.8398,66.5172 L 77.2,66.3973 L 77.9199,66.3973 L 78.2801,66.5172 L 78.5199,66.5172 L 78.8801,66.6371 L 79.1199,66.757 L 79.4801,66.8773 L 79.7199,67.1172 L 79.9602,67.2371 L 80.0801,67.4773 L 80.3199,67.7172 L 80.4398,67.957 L 80.6801,68.1973 L 80.8,68.557 L 80.8,68.7973 L 80.9199,69.157 L 80.9199,69.3973" /><path
   id="path16427"
   style="fill:#808080;fill-opacity:1;fill-rule:evenodd;stroke:none"
   d="M 106,52.5973 L 106,53.4371 L 105.76,53.7973 L 105.64,54.0371 L 105.52,54.2773 L 105.28,54.5172 L 105.04,54.757 L 104.92,54.8773 L 104.68,55.1172 L 104.32,55.2371 L 103.96,55.4773 L 103.72,55.5973 L 101.68,55.5973 L 101.44,55.4773 L 101.2,55.2371 L 100.84,55.1172 L 100.6,54.8773 L 100.36,54.757 L 100.12,54.5172 L 99.8801,54.2773 L 99.7602,54.0371 L 99.6398,53.7973 L 99.5199,53.4371 L 99.4,53.1973 L 99.4,51.9973 L 99.5199,51.757 L 99.6398,51.3973 L 99.7602,51.157 L 99.8801,50.9172 L 100.12,50.7973 L 100.36,50.4371 L 100.6,50.3172 L 100.84,50.0773 L 101.2,49.957 L 101.44,49.8371 L 101.68,49.7172 L 102.04,49.7172 L 102.4,49.5973 L 103,49.5973 L 103.36,49.7172 L 103.72,49.7172 L 103.96,49.8371 L 104.32,49.957 L 104.68,50.0773 L 104.92,50.3172 L 105.04,50.4371 L 105.28,50.7973 L 105.52,50.9172 L 105.64,51.157 L 105.76,51.3973 L 106,51.757 L 106,52.5973" /><path
   id="path16435"
   style="fill:#ffffff;fill-opacity:1;fill-rule:evenodd;stroke:none"
   d="M 160.12,52.5973 L 160.12,53.1973 L 160,53.4371 L 159.88,53.7973 L 159.76,54.0371 L 159.52,54.2773 L 159.4,54.5172 L 159.16,54.757 L 158.92,54.8773 L 158.68,55.1172 L 158.44,55.2371 L 158.08,55.4773 L 157.72,55.5973 L 155.8,55.5973 L 155.44,55.4773 L 155.2,55.2371 L 154.96,55.1172 L 154.72,54.8773 L 154.36,54.757 L 154.24,54.5172 L 154,54.2773 L 153.88,54.0371 L 153.64,53.7973 L 153.64,53.4371 L 153.52,53.1973 L 153.4,52.957 L 153.4,52.357 L 153.52,51.9973 L 153.64,51.757 L 153.64,51.3973 L 153.88,51.157 L 154,50.9172 L 154.24,50.7973 L 154.36,50.4371 L 154.72,50.3172 L 154.96,50.0773 L 155.2,49.957 L 155.44,49.8371 L 155.8,49.7172 L 156.04,49.7172 L 156.4,49.5973 L 157.12,49.5973 L 157.48,49.7172 L 157.72,49.7172 L 158.08,49.8371 L 158.44,49.957 L 158.68,50.0773 L 158.92,50.3172 L 159.16,50.4371 L 159.4,50.7973 L 159.52,50.9172 L 159.76,51.157 L 159.88,51.3973 L 160,51.757 L 160.12,51.9973 L 160.12,52.5973" /><path
   id="path16589"
   style="fill:#808080;fill-opacity:1;fill-rule:evenodd;stroke:none"
   d="M 160.48,86.1973 L 160.48,87.0371 L 160.36,87.2773 L 160.12,87.6371 L 160,87.8773 L 159.76,88.1172 L 159.52,88.357 L 159.4,88.4773 L 159.04,88.7172 L 158.8,88.8371 L 158.44,88.957 L 158.2,89.0773 L 157.84,89.1973 L 156.52,89.1973 L 156.16,89.0773 L 155.92,88.957 L 155.68,88.8371 L 155.32,88.7172 L 155.08,88.4773 L 154.84,88.357 L 154.72,88.1172 L 154.36,87.8773 L 154.24,87.6371 L 154.12,87.2773 L 154,87.0371 L 154,86.7973 L 153.88,86.557 L 153.88,85.957 L 154,85.5973 L 154,85.2371 L 154.12,84.9973 L 154.24,84.757 L 154.36,84.5172 L 154.72,84.2773 L 154.84,84.0371 L 155.08,83.9172 L 155.32,83.6773 L 155.68,83.557 L 155.92,83.4371 L 156.16,83.3172 L 156.52,83.1973 L 157.84,83.1973 L 158.2,83.3172 L 158.44,83.4371 L 158.8,83.557 L 159.04,83.6773 L 159.4,83.9172 L 159.52,84.0371 L 159.76,84.2773 L 160,84.5172 L 160.12,84.757 L 160.36,84.9973 L 160.48,85.2371 L 160.48,86.1973" /><path
   id="path16559"
   style="fill:#ffffff;fill-opacity:1;fill-rule:evenodd;stroke:none"
   d="M 211.24,86.1973 L 211.24,86.557 L 211.12,86.7973 L 211.12,87.0371 L 211,87.2773 L 210.88,87.6371 L 210.76,87.8773 L 210.52,88.1172 L 210.28,88.357 L 210.04,88.4773 L 209.8,88.7172 L 209.44,88.8371 L 209.2,88.957 L 208.96,89.0773 L 208.6,89.1973 L 207.28,89.1973 L 206.92,89.0773 L 206.68,88.957 L 206.32,88.8371 L 206.08,88.7172 L 205.72,88.4773 L 205.6,88.357 L 205.36,88.1172 L 205.12,87.8773 L 205,87.6371 L 204.88,87.2773 L 204.76,87.0371 L 204.64,86.7973 L 204.64,85.5973 L 204.76,85.2371 L 204.88,84.9973 L 205,84.757 L 205.12,84.5172 L 205.36,84.2773 L 205.6,84.0371 L 205.72,83.9172 L 206.08,83.6773 L 206.32,83.557 L 206.68,83.4371 L 206.92,83.3172 L 207.28,83.1973 L 208.6,83.1973 L 208.96,83.3172 L 209.2,83.4371 L 209.44,83.557 L 209.8,83.6773 L 210.04,83.9172 L 210.28,84.0371 L 210.52,84.2773 L 210.76,84.5172 L 210.88,84.757 L 211,84.9973 L 211.12,85.2371 L 211.12,85.5973 L 211.24,85.957 L 211.24,86.1973" /><path
   id="path16561"
   style="fill:none;stroke:#000000;stroke-width:0.26568002;stroke-linecap:round;stroke-linejoin:round;stroke-miterlimit:10;stroke-dasharray:none;stroke-opacity:1"
   d="M 211.24,86.1973 L 211.24,86.557 L 211.12,86.7973 L 211.12,87.0371 L 211,87.2773 L 210.88,87.6371 L 210.76,87.8773 L 210.52,88.1172 L 210.28,88.357 L 210.04,88.4773 L 209.8,88.7172 L 209.44,88.8371 L 209.2,88.957 L 208.96,89.0773 L 208.6,89.1973 L 207.28,89.1973 L 206.92,89.0773 L 206.68,88.957 L 206.32,88.8371 L 206.08,88.7172 L 205.72,88.4773 L 205.6,88.357 L 205.36,88.1172 L 205.12,87.8773 L 205,87.6371 L 204.88,87.2773 L 204.76,87.0371 L 204.64,86.7973 L 204.64,85.5973 L 204.76,85.2371 L 204.88,84.9973 L 205,84.757 L 205.12,84.5172 L 205.36,84.2773 L 205.6,84.0371 L 205.72,83.9172 L 206.08,83.6773 L 206.32,83.557 L 206.68,83.4371 L 206.92,83.3172 L 207.28,83.1973 L 208.6,83.1973 L 208.96,83.3172 L 209.2,83.4371 L 209.44,83.557 L 209.8,83.6773 L 210.04,83.9172 L 210.28,84.0371 L 210.52,84.2773 L 210.76,84.5172 L 210.88,84.757 L 211,84.9973 L 211.12,85.2371 L 211.12,85.5973 L 211.24,85.957 L 211.24,86.1973" /><text
   xml:space="preserve"
   style="font-size:15px;font-style:normal;font-weight:normal;text-align:center;text-anchor:middle;fill:#000000;fill-opacity:1;stroke:none;stroke-width:1px;stroke-linecap:butt;stroke-linejoin:miter;stroke-opacity:1;font-family:Bitstream Vera Sans"
   x="357.24194"
   y="35.242245"
   id="text16903"
   transform="matrix(0.8,0,0,-0.8,0,146)"><tspan
     sodipodi:role="line"
     id="tspan16905"
     x="357.24194"
     y="35.242245" /></text>



<g
   id="g16907"
   transform="translate(74.464816,3.6760733)"><text
   id="text16909"
   transform="matrix(1,0,0,-1,204.16,117.637)"><tspan
     id="tspan16911"
     sodipodi:role="line"
     style="font-size:7.10340023px;font-variant:normal;font-weight:normal;writing-mode:lr-tb;fill:#000000;fill-opacity:1;fill-rule:nonzero;stroke:none;font-family:Helvetica;-inkscape-font-specification:Helvetica"
     x="0"
     y="0">activity</tspan></text>



</g><g
   id="g16959"
   transform="translate(74.464816,-12.812016)"><text
   id="text16961"
   transform="matrix(1,0,0,-1,204.16,117.637)"><tspan
     id="tspan16963"
     sodipodi:role="line"
     style="font-size:7.10340023px;font-variant:normal;font-weight:normal;writing-mode:lr-tb;fill:#000000;fill-opacity:1;fill-rule:nonzero;stroke:none;font-family:Helvetica;-inkscape-font-specification:Helvetica"
     x="0"
     y="0">component</tspan></text>



</g><g
   id="g16965"
   transform="translate(74.464816,-30.016979)"><text
   id="text16967"
   transform="matrix(1,0,0,-1,204.16,117.637)"><tspan
     id="tspan16969"
     sodipodi:role="line"
     style="font-size:7.10340023px;font-variant:normal;font-weight:normal;writing-mode:lr-tb;fill:#000000;fill-opacity:1;fill-rule:nonzero;stroke:none;font-family:Helvetica;-inkscape-font-specification:Helvetica"
     x="0"
     y="0">input</tspan></text>



</g><g
   id="g16971"
   transform="translate(74.464816,-46.982983)"><text
   id="text16973"
   transform="matrix(1,0,0,-1,204.16,117.637)"><tspan
     id="tspan16975"
     sodipodi:role="line"
     style="font-size:7.10340023px;font-variant:normal;font-weight:normal;writing-mode:lr-tb;fill:#000000;fill-opacity:1;fill-rule:nonzero;stroke:none;font-family:Helvetica;-inkscape-font-specification:Helvetica"
     x="0"
     y="0">output</tspan></text>



</g><g
   id="g16977"
   transform="translate(74.464816,-64.665862)"><text
   id="text16979"
   transform="matrix(1,0,0,-1,204.16,117.637)"><tspan
     id="tspan16981"
     sodipodi:role="line"
     style="font-size:7.10340023px;font-variant:normal;font-weight:normal;writing-mode:lr-tb;fill:#000000;fill-opacity:1;fill-rule:nonzero;stroke:none;font-family:Helvetica;-inkscape-font-specification:Helvetica"
     x="0"
     y="0">interrupt</tspan></text>



</g><g
   id="g16983"
   transform="translate(74.464816,-81.153952)"><text
   id="text16985"
   transform="matrix(1,0,0,-1,204.16,117.637)"><tspan
     id="tspan16987"
     sodipodi:role="line"
     style="font-size:7.10340023px;font-variant:normal;font-weight:normal;writing-mode:lr-tb;fill:#000000;fill-opacity:1;fill-rule:nonzero;stroke:none;font-family:Helvetica;-inkscape-font-specification:Helvetica"
     x="0"
     y="0">event chanel</tspan></text>



</g><g
   id="g16989"
   transform="translate(74.464816,-96.208294)"><text
   id="text16991"
   transform="matrix(1,0,0,-1,204.16,117.637)"><tspan
     id="tspan16993"
     sodipodi:role="line"
     style="font-size:7.10340023px;font-variant:normal;font-weight:normal;writing-mode:lr-tb;fill:#000000;fill-opacity:1;fill-rule:nonzero;stroke:none;font-family:Helvetica;-inkscape-font-specification:Helvetica"
     x="0"
     y="0">connection</tspan></text>



</g><g
   id="g16995"
   transform="translate(74.464816,-110.06785)"><text
   id="text16997"
   transform="matrix(1,0,0,-1,204.16,117.637)"><tspan
     id="tspan16999"
     sodipodi:role="line"
     style="font-size:7.10340023px;font-variant:normal;font-weight:normal;writing-mode:lr-tb;fill:#000000;fill-opacity:1;fill-rule:nonzero;stroke:none;font-family:Helvetica;-inkscape-font-specification:Helvetica"
     x="0"
     y="0">interrupt routine</tspan></text>



</g><path
   id="path16591"
   style="fill:none;stroke:#000000;stroke-width:0.26568002;stroke-linecap:round;stroke-linejoin:round;stroke-miterlimit:10;stroke-dasharray:none;stroke-opacity:1"
   d="M 160.48,86.1973 L 160.48,87.0371 L 160.36,87.2773 L 160.12,87.6371 L 160,87.8773 L 159.76,88.1172 L 159.52,88.357 L 159.4,88.4773 L 159.04,88.7172 L 158.8,88.8371 L 158.44,88.957 L 158.2,89.0773 L 157.84,89.1973 L 156.52,89.1973 L 156.16,89.0773 L 155.92,88.957 L 155.68,88.8371 L 155.32,88.7172 L 155.08,88.4773 L 154.84,88.357 L 154.72,88.1172 L 154.36,87.8773 L 154.24,87.6371 L 154.12,87.2773 L 154,87.0371 L 154,86.7973 L 153.88,86.557 L 153.88,85.957 L 154,85.5973 L 154,85.2371 L 154.12,84.9973 L 154.24,84.757 L 154.36,84.5172 L 154.72,84.2773 L 154.84,84.0371 L 155.08,83.9172 L 155.32,83.6773 L 155.68,83.557 L 155.92,83.4371 L 156.16,83.3172 L 156.52,83.1973 L 157.84,83.1973 L 158.2,83.3172 L 158.44,83.4371 L 158.8,83.557 L 159.04,83.6773 L 159.4,83.9172 L 159.52,84.0371 L 159.76,84.2773 L 160,84.5172 L 160.12,84.757 L 160.36,84.9973 L 160.48,85.2371 L 160.48,86.1973" /><path
   id="path16437"
   style="fill:none;stroke:#000000;stroke-width:0.26568002;stroke-linecap:round;stroke-linejoin:round;stroke-miterlimit:10;stroke-dasharray:none;stroke-opacity:1"
   d="M 160.12,52.5973 L 160.12,53.1973 L 160,53.4371 L 159.88,53.7973 L 159.76,54.0371 L 159.52,54.2773 L 159.4,54.5172 L 159.16,54.757 L 158.92,54.8773 L 158.68,55.1172 L 158.44,55.2371 L 158.08,55.4773 L 157.72,55.5973 L 155.8,55.5973 L 155.44,55.4773 L 155.2,55.2371 L 154.96,55.1172 L 154.72,54.8773 L 154.36,54.757 L 154.24,54.5172 L 154,54.2773 L 153.88,54.0371 L 153.64,53.7973 L 153.64,53.4371 L 153.52,53.1973 L 153.4,52.957 L 153.4,52.357 L 153.52,51.9973 L 153.64,51.757 L 153.64,51.3973 L 153.88,51.157 L 154,50.9172 L 154.24,50.7973 L 154.36,50.4371 L 154.72,50.3172 L 154.96,50.0773 L 155.2,49.957 L 155.44,49.8371 L 155.8,49.7172 L 156.04,49.7172 L 156.4,49.5973 L 157.12,49.5973 L 157.48,49.7172 L 157.72,49.7172 L 158.08,49.8371 L 158.44,49.957 L 158.68,50.0773 L 158.92,50.3172 L 159.16,50.4371 L 159.4,50.7973 L 159.52,50.9172 L 159.76,51.157 L 159.88,51.3973 L 160,51.757 L 160.12,51.9973 L 160.12,52.5973" /><path
   id="path16429"
   style="fill:none;stroke:#000000;stroke-width:0.26568002;stroke-linecap:round;stroke-linejoin:round;stroke-miterlimit:10;stroke-dasharray:none;stroke-opacity:1"
   d="M 106,52.5973 L 106,53.4371 L 105.76,53.7973 L 105.64,54.0371 L 105.52,54.2773 L 105.28,54.5172 L 105.04,54.757 L 104.92,54.8773 L 104.68,55.1172 L 104.32,55.2371 L 103.96,55.4773 L 103.72,55.5973 L 101.68,55.5973 L 101.44,55.4773 L 101.2,55.2371 L 100.84,55.1172 L 100.6,54.8773 L 100.36,54.757 L 100.12,54.5172 L 99.8801,54.2773 L 99.7602,54.0371 L 99.6398,53.7973 L 99.5199,53.4371 L 99.4,53.1973 L 99.4,51.9973 L 99.5199,51.757 L 99.6398,51.3973 L 99.7602,51.157 L 99.8801,50.9172 L 100.12,50.7973 L 100.36,50.4371 L 100.6,50.3172 L 100.84,50.0773 L 101.2,49.957 L 101.44,49.8371 L 101.68,49.7172 L 102.04,49.7172 L 102.4,49.5973 L 103,49.5973 L 103.36,49.7172 L 103.72,49.7172 L 103.96,49.8371 L 104.32,49.957 L 104.68,50.0773 L 104.92,50.3172 L 105.04,50.4371 L 105.28,50.7973 L 105.52,50.9172 L 105.64,51.157 L 105.76,51.3973 L 106,51.757 L 106,52.5973" /><path
   id="path16629"
   style="fill:none;stroke:#000000;stroke-width:0.26568002;stroke-linecap:round;stroke-linejoin:round;stroke-miterlimit:10;stroke-dasharray:none;stroke-opacity:1"
   d="M 80.9199,69.3973 L 80.9199,69.757 L 80.8,69.9973 L 80.8,70.2371 L 80.6801,70.5973 L 80.4398,70.8371 L 80.3199,71.0773 L 80.0801,71.3172 L 79.9602,71.557 L 79.7199,71.6773 L 79.4801,71.9172 L 79.1199,72.0371 L 78.8801,72.2773 L 78.5199,72.2773 L 78.2801,72.3973 L 76.8398,72.3973 L 76.6,72.2773 L 76.2398,72.2773 L 76,72.0371 L 75.7602,71.9172 L 75.4,71.6773 L 75.1602,71.557 L 75.0398,71.3172 L 74.8,71.0773 L 74.6801,70.8371 L 74.4398,70.5973 L 74.3199,70.2371 L 74.3199,69.9973 L 74.2,69.757 L 74.2,69.157 L 74.3199,68.7973 L 74.3199,68.557 L 74.4398,68.1973 L 74.6801,67.957 L 74.8,67.7172 L 75.0398,67.4773 L 75.1602,67.2371 L 75.4,67.1172 L 75.7602,66.8773 L 76,66.757 L 76.2398,66.6371 L 76.6,66.5172 L 76.8398,66.5172 L 77.2,66.3973 L 77.9199,66.3973 L 78.2801,66.5172 L 78.5199,66.5172 L 78.8801,66.6371 L 79.1199,66.757 L 79.4801,66.8773 L 79.7199,67.1172 L 79.9602,67.2371 L 80.0801,67.4773 L 80.3199,67.7172 L 80.4398,67.957 L 80.6801,68.1973 L 80.8,68.557 L 80.8,68.7973 L 80.9199,69.157 L 80.9199,69.3973" /></g></svg>