<?xml version="1.0" encoding="UTF-8" standalone="no"?>
<!-- Created with Inkscape (http://www.inkscape.org/) -->

<svg
   xmlns:dc="http://purl.org/dc/elements/1.1/"
   xmlns:cc="http://creativecommons.org/ns#"
   xmlns:rdf="http://www.w3.org/1999/02/22-rdf-syntax-ns#"
   xmlns:svg="http://www.w3.org/2000/svg"
   xmlns="http://www.w3.org/2000/svg"
   xmlns:sodipodi="http://sodipodi.sourceforge.net/DTD/sodipodi-0.dtd"
   xmlns:inkscape="http://www.inkscape.org/namespaces/inkscape"
   id="svg2"
   version="1.1"
   inkscape:version="0.47 r22583"
   width="743.75"
   height="1052.5"
   xml:space="preserve"
   sodipodi:docname="filesForMake.pdf"><metadata
     id="metadata8"><rdf:RDF><cc:Work
         rdf:about=""><dc:format>image/svg+xml</dc:format><dc:type
           rdf:resource="http://purl.org/dc/dcmitype/StillImage" /><dc:title></dc:title></cc:Work></rdf:RDF></metadata><defs
     id="defs6"><inkscape:perspective
       sodipodi:type="inkscape:persp3d"
       inkscape:vp_x="0 : 0.5 : 1"
       inkscape:vp_y="0 : 1000 : 0"
       inkscape:vp_z="1 : 0.5 : 1"
       inkscape:persp3d-origin="0.5 : 0.33333333 : 1"
       id="perspective10" /><clipPath
       clipPathUnits="userSpaceOnUse"
       id="clipPath18"><path
         d="M 0,0 595,0 595,842 0,842 0,0 z"
         clip-rule="evenodd"
         id="path20" /></clipPath></defs><sodipodi:namedview
     pagecolor="#ffffff"
     bordercolor="#666666"
     borderopacity="1"
     objecttolerance="10"
     gridtolerance="10"
     guidetolerance="10"
     inkscape:pageopacity="0"
     inkscape:pageshadow="2"
     inkscape:window-width="1024"
     inkscape:window-height="743"
     id="namedview4"
     showgrid="false"
     inkscape:zoom="0.22422803"
     inkscape:cx="371.875"
     inkscape:cy="526.25"
     inkscape:window-x="0"
     inkscape:window-y="1"
     inkscape:window-maximized="1"
     inkscape:current-layer="g12" /><g
     id="g12"
     inkscape:groupmode="layer"
     inkscape:label="filesForMake"
     transform="matrix(1.25,0,0,-1.25,0,1052.5)"><g
       id="g14"><g
         id="g16"
         clip-path="url(#clipPath18)"><g
           id="g22"><path
             d="m 177.4,471.8 -147.4,0 0,337.1 294.7,0 0,-337.1 -147.3,0 z"
             style="fill:none;stroke:none"
             id="path24" /></g><g
           id="g26"><text
             transform="matrix(1,0,0,-1,38.5,789.9)"
             id="text28"><tspan
               style="fill:#198a8a;fill-opacity:1;fill-rule:nonzero;stroke:none;font-family:Courier New;font-variant:normal;font-weight:normal;font-size:12;writing-mode:lr;-inkscape-font-specification:Courier"
               x="0 7.5 15 22.5 30 37.5 45 52.5 60 67.5 75 82.5 90 97.5 105 112.5 120"
               y="0"
               sodipodi:role="line"
               id="tspan30">|-- applications/</tspan></text>
</g><g
           id="g32"><text
             transform="matrix(1,0,0,-1,38.5,775.6)"
             id="text34"><tspan
               style="fill:#198a8a;fill-opacity:1;fill-rule:nonzero;stroke:none;font-family:Courier New;font-variant:normal;font-weight:normal;font-size:12;writing-mode:lr;-inkscape-font-specification:Courier"
               x="0 7.5 30 37.5 45 52.5 60 67.5 75 82.5 90 97.5 105 112.5 120 127.5 135"
               y="0"
               sodipodi:role="line"
               id="tspan36">| |-- helloworld/</tspan></text>
</g><g
           id="g38"><text
             transform="matrix(1,0,0,-1,38.5,761.4)"
             id="text40"><tspan
               style="fill:#198a8a;fill-opacity:1;fill-rule:nonzero;stroke:none;font-family:Courier New;font-variant:normal;font-weight:normal;font-size:12;writing-mode:lr;-inkscape-font-specification:Courier"
               x="0"
               y="0"
               id="tspan42">|</tspan><tspan
               style="fill:#198a8a;fill-opacity:1;fill-rule:nonzero;stroke:none;font-family:Courier New;font-variant:normal;font-weight:normal;font-size:12;writing-mode:lr;-inkscape-font-specification:Courier"
               x="7.5"
               y="-0.1"
               id="tspan44"> </tspan><tspan
               style="fill:#198a8a;fill-opacity:1;fill-rule:nonzero;stroke:none;font-family:Courier New;font-variant:normal;font-weight:normal;font-size:12;writing-mode:lr;-inkscape-font-specification:Courier"
               x="30"
               y="0"
               id="tspan46">|</tspan><tspan
               style="fill:#198a8a;fill-opacity:1;fill-rule:nonzero;stroke:none;font-family:Courier New;font-variant:normal;font-weight:normal;font-size:12;writing-mode:lr;-inkscape-font-specification:Courier"
               x="37.5"
               y="-0.1"
               id="tspan48"> </tspan><tspan
               style="fill:#198a8a;fill-opacity:1;fill-rule:nonzero;stroke:none;font-family:Courier New;font-variant:normal;font-weight:normal;font-size:12;writing-mode:lr;-inkscape-font-specification:Courier"
               x="60"
               y="0"
               id="tspan50">|</tspan><tspan
               style="fill:#198a8a;fill-opacity:1;fill-rule:nonzero;stroke:none;font-family:Courier New;font-variant:normal;font-weight:normal;font-size:12;writing-mode:lr;-inkscape-font-specification:Courier"
               x="67.5"
               y="-0.1"
               id="tspan52">-</tspan><tspan
               style="fill:#198a8a;fill-opacity:1;fill-rule:nonzero;stroke:none;font-family:Courier New;font-variant:normal;font-weight:normal;font-size:12;writing-mode:lr;-inkscape-font-specification:Courier"
               x="75"
               y="0"
               id="tspan54">-</tspan><tspan
               style="fill:#198a8a;fill-opacity:1;fill-rule:nonzero;stroke:none;font-family:Courier New;font-variant:normal;font-weight:normal;font-size:12;writing-mode:lr;-inkscape-font-specification:Courier"
               x="82.5"
               y="-0.1"
               id="tspan56"> </tspan><tspan
               style="fill:#198a8a;fill-opacity:1;fill-rule:nonzero;stroke:none;font-family:Courier New;font-variant:normal;font-weight:normal;font-size:12;writing-mode:lr;-inkscape-font-specification:Courier"
               x="90"
               y="0"
               id="tspan58">m</tspan><tspan
               style="fill:#198a8a;fill-opacity:1;fill-rule:nonzero;stroke:none;font-family:Courier New;font-variant:normal;font-weight:normal;font-size:12;writing-mode:lr;-inkscape-font-specification:Courier"
               x="97.5"
               y="-0.1"
               id="tspan60">a</tspan><tspan
               style="fill:#198a8a;fill-opacity:1;fill-rule:nonzero;stroke:none;font-family:Courier New;font-variant:normal;font-weight:normal;font-size:12;writing-mode:lr;-inkscape-font-specification:Courier"
               x="105"
               y="0"
               id="tspan62">c</tspan><tspan
               style="fill:#198a8a;fill-opacity:1;fill-rule:nonzero;stroke:none;font-family:Courier New;font-variant:normal;font-weight:normal;font-size:12;writing-mode:lr;-inkscape-font-specification:Courier"
               x="112.5"
               y="-0.1"
               id="tspan64">h</tspan><tspan
               style="fill:#198a8a;fill-opacity:1;fill-rule:nonzero;stroke:none;font-family:Courier New;font-variant:normal;font-weight:normal;font-size:12;writing-mode:lr;-inkscape-font-specification:Courier"
               x="120"
               y="0"
               id="tspan66">i</tspan><tspan
               style="fill:#198a8a;fill-opacity:1;fill-rule:nonzero;stroke:none;font-family:Courier New;font-variant:normal;font-weight:normal;font-size:12;writing-mode:lr;-inkscape-font-specification:Courier"
               x="127.5"
               y="-0.1"
               id="tspan68">n</tspan><tspan
               style="fill:#198a8a;fill-opacity:1;fill-rule:nonzero;stroke:none;font-family:Courier New;font-variant:normal;font-weight:normal;font-size:12;writing-mode:lr;-inkscape-font-specification:Courier"
               x="135"
               y="0"
               id="tspan70">e</tspan><tspan
               style="fill:#198a8a;fill-opacity:1;fill-rule:nonzero;stroke:none;font-family:Courier New;font-variant:normal;font-weight:normal;font-size:12;writing-mode:lr;-inkscape-font-specification:Courier"
               x="142.5"
               y="-0.1"
               id="tspan72">/</tspan></text>
</g><g
           id="g74"><text
             transform="matrix(1,0,0,-1,38.5,747.1)"
             id="text76"><tspan
               style="fill:#198a8a;fill-opacity:1;fill-rule:nonzero;stroke:none;font-family:Courier New;font-variant:normal;font-weight:normal;font-size:12;writing-mode:lr;-inkscape-font-specification:Courier"
               x="0 7.5 30 37.5 60 67.5 90 97.5 105 112.5 120 127.5 135 142.5"
               y="0"
               sodipodi:role="line"
               id="tspan78">| | | |-- RCX/</tspan></text>
</g><g
           id="g80"><text
             transform="matrix(1,0,0,-1,38.5,732.9)"
             id="text82"><tspan
               style="fill:#198a8a;fill-opacity:1;fill-rule:nonzero;stroke:none;font-family:Courier New;font-variant:normal;font-weight:normal;font-size:12;writing-mode:lr;-inkscape-font-specification:Courier"
               x="0 7.5 30 37.5 60 67.5 90 97.5 120 127.5 135 142.5 150 157.5 165 172.5 180 187.5 195 202.5 210 217.5 225 232.5 240 247.5 255"
               y="0"
               sodipodi:role="line"
               id="tspan84">| | | | |-- Dependancies.mk</tspan></text>
</g><g
           id="g86"><text
             transform="matrix(1,0,0,-1,38.5,718.6)"
             id="text88"><tspan
               style="fill:#198a8a;fill-opacity:1;fill-rule:nonzero;stroke:none;font-family:Courier New;font-variant:normal;font-weight:normal;font-size:12;writing-mode:lr;-inkscape-font-specification:Courier"
               x="0 7.5 30 37.5 60 67.5 90 97.5 120 127.5 135 142.5 150 157.5 165 172.5 180 187.5 195 202.5 210 217.5 225 232.5 240 247.5 255 262.5 270"
               y="0"
               sodipodi:role="line"
               id="tspan90">| | | | |-- MachineSources.mk</tspan></text>
</g><g
           id="g92"><text
             transform="matrix(1,0,0,-1,38.5,704.3)"
             id="text94"><tspan
               style="fill:#198a8a;fill-opacity:1;fill-rule:nonzero;stroke:none;font-family:Courier New;font-variant:normal;font-weight:normal;font-size:12;writing-mode:lr;-inkscape-font-specification:Courier"
               x="0 7.5 30 37.5 60 67.5 90 97.5 120 127.5 135 142.5 150 157.5 165"
               y="0"
               sodipodi:role="line"
               id="tspan96">| | | | `-- ...</tspan></text>
</g><g
           id="g98"><text
             transform="matrix(1,0,0,-1,38.5,690.1)"
             id="text100"><tspan
               style="fill:#198a8a;fill-opacity:1;fill-rule:nonzero;stroke:none;font-family:Courier New;font-variant:normal;font-weight:normal;font-size:12;writing-mode:lr;-inkscape-font-specification:Courier"
               x="0 7.5 30 37.5 60 67.5 75 82.5 90 97.5 105 112.5 120 127.5 135 142.5 150 157.5"
               y="0"
               sodipodi:role="line"
               id="tspan102">| | |-- Sources.mk</tspan></text>
</g><g
           id="g104"><text
             transform="matrix(1,0,0,-1,38.5,675.8)"
             id="text106"><tspan
               style="fill:#198a8a;fill-opacity:1;fill-rule:nonzero;stroke:none;font-family:Courier New;font-variant:normal;font-weight:normal;font-size:12;writing-mode:lr;-inkscape-font-specification:Courier"
               x="0 7.5 30 37.5 60 67.5 75 82.5 90 97.5 105"
               y="0"
               sodipodi:role="line"
               id="tspan108">| | `-- ...</tspan></text>
</g><g
           id="g110"><text
             transform="matrix(1,0,0,-1,38.5,661.5)"
             id="text112"><tspan
               style="fill:#198a8a;fill-opacity:1;fill-rule:nonzero;stroke:none;font-family:Courier New;font-variant:normal;font-weight:normal;font-size:12;writing-mode:lr;-inkscape-font-specification:Courier"
               x="0 7.5 30 37.5 45 52.5 60 67.5 75"
               y="0"
               sodipodi:role="line"
               id="tspan114">| `-- ...</tspan></text>
</g><g
           id="g116"><text
             transform="matrix(1,0,0,-1,38.5,647.3)"
             id="text118"><tspan
               style="fill:#b80047;fill-opacity:1;fill-rule:nonzero;stroke:none;font-family:Courier New;font-variant:normal;font-weight:normal;font-size:12;writing-mode:lr;-inkscape-font-specification:Courier"
               x="0 7.5 15 22.5 30 37.5 45 52.5 60 67.5 75 82.5"
               y="0"
               sodipodi:role="line"
               id="tspan120">|-- machine/</tspan></text>
</g><g
           id="g122"><text
             transform="matrix(1,0,0,-1,38.5,633)"
             id="text124"><tspan
               style="fill:#b80047;fill-opacity:1;fill-rule:nonzero;stroke:none;font-family:Courier New;font-variant:normal;font-weight:normal;font-size:12;writing-mode:lr;-inkscape-font-specification:Courier"
               x="0 7.5 30 37.5 45 52.5 60 67.5 75 82.5"
               y="0"
               sodipodi:role="line"
               id="tspan126">| |-- RCX/</tspan></text>
</g><g
           id="g128"><text
             transform="matrix(1,0,0,-1,38.5,618.8)"
             id="text130"><tspan
               style="fill:#b80047;fill-opacity:1;fill-rule:nonzero;stroke:none;font-family:Courier New;font-variant:normal;font-weight:normal;font-size:12;writing-mode:lr;-inkscape-font-specification:Courier"
               x="0 7.5 30 37.5 60 67.5 75 82.5 90 97.5 105 112.5 120 127.5 135 142.5 150 157.5 165 172.5 180 187.5 195 202.5 210 217.5 225 232.5 240"
               y="0"
               sodipodi:role="line"
               id="tspan132">| | |-- BaseMachineSources.mk</tspan></text>
</g><g
           id="g134"><text
             transform="matrix(1,0,0,-1,38.5,604.5)"
             id="text136"><tspan
               style="fill:#b80047;fill-opacity:1;fill-rule:nonzero;stroke:none;font-family:Courier New;font-variant:normal;font-weight:normal;font-size:12;writing-mode:lr;-inkscape-font-specification:Courier"
               x="0 7.5 30 37.5 60 67.5 75 82.5 90 97.5 105 112.5 120 127.5 135 142.5 150 157.5 165"
               y="0"
               sodipodi:role="line"
               id="tspan138">| | |-- Compiler.mk</tspan></text>
</g><g
           id="g140"><text
             transform="matrix(1,0,0,-1,38.5,590.2)"
             id="text142"><tspan
               style="fill:#b80047;fill-opacity:1;fill-rule:nonzero;stroke:none;font-family:Courier New;font-variant:normal;font-weight:normal;font-size:12;writing-mode:lr;-inkscape-font-specification:Courier"
               x="0 7.5 30 37.5 60 67.5 75 82.5 90 97.5 105 112.5 120 127.5 135 142.5 150 157.5 165 172.5"
               y="0"
               sodipodi:role="line"
               id="tspan144">| | |-- LinkerScript</tspan></text>
</g><g
           id="g146"><text
             transform="matrix(1,0,0,-1,38.5,576)"
             id="text148"><tspan
               style="fill:#b80047;fill-opacity:1;fill-rule:nonzero;stroke:none;font-family:Courier New;font-variant:normal;font-weight:normal;font-size:12;writing-mode:lr;-inkscape-font-specification:Courier"
               x="0 7.5 30 37.5 60 67.5 75 82.5 90 97.5 105"
               y="0"
               sodipodi:role="line"
               id="tspan150">| | `-- ...</tspan></text>
</g><g
           id="g152"><text
             transform="matrix(1,0,0,-1,38.5,561.7)"
             id="text154"><tspan
               style="fill:#b80047;fill-opacity:1;fill-rule:nonzero;stroke:none;font-family:Courier New;font-variant:normal;font-weight:normal;font-size:12;writing-mode:lr;-inkscape-font-specification:Courier"
               x="0 7.5 30 37.5 45 52.5 60 67.5 75"
               y="0"
               sodipodi:role="line"
               id="tspan156">| `-- ...</tspan></text>
</g><g
           id="g158"><text
             transform="matrix(1,0,0,-1,38.5,547.5)"
             id="text160"><tspan
               style="fill:#000000;fill-opacity:1;fill-rule:nonzero;stroke:none;font-family:Courier New;font-variant:normal;font-weight:normal;font-size:12;writing-mode:lr;-inkscape-font-specification:Courier"
               x="0"
               y="0"
               id="tspan162">|</tspan><tspan
               style="fill:#000000;fill-opacity:1;fill-rule:nonzero;stroke:none;font-family:Courier New;font-variant:normal;font-weight:normal;font-size:12;writing-mode:lr;-inkscape-font-specification:Courier"
               x="7.5"
               y="-0.1"
               id="tspan164">-</tspan><tspan
               style="fill:#000000;fill-opacity:1;fill-rule:nonzero;stroke:none;font-family:Courier New;font-variant:normal;font-weight:normal;font-size:12;writing-mode:lr;-inkscape-font-specification:Courier"
               x="15"
               y="0"
               id="tspan166">-</tspan><tspan
               style="fill:#000000;fill-opacity:1;fill-rule:nonzero;stroke:none;font-family:Courier New;font-variant:normal;font-weight:normal;font-size:12;writing-mode:lr;-inkscape-font-specification:Courier"
               x="22.5"
               y="-0.1"
               id="tspan168"> </tspan><tspan
               style="fill:#000000;fill-opacity:1;fill-rule:nonzero;stroke:none;font-family:Courier New;font-variant:normal;font-weight:normal;font-size:12;writing-mode:lr;-inkscape-font-specification:Courier"
               x="30"
               y="0"
               id="tspan170">s</tspan><tspan
               style="fill:#000000;fill-opacity:1;fill-rule:nonzero;stroke:none;font-family:Courier New;font-variant:normal;font-weight:normal;font-size:12;writing-mode:lr;-inkscape-font-specification:Courier"
               x="37.5"
               y="-0.1"
               id="tspan172">y</tspan><tspan
               style="fill:#000000;fill-opacity:1;fill-rule:nonzero;stroke:none;font-family:Courier New;font-variant:normal;font-weight:normal;font-size:12;writing-mode:lr;-inkscape-font-specification:Courier"
               x="45"
               y="0"
               id="tspan174">s</tspan><tspan
               style="fill:#000000;fill-opacity:1;fill-rule:nonzero;stroke:none;font-family:Courier New;font-variant:normal;font-weight:normal;font-size:12;writing-mode:lr;-inkscape-font-specification:Courier"
               x="52.5"
               y="-0.1"
               id="tspan176">t</tspan><tspan
               style="fill:#000000;fill-opacity:1;fill-rule:nonzero;stroke:none;font-family:Courier New;font-variant:normal;font-weight:normal;font-size:12;writing-mode:lr;-inkscape-font-specification:Courier"
               x="60"
               y="0"
               id="tspan178">e</tspan><tspan
               style="fill:#000000;fill-opacity:1;fill-rule:nonzero;stroke:none;font-family:Courier New;font-variant:normal;font-weight:normal;font-size:12;writing-mode:lr;-inkscape-font-specification:Courier"
               x="67.5"
               y="-0.1"
               id="tspan180">m</tspan></text>
</g><g
           id="g182"><text
             transform="matrix(1,0,0,-1,38.5,533.3)"
             id="text184"><tspan
               style="fill:#000000;fill-opacity:1;fill-rule:nonzero;stroke:none;font-family:Courier New;font-variant:normal;font-weight:normal;font-size:12;writing-mode:lr;-inkscape-font-specification:Courier"
               x="0"
               y="0"
               id="tspan186">|</tspan><tspan
               style="fill:#000000;fill-opacity:1;fill-rule:nonzero;stroke:none;font-family:Courier New;font-variant:normal;font-weight:normal;font-size:12;writing-mode:lr;-inkscape-font-specification:Courier"
               x="7.5"
               y="-0.1"
               id="tspan188"> </tspan><tspan
               style="fill:#000000;fill-opacity:1;fill-rule:nonzero;stroke:none;font-family:Courier New;font-variant:normal;font-weight:normal;font-size:12;writing-mode:lr;-inkscape-font-specification:Courier"
               x="30"
               y="0"
               id="tspan190">|</tspan><tspan
               style="fill:#000000;fill-opacity:1;fill-rule:nonzero;stroke:none;font-family:Courier New;font-variant:normal;font-weight:normal;font-size:12;writing-mode:lr;-inkscape-font-specification:Courier"
               x="37.5"
               y="-0.1"
               id="tspan192">-</tspan><tspan
               style="fill:#000000;fill-opacity:1;fill-rule:nonzero;stroke:none;font-family:Courier New;font-variant:normal;font-weight:normal;font-size:12;writing-mode:lr;-inkscape-font-specification:Courier"
               x="45"
               y="0"
               id="tspan194">-</tspan><tspan
               style="fill:#000000;fill-opacity:1;fill-rule:nonzero;stroke:none;font-family:Courier New;font-variant:normal;font-weight:normal;font-size:12;writing-mode:lr;-inkscape-font-specification:Courier"
               x="52.5"
               y="-0.1"
               id="tspan196"> </tspan><tspan
               style="fill:#000000;fill-opacity:1;fill-rule:nonzero;stroke:none;font-family:Courier New;font-variant:normal;font-weight:normal;font-size:12;writing-mode:lr;-inkscape-font-specification:Courier"
               x="60"
               y="0"
               id="tspan198">S</tspan><tspan
               style="fill:#000000;fill-opacity:1;fill-rule:nonzero;stroke:none;font-family:Courier New;font-variant:normal;font-weight:normal;font-size:12;writing-mode:lr;-inkscape-font-specification:Courier"
               x="67.5"
               y="-0.1"
               id="tspan200">y</tspan><tspan
               style="fill:#000000;fill-opacity:1;fill-rule:nonzero;stroke:none;font-family:Courier New;font-variant:normal;font-weight:normal;font-size:12;writing-mode:lr;-inkscape-font-specification:Courier"
               x="75"
               y="0"
               id="tspan202">s</tspan><tspan
               style="fill:#000000;fill-opacity:1;fill-rule:nonzero;stroke:none;font-family:Courier New;font-variant:normal;font-weight:normal;font-size:12;writing-mode:lr;-inkscape-font-specification:Courier"
               x="82.5"
               y="-0.1"
               id="tspan204">t</tspan><tspan
               style="fill:#000000;fill-opacity:1;fill-rule:nonzero;stroke:none;font-family:Courier New;font-variant:normal;font-weight:normal;font-size:12;writing-mode:lr;-inkscape-font-specification:Courier"
               x="90"
               y="0"
               id="tspan206">e</tspan><tspan
               style="fill:#000000;fill-opacity:1;fill-rule:nonzero;stroke:none;font-family:Courier New;font-variant:normal;font-weight:normal;font-size:12;writing-mode:lr;-inkscape-font-specification:Courier"
               x="97.5"
               y="-0.1"
               id="tspan208">m</tspan><tspan
               style="fill:#000000;fill-opacity:1;fill-rule:nonzero;stroke:none;font-family:Courier New;font-variant:normal;font-weight:normal;font-size:12;writing-mode:lr;-inkscape-font-specification:Courier"
               x="105"
               y="0"
               id="tspan210">S</tspan><tspan
               style="fill:#000000;fill-opacity:1;fill-rule:nonzero;stroke:none;font-family:Courier New;font-variant:normal;font-weight:normal;font-size:12;writing-mode:lr;-inkscape-font-specification:Courier"
               x="112.5"
               y="-0.1"
               id="tspan212">o</tspan><tspan
               style="fill:#000000;fill-opacity:1;fill-rule:nonzero;stroke:none;font-family:Courier New;font-variant:normal;font-weight:normal;font-size:12;writing-mode:lr;-inkscape-font-specification:Courier"
               x="120"
               y="0"
               id="tspan214">u</tspan><tspan
               style="fill:#000000;fill-opacity:1;fill-rule:nonzero;stroke:none;font-family:Courier New;font-variant:normal;font-weight:normal;font-size:12;writing-mode:lr;-inkscape-font-specification:Courier"
               x="127.5"
               y="-0.1"
               id="tspan216">r</tspan><tspan
               style="fill:#000000;fill-opacity:1;fill-rule:nonzero;stroke:none;font-family:Courier New;font-variant:normal;font-weight:normal;font-size:12;writing-mode:lr;-inkscape-font-specification:Courier"
               x="135"
               y="0"
               id="tspan218">c</tspan><tspan
               style="fill:#000000;fill-opacity:1;fill-rule:nonzero;stroke:none;font-family:Courier New;font-variant:normal;font-weight:normal;font-size:12;writing-mode:lr;-inkscape-font-specification:Courier"
               x="142.5"
               y="-0.1"
               id="tspan220">e</tspan><tspan
               style="fill:#000000;fill-opacity:1;fill-rule:nonzero;stroke:none;font-family:Courier New;font-variant:normal;font-weight:normal;font-size:12;writing-mode:lr;-inkscape-font-specification:Courier"
               x="150"
               y="0"
               id="tspan222">s</tspan><tspan
               style="fill:#000000;fill-opacity:1;fill-rule:nonzero;stroke:none;font-family:Courier New;font-variant:normal;font-weight:normal;font-size:12;writing-mode:lr;-inkscape-font-specification:Courier"
               x="157.5"
               y="-0.1"
               id="tspan224">.</tspan><tspan
               style="fill:#000000;fill-opacity:1;fill-rule:nonzero;stroke:none;font-family:Courier New;font-variant:normal;font-weight:normal;font-size:12;writing-mode:lr;-inkscape-font-specification:Courier"
               x="165"
               y="0"
               id="tspan226">m</tspan><tspan
               style="fill:#000000;fill-opacity:1;fill-rule:nonzero;stroke:none;font-family:Courier New;font-variant:normal;font-weight:normal;font-size:12;writing-mode:lr;-inkscape-font-specification:Courier"
               x="172.5"
               y="-0.1"
               id="tspan228">k</tspan></text>
</g><g
           id="g230"><text
             transform="matrix(1,0,0,-1,38.5,519)"
             id="text232"><tspan
               style="fill:#000000;fill-opacity:1;fill-rule:nonzero;stroke:none;font-family:Courier New;font-variant:normal;font-weight:normal;font-size:12;writing-mode:lr;-inkscape-font-specification:Courier"
               x="0 7.5 30 37.5 45 52.5 60 67.5 75"
               y="0"
               sodipodi:role="line"
               id="tspan234">| `-- ...</tspan></text>
</g><g
           id="g236"><text
             transform="matrix(1,0,0,-1,38.5,504.7)"
             id="text238"><tspan
               style="fill:#000000;fill-opacity:1;fill-rule:nonzero;stroke:none;font-family:Courier New;font-variant:normal;font-weight:normal;font-size:12;writing-mode:lr;-inkscape-font-specification:Courier"
               x="0 7.5 15 22.5 30 37.5 45 52.5 60 67.5 75 82.5"
               y="0"
               sodipodi:role="line"
               id="tspan240">|-- Makefile</tspan></text>
</g><g
           id="g242"><text
             transform="matrix(1,0,0,-1,38.5,490.4)"
             id="text244"><tspan
               style="fill:#000000;fill-opacity:1;fill-rule:nonzero;stroke:none;font-family:Courier New;font-variant:normal;font-weight:normal;font-size:12;writing-mode:lr;-inkscape-font-specification:Courier"
               x="0"
               y="0"
               id="tspan246">`</tspan><tspan
               style="fill:#000000;fill-opacity:1;fill-rule:nonzero;stroke:none;font-family:Courier New;font-variant:normal;font-weight:normal;font-size:12;writing-mode:lr;-inkscape-font-specification:Courier"
               x="7.5"
               y="0.1"
               id="tspan248">-</tspan><tspan
               style="fill:#000000;fill-opacity:1;fill-rule:nonzero;stroke:none;font-family:Courier New;font-variant:normal;font-weight:normal;font-size:12;writing-mode:lr;-inkscape-font-specification:Courier"
               x="15"
               y="0"
               id="tspan250">-</tspan><tspan
               style="fill:#000000;fill-opacity:1;fill-rule:nonzero;stroke:none;font-family:Courier New;font-variant:normal;font-weight:normal;font-size:12;writing-mode:lr;-inkscape-font-specification:Courier"
               x="22.5"
               y="0.1"
               id="tspan252"> </tspan><tspan
               style="fill:#000000;fill-opacity:1;fill-rule:nonzero;stroke:none;font-family:Courier New;font-variant:normal;font-weight:normal;font-size:12;writing-mode:lr;-inkscape-font-specification:Courier"
               x="30"
               y="0"
               id="tspan254">.</tspan><tspan
               style="fill:#000000;fill-opacity:1;fill-rule:nonzero;stroke:none;font-family:Courier New;font-variant:normal;font-weight:normal;font-size:12;writing-mode:lr;-inkscape-font-specification:Courier"
               x="37.5"
               y="0.1"
               id="tspan256">.</tspan><tspan
               style="fill:#000000;fill-opacity:1;fill-rule:nonzero;stroke:none;font-family:Courier New;font-variant:normal;font-weight:normal;font-size:12;writing-mode:lr;-inkscape-font-specification:Courier"
               x="45"
               y="0"
               id="tspan258">.</tspan></text>
</g><g
           id="g260"><path
             d="m 442.8,743.1 -79.8,0 0,63 159.6,0 0,-63 -79.8,0 z"
             style="fill:none;stroke:none"
             id="path262" /></g><g
           id="g264"><text
             transform="matrix(1,0,0,-1,371.6,794.8)"
             id="text266"><tspan
               style="fill:#000000;fill-opacity:1;fill-rule:nonzero;stroke:none;font-family:Nimbus Roman No9 L;font-variant:normal;font-size:12;writing-mode:lr;-inkscape-font-specification:NimbusRomNo9L-Regu"
               x="0 5.2 11.2 17.2 20.2 25.5 28.5 34.5 39 42 45 51 56.2 59.2 65.2 70.5 76.5 81.7 87.7 93.7 99 105 110.2 113.2 118.5 123 126 132 135.7"
               y="0"
               sodipodi:role="line"
               id="tspan268">contains the dependancies of </tspan></text>
</g><g
           id="g270"><text
             transform="matrix(1,0,0,-1,371.6,779.8)"
             id="text272"><tspan
               style="fill:#000000;fill-opacity:1;fill-rule:nonzero;stroke:none;font-family:Nimbus Roman No9 L;font-variant:normal;font-size:12;writing-mode:lr;-inkscape-font-specification:NimbusRomNo9L-Regu"
               x="0 4.5 10.5 16.5 20.2 25.5 30.7 35.2 38.2 41.2 44.2 50.2 53.2 57.7 60.7 64.5 67.5 70.5 75.7 78.7 81.7 86.2"
               y="0"
               sodipodi:role="line"
               id="tspan274">sources. this file is </tspan></text>
</g><g
           id="g276"><text
             transform="matrix(1,0,0,-1,371.6,764.8)"
             id="text278"><tspan
               style="fill:#000000;fill-opacity:1;fill-rule:nonzero;stroke:none;font-family:Nimbus Roman No9 L;font-variant:normal;font-size:12;writing-mode:lr;-inkscape-font-specification:NimbusRomNo9L-Regu"
               x="0 5.2 11.2 14.2 20.2 29.2 34.5 37.5 40.5 45.7 51 54 57 63 66 72 77.2 83.2 88.5 92.2 97.5 100.5 105.7 111.7"
               y="0"
               sodipodi:role="line"
               id="tspan280">automatically generated </tspan></text>
</g><g
           id="g282"><text
             transform="matrix(1,0,0,-1,371.6,749.9)"
             id="text284"><tspan
               style="fill:#000000;fill-opacity:1;fill-rule:nonzero;stroke:none;font-family:Nimbus Roman No9 L;font-variant:normal;font-size:12;writing-mode:lr;-inkscape-font-specification:NimbusRomNo9L-Regu"
               x="0 6 12 15.7 18.7 24.7 30.7 33.7 39 48 53.2 59.2 64.5 67.5 72.7 75.7 78.7"
               y="0"
               sodipodi:role="line"
               id="tspan286">during „make all“</tspan></text>
</g><g
           id="g288"><path
             d="m 442.8,682.4 -79.7,0 0,49.4 159.5,0 0,-49.4 -79.8,0 z"
             style="fill:none;stroke:none"
             id="path290" /></g><g
           id="g292"><text
             transform="matrix(1,0,0,-1,371.7,720.6)"
             id="text294"><tspan
               style="fill:#000000;fill-opacity:1;fill-rule:nonzero;stroke:none;font-family:Nimbus Roman No9 L;font-variant:normal;font-size:12;writing-mode:lr;-inkscape-font-specification:NimbusRomNo9L-Regu"
               x="0 6 11.1 14.2 19.4 23.2 32.2 35.1 41.1 46.4 50.9 53.9 59.2 62.2 65.1 68.1 77.2 82.4 87.6 93.6 96.7 102.7 108"
               y="0"
               sodipodi:role="line"
               id="tspan296">determines all machine </tspan></text>
</g><g
           id="g298"><text
             transform="matrix(1,0,0,-1,371.7,705.6)"
             id="text300"><tspan
               style="fill:#000000;fill-opacity:1;fill-rule:nonzero;stroke:none;font-family:Nimbus Roman No9 L;font-variant:normal;font-size:12;writing-mode:lr;-inkscape-font-specification:NimbusRomNo9L-Regu"
               x="0 4.4 10.4 15.7 20.9 23.9 27.7 30.6 36 39 43.4 49.4 55.4 59.2 64.4 69.6 74.2 77.2 83.2 88.5 93.7 99.7 105 111 114 117.7 123.7 127.5"
               y="0"
               sodipodi:role="line"
               id="tspan302">specific sources needed for </tspan></text>
</g><g
           id="g304"><text
             transform="matrix(1,0,0,-1,371.7,690.6)"
             id="text306"><tspan
               style="fill:#000000;fill-opacity:1;fill-rule:nonzero;stroke:none;font-family:Nimbus Roman No9 L;font-variant:normal;font-size:12;writing-mode:lr;-inkscape-font-specification:NimbusRomNo9L-Regu"
               x="0 2.9 8.9 11.9 16.4 19.4 24.7 30.7 36.7 39.7 42.7 47.9 53.1 56.2 59.2 65.2"
               y="0"
               sodipodi:role="line"
               id="tspan308">this application</tspan></text>
</g><g
           id="g310"><path
             d="m 442.8,621 -79.7,0 0,49.4 159.5,0 0,-49.4 -79.8,0 z"
             style="fill:none;stroke:none"
             id="path312" /></g><g
           id="g314"><text
             transform="matrix(1,0,0,-1,371.7,659.2)"
             id="text316"><tspan
               style="fill:#000000;fill-opacity:1;fill-rule:nonzero;stroke:none;font-family:Nimbus Roman No9 L;font-variant:normal;font-size:12;writing-mode:lr;-inkscape-font-specification:NimbusRomNo9L-Regu"
               x="0 6 11.1 14.2 19.4 23.2 32.2 35.1 41.1 46.4 50.9 53.9 56.9 62.9 68.2 71.2 80.2 85.4 90.7 96.7 99.7 105.7"
               y="0"
               sodipodi:role="line"
               id="tspan318">determines the machin </tspan></text>
</g><g
           id="g320"><text
             transform="matrix(1,0,0,-1,371.7,644.2)"
             id="text322"><tspan
               style="fill:#000000;fill-opacity:1;fill-rule:nonzero;stroke:none;font-family:Nimbus Roman No9 L;font-variant:normal;font-size:12;writing-mode:lr;-inkscape-font-specification:NimbusRomNo9L-Regu"
               x="0 2.9 8.9 14.9 20.2 26.2 31.5 37.5 43.5 48.6 54.6 57.7 60.7 65.2 71.2 77.2 80.9 86.1 91.5 95.9 98.9 102.6 108.6 112.4 115.4 118.4 124.4 127.4 131.9"
               y="0"
               sodipodi:role="line"
               id="tspan324">independent sources for this </tspan></text>
</g><g
           id="g326"><text
             transform="matrix(1,0,0,-1,371.7,629.2)"
             id="text328"><tspan
               style="fill:#000000;fill-opacity:1;fill-rule:nonzero;stroke:none;font-family:Nimbus Roman No9 L;font-variant:normal;font-size:12;writing-mode:lr;-inkscape-font-specification:NimbusRomNo9L-Regu"
               x="0 5.2 11.2 17.2 20.2 23.2 28.4 33.6 36.7 39.7 45.7"
               y="0"
               sodipodi:role="line"
               id="tspan330">application</tspan></text>
</g><g
           id="g332"><path
             d="m 442.8,561.2 -79.7,0 0,49.4 159.5,0 0,-49.4 -79.8,0 z"
             style="fill:none;stroke:none"
             id="path334" /></g><g
           id="g336"><text
             transform="matrix(1,0,0,-1,371.7,599.4)"
             id="text338"><tspan
               style="fill:#000000;fill-opacity:1;fill-rule:nonzero;stroke:none;font-family:Nimbus Roman No9 L;font-variant:normal;font-size:12;writing-mode:lr;-inkscape-font-specification:NimbusRomNo9L-Regu"
               x="0 6"
               y="0"
               sodipodi:role="line"
               id="tspan340">de</tspan><tspan
               style="fill:#000000;fill-opacity:1;fill-rule:nonzero;stroke:none;font-family:Nimbus Roman No9 L;font-variant:normal;font-size:12;writing-mode:lr;-inkscape-font-specification:NimbusRomNo9L-Regu"
               x="11.1"
               y="-0.1"
               id="tspan342">t</tspan><tspan
               style="fill:#000000;fill-opacity:1;fill-rule:nonzero;stroke:none;font-family:Nimbus Roman No9 L;font-variant:normal;font-size:12;writing-mode:lr;-inkscape-font-specification:NimbusRomNo9L-Regu"
               x="14.2"
               y="0"
               id="tspan344">e</tspan><tspan
               style="fill:#000000;fill-opacity:1;fill-rule:nonzero;stroke:none;font-family:Nimbus Roman No9 L;font-variant:normal;font-size:12;writing-mode:lr;-inkscape-font-specification:NimbusRomNo9L-Regu"
               x="19.4"
               y="-0.1"
               id="tspan346">r</tspan><tspan
               style="fill:#000000;fill-opacity:1;fill-rule:nonzero;stroke:none;font-family:Nimbus Roman No9 L;font-variant:normal;font-size:12;writing-mode:lr;-inkscape-font-specification:NimbusRomNo9L-Regu"
               x="23.2"
               y="0"
               id="tspan348">m</tspan><tspan
               style="fill:#000000;fill-opacity:1;fill-rule:nonzero;stroke:none;font-family:Nimbus Roman No9 L;font-variant:normal;font-size:12;writing-mode:lr;-inkscape-font-specification:NimbusRomNo9L-Regu"
               x="32.2"
               y="-0.1"
               id="tspan350">i</tspan><tspan
               style="fill:#000000;fill-opacity:1;fill-rule:nonzero;stroke:none;font-family:Nimbus Roman No9 L;font-variant:normal;font-size:12;writing-mode:lr;-inkscape-font-specification:NimbusRomNo9L-Regu"
               x="35.1 41.1"
               y="0"
               sodipodi:role="line"
               id="tspan352">ne</tspan><tspan
               style="fill:#000000;fill-opacity:1;fill-rule:nonzero;stroke:none;font-family:Nimbus Roman No9 L;font-variant:normal;font-size:12;writing-mode:lr;-inkscape-font-specification:NimbusRomNo9L-Regu"
               x="46.4"
               y="-0.1"
               id="tspan354">s</tspan><tspan
               style="fill:#000000;fill-opacity:1;fill-rule:nonzero;stroke:none;font-family:Nimbus Roman No9 L;font-variant:normal;font-size:12;writing-mode:lr;-inkscape-font-specification:NimbusRomNo9L-Regu"
               x="50.9 53.9"
               y="0"
               sodipodi:role="line"
               id="tspan356"> t</tspan><tspan
               style="fill:#000000;fill-opacity:1;fill-rule:nonzero;stroke:none;font-family:Nimbus Roman No9 L;font-variant:normal;font-size:12;writing-mode:lr;-inkscape-font-specification:NimbusRomNo9L-Regu"
               x="56.9 62.9"
               y="-0.1"
               sodipodi:role="line"
               id="tspan358">he</tspan><tspan
               style="fill:#000000;fill-opacity:1;fill-rule:nonzero;stroke:none;font-family:Nimbus Roman No9 L;font-variant:normal;font-size:12;writing-mode:lr;-inkscape-font-specification:NimbusRomNo9L-Regu"
               x="68.2 71.2"
               y="0"
               sodipodi:role="line"
               id="tspan360"> m</tspan><tspan
               style="fill:#000000;fill-opacity:1;fill-rule:nonzero;stroke:none;font-family:Nimbus Roman No9 L;font-variant:normal;font-size:12;writing-mode:lr;-inkscape-font-specification:NimbusRomNo9L-Regu"
               x="80.2"
               y="-0.1"
               id="tspan362">a</tspan><tspan
               style="fill:#000000;fill-opacity:1;fill-rule:nonzero;stroke:none;font-family:Nimbus Roman No9 L;font-variant:normal;font-size:12;writing-mode:lr;-inkscape-font-specification:NimbusRomNo9L-Regu"
               x="85.4"
               y="0"
               id="tspan364">c</tspan><tspan
               style="fill:#000000;fill-opacity:1;fill-rule:nonzero;stroke:none;font-family:Nimbus Roman No9 L;font-variant:normal;font-size:12;writing-mode:lr;-inkscape-font-specification:NimbusRomNo9L-Regu"
               x="90.7 96.7"
               y="-0.1"
               sodipodi:role="line"
               id="tspan366">hi</tspan><tspan
               style="fill:#000000;fill-opacity:1;fill-rule:nonzero;stroke:none;font-family:Nimbus Roman No9 L;font-variant:normal;font-size:12;writing-mode:lr;-inkscape-font-specification:NimbusRomNo9L-Regu"
               x="99.7 105.7"
               y="0"
               sodipodi:role="line"
               id="tspan368">ne</tspan><tspan
               style="fill:#000000;fill-opacity:1;fill-rule:nonzero;stroke:none;font-family:Nimbus Roman No9 L;font-variant:normal;font-size:12;writing-mode:lr;-inkscape-font-specification:NimbusRomNo9L-Regu"
               x="110.9"
               y="-0.1"
               id="tspan370"> </tspan></text>
</g><g
           id="g372"><text
             transform="matrix(1,0,0,-1,371.7,584.4)"
             id="text374"><tspan
               style="fill:#000000;fill-opacity:1;fill-rule:nonzero;stroke:none;font-family:Nimbus Roman No9 L;font-variant:normal;font-size:12;writing-mode:lr;-inkscape-font-specification:NimbusRomNo9L-Regu"
               x="0 4.4 10.4 16.4 20.2 25.4 30.6 35.2 38.2 44.2 49.4 54.7 60.7 66 72 75 81 87 90 92.9 98.9 104.2 107.2 113.2 118.4 122.9 126 131.2"
               y="0"
               sodipodi:role="line"
               id="tspan376">sources needed by the basic </tspan></text>
</g><g
           id="g378"><text
             transform="matrix(1,0,0,-1,371.7,569.4)"
             id="text380"><tspan
               style="fill:#000000;fill-opacity:1;fill-rule:nonzero;stroke:none;font-family:Nimbus Roman No9 L;font-variant:normal;font-size:12;writing-mode:lr;-inkscape-font-specification:NimbusRomNo9L-Regu"
               x="0 8.2 13.4 17.2 20.1 25.4 31.4 34.4 38.9 44.9 49.4 52.5 57.7"
               y="0"
               sodipodi:role="line"
               id="tspan382">Reflex system</tspan></text>
</g><g
           id="g384"><path
             d="m 443.6,488.5 -79.7,0 0,63.1 159.5,0 0,-63.1 -79.8,0 z"
             style="fill:none;stroke:none"
             id="path386" /></g><g
           id="g388"><text
             transform="matrix(1,0,0,-1,372.4,540.3)"
             id="text390"><tspan
               style="fill:#000000;fill-opacity:1;fill-rule:nonzero;stroke:none;font-family:Nimbus Roman No9 L;font-variant:normal;font-size:12;writing-mode:lr;-inkscape-font-specification:NimbusRomNo9L-Regu"
               x="0 5.2 11.2 17.2 20.2 25.5 28.4 34.4 39 42 45 51 56.2 59.2 62.2 68.2 74.2 77.2 82.4 88.4 93.7 96.7 102.7"
               y="0"
               sodipodi:role="line"
               id="tspan392">contains the toolchain </tspan></text>
</g><g
           id="g394"><text
             transform="matrix(1,0,0,-1,372.4,525.3)"
             id="text396"><tspan
               style="fill:#000000;fill-opacity:1;fill-rule:nonzero;stroke:none;font-family:Nimbus Roman No9 L;font-variant:normal;font-size:12;writing-mode:lr;-inkscape-font-specification:NimbusRomNo9L-Regu"
               x="0 5.2 11.2 17.2 21 24 30 36 39.7 45 47.9 51 57 63 66 69.7 75.7 79.5 82.4 85.5 91.5 96.7 99.7 108.7 114 119.2 125.2 128.2 134.2 139.5"
               y="0"
               sodipodi:role="line"
               id="tspan398">configuration for the machine </tspan></text>
</g><g
           id="g400"><text
             transform="matrix(1,0,0,-1,372.4,510.3)"
             id="text402"><tspan
               style="fill:#000000;fill-opacity:1;fill-rule:nonzero;stroke:none;font-family:Nimbus Roman No9 L;font-variant:normal;font-size:12;writing-mode:lr;-inkscape-font-specification:NimbusRomNo9L-Regu"
               x="0 5.2 11.2 17.2 20.2 29.2 34.4 40.5 46.5 51.7 54.7 59.2 65.2 74.2 79.5 82.4 87.8 93.8 99.8 102.7 105.8 108.7 114.7 120.7 126 129"
               y="0"
               sodipodi:role="line"
               id="tspan404">and maybe some additional </tspan></text>
</g><g
           id="g406"><text
             transform="matrix(1,0,0,-1,372.4,495.4)"
             id="text408"><tspan
               style="fill:#000000;fill-opacity:1;fill-rule:nonzero;stroke:none;font-family:Nimbus Roman No9 L;font-variant:normal;font-size:12;writing-mode:lr;-inkscape-font-specification:NimbusRomNo9L-Regu"
               x="0 3 8.2 11.9 17.9 23.2 26.2 30.7 33.7 36.8 39.7 45.7 51 54 59.2 68.2 73.5 79.5 84.7 87.7 93.7 99.7 108.8 114.8 117.7 123.7 129 135"
               y="0"
               sodipodi:role="line"
               id="tspan410">targets like „make download“</tspan></text>
</g><g
           id="g412"><path
             d="m 443.7,443.8 -79.8,0 0,34.3 159.5,0 0,-34.3 -79.7,0 z"
             style="fill:none;stroke:none"
             id="path414" /></g><g
           id="g416"><text
             transform="matrix(1,0,0,-1,372.5,466.9)"
             id="text418"><tspan
               style="fill:#000000;fill-opacity:1;fill-rule:nonzero;stroke:none;font-family:Nimbus Roman No9 L;font-variant:normal;font-size:12;writing-mode:lr;-inkscape-font-specification:NimbusRomNo9L-Regu"
               x="0 6"
               y="0"
               sodipodi:role="line"
               id="tspan420">de</tspan><tspan
               style="fill:#000000;fill-opacity:1;fill-rule:nonzero;stroke:none;font-family:Nimbus Roman No9 L;font-variant:normal;font-size:12;writing-mode:lr;-inkscape-font-specification:NimbusRomNo9L-Regu"
               x="11.2"
               y="0.1"
               id="tspan422">t</tspan><tspan
               style="fill:#000000;fill-opacity:1;fill-rule:nonzero;stroke:none;font-family:Nimbus Roman No9 L;font-variant:normal;font-size:12;writing-mode:lr;-inkscape-font-specification:NimbusRomNo9L-Regu"
               x="14.3"
               y="0"
               id="tspan424">e</tspan><tspan
               style="fill:#000000;fill-opacity:1;fill-rule:nonzero;stroke:none;font-family:Nimbus Roman No9 L;font-variant:normal;font-size:12;writing-mode:lr;-inkscape-font-specification:NimbusRomNo9L-Regu"
               x="19.5"
               y="0.1"
               id="tspan426">r</tspan><tspan
               style="fill:#000000;fill-opacity:1;fill-rule:nonzero;stroke:none;font-family:Nimbus Roman No9 L;font-variant:normal;font-size:12;writing-mode:lr;-inkscape-font-specification:NimbusRomNo9L-Regu"
               x="23.2"
               y="0"
               id="tspan428">m</tspan><tspan
               style="fill:#000000;fill-opacity:1;fill-rule:nonzero;stroke:none;font-family:Nimbus Roman No9 L;font-variant:normal;font-size:12;writing-mode:lr;-inkscape-font-specification:NimbusRomNo9L-Regu"
               x="32.3"
               y="0.1"
               id="tspan430">i</tspan><tspan
               style="fill:#000000;fill-opacity:1;fill-rule:nonzero;stroke:none;font-family:Nimbus Roman No9 L;font-variant:normal;font-size:12;writing-mode:lr;-inkscape-font-specification:NimbusRomNo9L-Regu"
               x="35.3"
               y="0"
               id="tspan432">n</tspan><tspan
               style="fill:#000000;fill-opacity:1;fill-rule:nonzero;stroke:none;font-family:Nimbus Roman No9 L;font-variant:normal;font-size:12;writing-mode:lr;-inkscape-font-specification:NimbusRomNo9L-Regu"
               x="41.2"
               y="0.1"
               id="tspan434">e</tspan><tspan
               style="fill:#000000;fill-opacity:1;fill-rule:nonzero;stroke:none;font-family:Nimbus Roman No9 L;font-variant:normal;font-size:12;writing-mode:lr;-inkscape-font-specification:NimbusRomNo9L-Regu"
               x="46.5"
               y="0"
               id="tspan436">s</tspan><tspan
               style="fill:#000000;fill-opacity:1;fill-rule:nonzero;stroke:none;font-family:Nimbus Roman No9 L;font-variant:normal;font-size:12;writing-mode:lr;-inkscape-font-specification:NimbusRomNo9L-Regu"
               x="51 54"
               y="0.1"
               sodipodi:role="line"
               id="tspan438"> t</tspan><tspan
               style="fill:#000000;fill-opacity:1;fill-rule:nonzero;stroke:none;font-family:Nimbus Roman No9 L;font-variant:normal;font-size:12;writing-mode:lr;-inkscape-font-specification:NimbusRomNo9L-Regu"
               x="57 63"
               y="0"
               sodipodi:role="line"
               id="tspan440">he</tspan><tspan
               style="fill:#000000;fill-opacity:1;fill-rule:nonzero;stroke:none;font-family:Nimbus Roman No9 L;font-variant:normal;font-size:12;writing-mode:lr;-inkscape-font-specification:NimbusRomNo9L-Regu"
               x="68.3 71.3"
               y="0.1"
               sodipodi:role="line"
               id="tspan442"> s</tspan><tspan
               style="fill:#000000;fill-opacity:1;fill-rule:nonzero;stroke:none;font-family:Nimbus Roman No9 L;font-variant:normal;font-size:12;writing-mode:lr;-inkscape-font-specification:NimbusRomNo9L-Regu"
               x="75.7 81.7"
               y="0"
               sodipodi:role="line"
               id="tspan444">ou</tspan><tspan
               style="fill:#000000;fill-opacity:1;fill-rule:nonzero;stroke:none;font-family:Nimbus Roman No9 L;font-variant:normal;font-size:12;writing-mode:lr;-inkscape-font-specification:NimbusRomNo9L-Regu"
               x="87.7"
               y="0.1"
               id="tspan446">r</tspan><tspan
               style="fill:#000000;fill-opacity:1;fill-rule:nonzero;stroke:none;font-family:Nimbus Roman No9 L;font-variant:normal;font-size:12;writing-mode:lr;-inkscape-font-specification:NimbusRomNo9L-Regu"
               x="91.5"
               y="0"
               id="tspan448">c</tspan><tspan
               style="fill:#000000;fill-opacity:1;fill-rule:nonzero;stroke:none;font-family:Nimbus Roman No9 L;font-variant:normal;font-size:12;writing-mode:lr;-inkscape-font-specification:NimbusRomNo9L-Regu"
               x="96.7"
               y="0.1"
               id="tspan450">e</tspan><tspan
               style="fill:#000000;fill-opacity:1;fill-rule:nonzero;stroke:none;font-family:Nimbus Roman No9 L;font-variant:normal;font-size:12;writing-mode:lr;-inkscape-font-specification:NimbusRomNo9L-Regu"
               x="102"
               y="0"
               id="tspan452">s</tspan><tspan
               style="fill:#000000;fill-opacity:1;fill-rule:nonzero;stroke:none;font-family:Nimbus Roman No9 L;font-variant:normal;font-size:12;writing-mode:lr;-inkscape-font-specification:NimbusRomNo9L-Regu"
               x="106.5 109.5 115.5"
               y="0.1"
               sodipodi:role="line"
               id="tspan454"> of</tspan><tspan
               style="fill:#000000;fill-opacity:1;fill-rule:nonzero;stroke:none;font-family:Nimbus Roman No9 L;font-variant:normal;font-size:12;writing-mode:lr;-inkscape-font-specification:NimbusRomNo9L-Regu"
               x="119.2"
               y="0"
               id="tspan456"> </tspan><tspan
               style="fill:#000000;fill-opacity:1;fill-rule:nonzero;stroke:none;font-family:Nimbus Roman No9 L;font-variant:normal;font-size:12;writing-mode:lr;-inkscape-font-specification:NimbusRomNo9L-Regu"
               x="122.3"
               y="0.1"
               id="tspan458">t</tspan><tspan
               style="fill:#000000;fill-opacity:1;fill-rule:nonzero;stroke:none;font-family:Nimbus Roman No9 L;font-variant:normal;font-size:12;writing-mode:lr;-inkscape-font-specification:NimbusRomNo9L-Regu"
               x="125.3"
               y="0"
               id="tspan460">h</tspan><tspan
               style="fill:#000000;fill-opacity:1;fill-rule:nonzero;stroke:none;font-family:Nimbus Roman No9 L;font-variant:normal;font-size:12;writing-mode:lr;-inkscape-font-specification:NimbusRomNo9L-Regu"
               x="131.2"
               y="0.1"
               id="tspan462">e</tspan><tspan
               style="fill:#000000;fill-opacity:1;fill-rule:nonzero;stroke:none;font-family:Nimbus Roman No9 L;font-variant:normal;font-size:12;writing-mode:lr;-inkscape-font-specification:NimbusRomNo9L-Regu"
               x="136.5"
               y="0"
               id="tspan464"> </tspan></text>
</g><g
           id="g466"><text
             transform="matrix(1,0,0,-1,372.5,452)"
             id="text468"><tspan
               style="fill:#000000;fill-opacity:1;fill-rule:nonzero;stroke:none;font-family:Nimbus Roman No9 L;font-variant:normal;font-size:12;writing-mode:lr;-inkscape-font-specification:NimbusRomNo9L-Regu"
               x="0 6"
               y="0"
               sodipodi:role="line"
               id="tspan470">ba</tspan><tspan
               style="fill:#000000;fill-opacity:1;fill-rule:nonzero;stroke:none;font-family:Nimbus Roman No9 L;font-variant:normal;font-size:12;writing-mode:lr;-inkscape-font-specification:NimbusRomNo9L-Regu"
               x="11.2"
               y="-0.1"
               id="tspan472">s</tspan><tspan
               style="fill:#000000;fill-opacity:1;fill-rule:nonzero;stroke:none;font-family:Nimbus Roman No9 L;font-variant:normal;font-size:12;writing-mode:lr;-inkscape-font-specification:NimbusRomNo9L-Regu"
               x="15.8"
               y="0"
               id="tspan474">i</tspan><tspan
               style="fill:#000000;fill-opacity:1;fill-rule:nonzero;stroke:none;font-family:Nimbus Roman No9 L;font-variant:normal;font-size:12;writing-mode:lr;-inkscape-font-specification:NimbusRomNo9L-Regu"
               x="18.7"
               y="-0.1"
               id="tspan476">c</tspan><tspan
               style="fill:#000000;fill-opacity:1;fill-rule:nonzero;stroke:none;font-family:Nimbus Roman No9 L;font-variant:normal;font-size:12;writing-mode:lr;-inkscape-font-specification:NimbusRomNo9L-Regu"
               x="24 27"
               y="0"
               sodipodi:role="line"
               id="tspan478"> R</tspan><tspan
               style="fill:#000000;fill-opacity:1;fill-rule:nonzero;stroke:none;font-family:Nimbus Roman No9 L;font-variant:normal;font-size:12;writing-mode:lr;-inkscape-font-specification:NimbusRomNo9L-Regu"
               x="35.3"
               y="-0.1"
               id="tspan480">e</tspan><tspan
               style="fill:#000000;fill-opacity:1;fill-rule:nonzero;stroke:none;font-family:Nimbus Roman No9 L;font-variant:normal;font-size:12;writing-mode:lr;-inkscape-font-specification:NimbusRomNo9L-Regu"
               x="40.5"
               y="0"
               id="tspan482">f</tspan><tspan
               style="fill:#000000;fill-opacity:1;fill-rule:nonzero;stroke:none;font-family:Nimbus Roman No9 L;font-variant:normal;font-size:12;writing-mode:lr;-inkscape-font-specification:NimbusRomNo9L-Regu"
               x="44.2"
               y="-0.1"
               id="tspan484">l</tspan><tspan
               style="fill:#000000;fill-opacity:1;fill-rule:nonzero;stroke:none;font-family:Nimbus Roman No9 L;font-variant:normal;font-size:12;writing-mode:lr;-inkscape-font-specification:NimbusRomNo9L-Regu"
               x="47.2"
               y="0"
               id="tspan486">e</tspan><tspan
               style="fill:#000000;fill-opacity:1;fill-rule:nonzero;stroke:none;font-family:Nimbus Roman No9 L;font-variant:normal;font-size:12;writing-mode:lr;-inkscape-font-specification:NimbusRomNo9L-Regu"
               x="52.5 58.5 61.5"
               y="-0.1"
               sodipodi:role="line"
               id="tspan488">x s</tspan><tspan
               style="fill:#000000;fill-opacity:1;fill-rule:nonzero;stroke:none;font-family:Nimbus Roman No9 L;font-variant:normal;font-size:12;writing-mode:lr;-inkscape-font-specification:NimbusRomNo9L-Regu"
               x="66 72"
               y="0"
               sodipodi:role="line"
               id="tspan490">ys</tspan><tspan
               style="fill:#000000;fill-opacity:1;fill-rule:nonzero;stroke:none;font-family:Nimbus Roman No9 L;font-variant:normal;font-size:12;writing-mode:lr;-inkscape-font-specification:NimbusRomNo9L-Regu"
               x="76.5"
               y="-0.1"
               id="tspan492">t</tspan><tspan
               style="fill:#000000;fill-opacity:1;fill-rule:nonzero;stroke:none;font-family:Nimbus Roman No9 L;font-variant:normal;font-size:12;writing-mode:lr;-inkscape-font-specification:NimbusRomNo9L-Regu"
               x="79.5"
               y="0"
               id="tspan494">e</tspan><tspan
               style="fill:#000000;fill-opacity:1;fill-rule:nonzero;stroke:none;font-family:Nimbus Roman No9 L;font-variant:normal;font-size:12;writing-mode:lr;-inkscape-font-specification:NimbusRomNo9L-Regu"
               x="84.7"
               y="-0.1"
               id="tspan496">m</tspan></text>
</g><g
           id="g498"><path
             d="m 270.5,344.1 -79.8,0 0,95 159.6,0 0,-95 -79.8,0 z"
             style="fill:none;stroke:none"
             id="path500" /></g><g
           id="g502"><text
             transform="matrix(1,0,0,-1,199.3,427.8)"
             id="text504"><tspan
               style="fill:#000000;fill-opacity:1;fill-rule:nonzero;stroke:none;font-family:Nimbus Roman No9 L;font-variant:normal;font-size:12;writing-mode:lr;-inkscape-font-specification:NimbusRomNo9L-Regu"
               x="0 3 9 12 16.5 19.5 22.5 27 30 33 39 44.3 47.3 50.2 56.2 62.2 65.2 70.5 76.5 81.7 84.7 87.7 96.7 102 108 113.3 117 120 123 128.2 131.2 134.3 137.2"
               y="0"
               sodipodi:role="line"
               id="tspan506">this is the toplevel makefile it </tspan></text>
</g><g
           id="g508"><text
             transform="matrix(1,0,0,-1,199.3,412.7)"
             id="text510"><tspan
               style="fill:#000000;fill-opacity:1;fill-rule:nonzero;stroke:none;font-family:Nimbus Roman No9 L;font-variant:normal;font-size:12;writing-mode:lr;-inkscape-font-specification:NimbusRomNo9L-Regu"
               x="0"
               y="0"
               id="tspan512">c</tspan><tspan
               style="fill:#000000;fill-opacity:1;fill-rule:nonzero;stroke:none;font-family:Nimbus Roman No9 L;font-variant:normal;font-size:12;writing-mode:lr;-inkscape-font-specification:NimbusRomNo9L-Regu"
               x="5.2 11.2 17.2"
               y="0.1"
               sodipodi:role="line"
               id="tspan514">ont</tspan><tspan
               style="fill:#000000;fill-opacity:1;fill-rule:nonzero;stroke:none;font-family:Nimbus Roman No9 L;font-variant:normal;font-size:12;writing-mode:lr;-inkscape-font-specification:NimbusRomNo9L-Regu"
               x="20.3"
               y="0"
               id="tspan516">a</tspan><tspan
               style="fill:#000000;fill-opacity:1;fill-rule:nonzero;stroke:none;font-family:Nimbus Roman No9 L;font-variant:normal;font-size:12;writing-mode:lr;-inkscape-font-specification:NimbusRomNo9L-Regu"
               x="25.5"
               y="0.1"
               id="tspan518">i</tspan><tspan
               style="fill:#000000;fill-opacity:1;fill-rule:nonzero;stroke:none;font-family:Nimbus Roman No9 L;font-variant:normal;font-size:12;writing-mode:lr;-inkscape-font-specification:NimbusRomNo9L-Regu"
               x="28.5 34.5"
               y="0"
               sodipodi:role="line"
               id="tspan520">ns</tspan><tspan
               style="fill:#000000;fill-opacity:1;fill-rule:nonzero;stroke:none;font-family:Nimbus Roman No9 L;font-variant:normal;font-size:12;writing-mode:lr;-inkscape-font-specification:NimbusRomNo9L-Regu"
               x="39 42"
               y="0.1"
               sodipodi:role="line"
               id="tspan522"> t</tspan><tspan
               style="fill:#000000;fill-opacity:1;fill-rule:nonzero;stroke:none;font-family:Nimbus Roman No9 L;font-variant:normal;font-size:12;writing-mode:lr;-inkscape-font-specification:NimbusRomNo9L-Regu"
               x="45 51"
               y="0"
               sodipodi:role="line"
               id="tspan524">he</tspan><tspan
               style="fill:#000000;fill-opacity:1;fill-rule:nonzero;stroke:none;font-family:Nimbus Roman No9 L;font-variant:normal;font-size:12;writing-mode:lr;-inkscape-font-specification:NimbusRomNo9L-Regu"
               x="56.3 59.3"
               y="0.1"
               sodipodi:role="line"
               id="tspan526"> c</tspan><tspan
               style="fill:#000000;fill-opacity:1;fill-rule:nonzero;stroke:none;font-family:Nimbus Roman No9 L;font-variant:normal;font-size:12;writing-mode:lr;-inkscape-font-specification:NimbusRomNo9L-Regu"
               x="64.5 70.5 76.5"
               y="0"
               sodipodi:role="line"
               id="tspan528">onf</tspan><tspan
               style="fill:#000000;fill-opacity:1;fill-rule:nonzero;stroke:none;font-family:Nimbus Roman No9 L;font-variant:normal;font-size:12;writing-mode:lr;-inkscape-font-specification:NimbusRomNo9L-Regu"
               x="80.3"
               y="0.1"
               id="tspan530">i</tspan><tspan
               style="fill:#000000;fill-opacity:1;fill-rule:nonzero;stroke:none;font-family:Nimbus Roman No9 L;font-variant:normal;font-size:12;writing-mode:lr;-inkscape-font-specification:NimbusRomNo9L-Regu"
               x="83.2 89.2 95.2"
               y="0"
               sodipodi:role="line"
               id="tspan532">gur</tspan><tspan
               style="fill:#000000;fill-opacity:1;fill-rule:nonzero;stroke:none;font-family:Nimbus Roman No9 L;font-variant:normal;font-size:12;writing-mode:lr;-inkscape-font-specification:NimbusRomNo9L-Regu"
               x="99"
               y="0.1"
               id="tspan534">a</tspan><tspan
               style="fill:#000000;fill-opacity:1;fill-rule:nonzero;stroke:none;font-family:Nimbus Roman No9 L;font-variant:normal;font-size:12;writing-mode:lr;-inkscape-font-specification:NimbusRomNo9L-Regu"
               x="104.2"
               y="0"
               id="tspan536">t</tspan><tspan
               style="fill:#000000;fill-opacity:1;fill-rule:nonzero;stroke:none;font-family:Nimbus Roman No9 L;font-variant:normal;font-size:12;writing-mode:lr;-inkscape-font-specification:NimbusRomNo9L-Regu"
               x="107.2"
               y="0.1"
               id="tspan538">i</tspan><tspan
               style="fill:#000000;fill-opacity:1;fill-rule:nonzero;stroke:none;font-family:Nimbus Roman No9 L;font-variant:normal;font-size:12;writing-mode:lr;-inkscape-font-specification:NimbusRomNo9L-Regu"
               x="110.2 116.2 122.2 125.2 131.2"
               y="0"
               sodipodi:role="line"
               id="tspan540">on of</tspan><tspan
               style="fill:#000000;fill-opacity:1;fill-rule:nonzero;stroke:none;font-family:Nimbus Roman No9 L;font-variant:normal;font-size:12;writing-mode:lr;-inkscape-font-specification:NimbusRomNo9L-Regu"
               x="135"
               y="0.1"
               id="tspan542"> </tspan></text>
</g><g
           id="g544"><text
             transform="matrix(1,0,0,-1,199.3,397.8)"
             id="text546"><tspan
               style="fill:#000000;fill-opacity:1;fill-rule:nonzero;stroke:none;font-family:Nimbus Roman No9 L;font-variant:normal;font-size:12;writing-mode:lr;-inkscape-font-specification:NimbusRomNo9L-Regu"
               x="0"
               y="0"
               id="tspan548">m</tspan><tspan
               style="fill:#000000;fill-opacity:1;fill-rule:nonzero;stroke:none;font-family:Nimbus Roman No9 L;font-variant:normal;font-size:12;writing-mode:lr;-inkscape-font-specification:NimbusRomNo9L-Regu"
               x="9"
               y="-0.1"
               id="tspan550">a</tspan><tspan
               style="fill:#000000;fill-opacity:1;fill-rule:nonzero;stroke:none;font-family:Nimbus Roman No9 L;font-variant:normal;font-size:12;writing-mode:lr;-inkscape-font-specification:NimbusRomNo9L-Regu"
               x="14.2"
               y="0"
               id="tspan552">c</tspan><tspan
               style="fill:#000000;fill-opacity:1;fill-rule:nonzero;stroke:none;font-family:Nimbus Roman No9 L;font-variant:normal;font-size:12;writing-mode:lr;-inkscape-font-specification:NimbusRomNo9L-Regu"
               x="19.5 25.5"
               y="-0.1"
               sodipodi:role="line"
               id="tspan554">hi</tspan><tspan
               style="fill:#000000;fill-opacity:1;fill-rule:nonzero;stroke:none;font-family:Nimbus Roman No9 L;font-variant:normal;font-size:12;writing-mode:lr;-inkscape-font-specification:NimbusRomNo9L-Regu"
               x="28.5 34.5"
               y="0"
               sodipodi:role="line"
               id="tspan556">ne</tspan><tspan
               style="fill:#000000;fill-opacity:1;fill-rule:nonzero;stroke:none;font-family:Nimbus Roman No9 L;font-variant:normal;font-size:12;writing-mode:lr;-inkscape-font-specification:NimbusRomNo9L-Regu"
               x="39.8 42.8"
               y="-0.1"
               sodipodi:role="line"
               id="tspan558"> a</tspan><tspan
               style="fill:#000000;fill-opacity:1;fill-rule:nonzero;stroke:none;font-family:Nimbus Roman No9 L;font-variant:normal;font-size:12;writing-mode:lr;-inkscape-font-specification:NimbusRomNo9L-Regu"
               x="48 54 60 63"
               y="0"
               sodipodi:role="line"
               id="tspan560">nd a</tspan><tspan
               style="fill:#000000;fill-opacity:1;fill-rule:nonzero;stroke:none;font-family:Nimbus Roman No9 L;font-variant:normal;font-size:12;writing-mode:lr;-inkscape-font-specification:NimbusRomNo9L-Regu"
               x="68.2 74.2 80.2"
               y="-0.1"
               sodipodi:role="line"
               id="tspan562">ppl</tspan><tspan
               style="fill:#000000;fill-opacity:1;fill-rule:nonzero;stroke:none;font-family:Nimbus Roman No9 L;font-variant:normal;font-size:12;writing-mode:lr;-inkscape-font-specification:NimbusRomNo9L-Regu"
               x="83.2"
               y="0"
               id="tspan564">i</tspan><tspan
               style="fill:#000000;fill-opacity:1;fill-rule:nonzero;stroke:none;font-family:Nimbus Roman No9 L;font-variant:normal;font-size:12;writing-mode:lr;-inkscape-font-specification:NimbusRomNo9L-Regu"
               x="86.2"
               y="-0.1"
               id="tspan566">c</tspan><tspan
               style="fill:#000000;fill-opacity:1;fill-rule:nonzero;stroke:none;font-family:Nimbus Roman No9 L;font-variant:normal;font-size:12;writing-mode:lr;-inkscape-font-specification:NimbusRomNo9L-Regu"
               x="91.5"
               y="0"
               id="tspan568">a</tspan><tspan
               style="fill:#000000;fill-opacity:1;fill-rule:nonzero;stroke:none;font-family:Nimbus Roman No9 L;font-variant:normal;font-size:12;writing-mode:lr;-inkscape-font-specification:NimbusRomNo9L-Regu"
               x="96.7"
               y="-0.1"
               id="tspan570">t</tspan><tspan
               style="fill:#000000;fill-opacity:1;fill-rule:nonzero;stroke:none;font-family:Nimbus Roman No9 L;font-variant:normal;font-size:12;writing-mode:lr;-inkscape-font-specification:NimbusRomNo9L-Regu"
               x="99.7"
               y="0"
               id="tspan572">i</tspan><tspan
               style="fill:#000000;fill-opacity:1;fill-rule:nonzero;stroke:none;font-family:Nimbus Roman No9 L;font-variant:normal;font-size:12;writing-mode:lr;-inkscape-font-specification:NimbusRomNo9L-Regu"
               x="102.7 108.7 114.7 117.7"
               y="-0.1"
               sodipodi:role="line"
               id="tspan574">on, </tspan></text>
</g><g
           id="g576"><text
             transform="matrix(1,0,0,-1,199.3,382.8)"
             id="text578"><tspan
               style="fill:#000000;fill-opacity:1;fill-rule:nonzero;stroke:none;font-family:Nimbus Roman No9 L;font-variant:normal;font-size:12;writing-mode:lr;-inkscape-font-specification:NimbusRomNo9L-Regu"
               x="0 5.2 9.7 14.2 19.5 28.5 34.5 37.5 42.7 47.2 50.2 53.2 59.2 64.5 67.5 72.7 75.7 84.7 90.7 96 99.7 103.5 106.5 109.5 114.7 119.2 122.2 127.5 133.5 139.5"
               y="0"
               sodipodi:role="line"
               id="tspan580">assembles the „.mk“­files and </tspan></text>
</g><g
           id="g582"><text
             transform="matrix(1,0,0,-1,199.3,367.8)"
             id="text584"><tspan
               style="fill:#000000;fill-opacity:1;fill-rule:nonzero;stroke:none;font-family:Nimbus Roman No9 L;font-variant:normal;font-size:12;writing-mode:lr;-inkscape-font-specification:NimbusRomNo9L-Regu"
               x="0 6 9.7 15.7 21.7 24.8 30.8 36 40.5 43.5 48 54 63 68.2 71.2 77.2 82.5 88.5 93.8 97.5 102.7 105.7"
               y="0"
               sodipodi:role="line"
               id="tspan586">provides some general </tspan></text>
</g><g
           id="g588"><text
             transform="matrix(1,0,0,-1,199.3,352.8)"
             id="text590"><tspan
               style="fill:#000000;fill-opacity:1;fill-rule:nonzero;stroke:none;font-family:Nimbus Roman No9 L;font-variant:normal;font-size:12;writing-mode:lr;-inkscape-font-specification:NimbusRomNo9L-Regu"
               x="0 5.2 11.2 20.3 26.3 29.2 32.2 35.2 41.2 47.2 50.2 54 60 63 68.2"
               y="0"
               sodipodi:role="line"
               id="tspan592">compiling rules</tspan></text>
</g><path
           d="m 189.1,441.5 -4.9,12.5 -6.6,-5.5 11.5,-7 z"
           style="fill:#000000;fill-opacity:1;fill-rule:evenodd;stroke:none"
           id="path594" /><g
           id="g596"><path
             d="m 135.6,505.3 46.9,-56"
             style="fill:none;stroke:none"
             id="path598" /></g><path
           d="m 359,475.8 -9.8,9.2 -3.5,-7.8 13.3,-1.4 z"
           style="fill:#000000;fill-opacity:1;fill-rule:evenodd;stroke:none"
           id="path600" /><g
           id="g602"><path
             d="M 232.2,534 349.7,480"
             style="fill:none;stroke:none"
             id="path604" /></g><path
           d="m 359.8,548.4 -10.2,8.7 -3.2,-7.9 13.4,-0.8 z"
           style="fill:#000000;fill-opacity:1;fill-rule:evenodd;stroke:none"
           id="path606" /><g
           id="g608"><path
             d="m 219.4,605 131,-52.8"
             style="fill:none;stroke:none"
             id="path610" /></g><path
           d="m 359,605.8 -11.8,6.5 -1.5,-8.4 13.3,1.9 z"
           style="fill:#000000;fill-opacity:1;fill-rule:evenodd;stroke:none"
           id="path612" /><g
           id="g614"><path
             d="M 300.8,616.2 349,607.6"
             style="fill:none;stroke:none"
             id="path616" /></g><path
           d="m 360.6,664.1 -11.7,6.5 -1.6,-8.3 13.3,1.8 z"
           style="fill:#000000;fill-opacity:1;fill-rule:evenodd;stroke:none"
           id="path618" /><g
           id="g620"><path
             d="M 211.4,692 350.6,666"
             style="fill:none;stroke:none"
             id="path622" /></g><path
           d="m 360.6,723.9 -12.8,4.3 0.1,-8.5 12.7,4.2 z"
           style="fill:#000000;fill-opacity:1;fill-rule:evenodd;stroke:none"
           id="path624" /><g
           id="g626"><path
             d="m 320.7,723.9 29.7,0"
             style="fill:none;stroke:none"
             id="path628" /></g><path
           d="m 358.2,763.8 -13.1,-3 4.5,-7.3 8.6,10.3 z"
           style="fill:#000000;fill-opacity:1;fill-rule:evenodd;stroke:none"
           id="path630" /><g
           id="g632"><path
             d="m 312.8,735.9 36.7,22.6"
             style="fill:none;stroke:none"
             id="path634" /></g></g></g></g></svg>