%!PS-Adobe-3.0 EPSF-3.0
%%Creator: GIMP PostScript file plugin V 1,17 by Peter Kirchgessner
%%Title: WriteStates.eps
%%CreationDate: Thu Nov 20 13:30:09 2008
%%DocumentData: Clean7Bit
%%LanguageLevel: 2
%%Pages: 1
%%BoundingBox: 14 14 191 260
%%EndComments
%%BeginProlog
% Use own dictionary to avoid conflicts
10 dict begin
%%EndProlog
%%Page: 1 1
% Translate for offset
14.173228346456694 14.173228346456694 translate
% Translate to begin of first scanline
0 245.52000000000001 translate
176.40000000000001 -245.52000000000001 scale
% Image geometry
245 341 8
% Transformation matrix
[ 245 0 0 341 0 0 ]
% Strings to hold RGB-samples per scanline
/rstr 245 string def
/gstr 245 string def
/bstr 245 string def
{currentfile /ASCII85Decode filter /RunLengthDecode filter rstr readstring pop}
{currentfile /ASCII85Decode filter /RunLengthDecode filter gstr readstring pop}
{currentfile /ASCII85Decode filter /RunLengthDecode filter bstr readstring pop}
true 3
%%BeginData:        32918 ASCII Bytes
colorimage
[/]FlJcG3=J,~>
[/]FlJcG3=J,~>
[/]FlJcG3=J,~>
\,Z=*nc/IdJcG<@J,~>
\,Z=*nc/IdJcG<@J,~>
\,Z=*nc/IdJcG<@J,~>
\GuL-li6n`JcG?AJ,~>
\GuL-li6n`JcG?AJ,~>
\GuL-li6n`JcG?AJ,~>
])V^/kPtJ\JcGECJ,~>
])V^/kPtJ\JcGECJ,~>
])V^/kPtJ\JcGECJ,~>
]Dqj1j8])YJcGHDJ,~>
]Dqj1j8])YJcGHDJ,~>
]Dqj1j8])YJcGHDJ,~>
]Dqm2iW&oXJcGHDJ,~>
]Dqm2iW&oXJcGHDJ,~>
]Dqm2iW&oXJcGHDJ,~>
]`8!3huE]VJcGKEJ,~>
]`8!3huE]VJcGKEJ,~>
]`8!3huE]VJcGKEJ,~>
^&S*4h>dKTJcGNFJ,~>
^&S*4h>dKTJcGNFJ,~>
^&S*4h>dKTJcGNFJ,~>
^&S*4h>dKTJcGNFJ,~>
^&S*4h>dKTJcGNFJ,~>
^&S*4h>dKTJcGNFJ,~>
^An35g].9RJcGQGJ,~>
^An35g].9RJcGQGJ,~>
^An35g].9RJcGQGJ,~>
^An35n,N=dnc/UhJcGQGJ,~>
^An35n,N=dnc/UhJcGQGJ,~>
^An35n,N=dnc/UhJcGQGJ,~>
^An35o)JXgmJd.dJcGQGJ,~>
^An35o)JXgmJd.dJcGQGJ,~>
^An35o)JXgmJd.dJcGQGJ,~>
^]4<6nc/Uhli6tbJcGTHJ,~>
^]4<6nc/Uhli6tbJcGTHJ,~>
^]4<6nc/Uhli6tbJcGTHJ,~>
^]4<6n,N=dn,NCfJcGTHJ,~>
^]4<6n,N=dn,NCfJcGTHJ,~>
^]4<6n,N=dn,NCfJcGTHJ,~>
^Ae05mJm.cnG`IgJcGQGJ,~>
^Ae05mJm.cnG`IgJcGQGJ,~>
^Ae05mJm.cnG`IgJcGQGJ,~>
^Ae05nc/OfmJd.dJcGQGJ,~>
^Ae05nc/OfmJd.dJcGQGJ,~>
^Ae05nc/OfmJd.dJcGQGJ,~>
^Ae05nc/Uhli-qbJcGQGJ,~>
^Ae05nc/Uhli-qbJcGQGJ,~>
^Ae05nc/Uhli-qbJcGQGJ,~>
^Ae05n,N=dn,E@fJcGQGJ,~>
^Ae05n,N=dn,E@fJcGQGJ,~>
^Ae05n,N=dn,E@fJcGQGJ,~>
^Ae05m/R(cnG`IgJcGQGJ,~>
^Ae05m/R(cnG`IgJcGQGJ,~>
^Ae05m/R(cnG`IgJcGQGJ,~>
^Ae05g&D$PJcGQGJ,~>
^Ae05g&D$PJcGQGJ,~>
^Ae05g&D$PJcGQGJ,~>
^Ae05nc/Idn,E@fJcGQGJ,~>
^Ae05nc/Idn,E@fJcGQGJ,~>
^Ae05nc/Idn,E@fJcGQGJ,~>
^Ae05nc&dns8N*!!!)Ng!!%TMq>Ys~>
^Ae05nc&dns8N*!!!)Ng!!%TMq>Ys~>
^Ae05nc&dns8N*!!!)Ng!!%TMq>Ys~>
^Ae05o)A[irr3'#s8N)grr<%Ms7u\F~>
^Ae05o)A[irr3'#s8N)grr<%Ms7u\F~>
^Ae05o)A[irr3'#s8N)grr<%Ms7u\F~>
^Ae05o)J^is8N0$s8N)grr<%Ms7u\F~>
^Ae05o)J^is8N0$s8N)grr<%Ms7u\F~>
^Ae05o)J^is8N0$s8N)grr<%Ms7u\F~>
^Ae05nc&ams8N*!!:Tpf!.k1Gs*t~>
^Ae05nc&ams8N*!!:Tpf!.k1Gs*t~>
^Ae05nc&ams8N*!!:Tpf!.k1Gs*t~>
^Ae05nG`Rjrr<&err<%Ms7u\F~>
^Ae05nG`Rjrr<&err<%Ms7u\F~>
^Ae05nG`Rjrr<&err<%Ms7u\F~>
^Ae05g&D$PJcGQGJ,~>
^Ae05g&D$PJcGQGJ,~>
^Ae05g&D$PJcGQGJ,~>
^Ae05nc/Fc!WN/jrr<%Ms7u\F~>
^Ae05nc/Fc!WN/jrr<%Ms7u\F~>
^Ae05nc/Fc!WN/jrr<%Ms7u\F~>
^Ae05g&D$PJcGQGJ,~>
^Ae05g&D$PJcGQGJ,~>
^Ae05g&D$PJcGQGJ,~>
^Ae05li-qbnG`IgJcGQGJ,~>
^Ae05li-qbnG`IgJcGQGJ,~>
^Ae05li-qbnG`IgJcGQGJ,~>
^Ae05nc/Cbnc&RhJcGQGJ,~>
^Ae05nc/Cbnc&RhJcGQGJ,~>
^Ae05nc/Cbnc&RhJcGQGJ,~>
^Ae05o)J^ir;Q`snG`IgJcGQGJ,~>
^Ae05o)J^ir;Q`snG`IgJcGQGJ,~>
^Ae05o)J^ir;Q`snG`IgJcGQGJ,~>
^Ae05li-qbnG`IgJcGQGJ,~>
^Ae05li-qbnG`IgJcGQGJ,~>
^Ae05li-qbnG`IgJcGQGJ,~>
^Ae05g&D$PJcGQGJ,~>
^Ae05g&D$PJcGQGJ,~>
^Ae05g&D$PJcGQGJ,~>
^Ae05nc/Idn,E@fJcGQGJ,~>
^Ae05nc/Idn,E@fJcGQGJ,~>
^Ae05nc/Idn,E@fJcGQGJ,~>
^Ae05nc&dns8N*!!!)Ng!!%TMq>Ys~>
^Ae05nc&dns8N*!!!)Ng!!%TMq>Ys~>
^Ae05nc&dns8N*!!!)Ng!!%TMq>Ys~>
^Ae05o)A[irr3'#s8N)grr<%Ms7u\F~>
^Ae05o)A[irr3'#s8N)grr<%Ms7u\F~>
^Ae05o)A[irr3'#s8N)grr<%Ms7u\F~>
^Ae05nc&dns8N*!rrDQg!!%TMq>Ys~>
^Ae05nc&dns8N*!rrDQg!!%TMq>Ys~>
^Ae05nc&dns8N*!rrDQg!!%TMq>Ys~>
^Ae05nc/Uh!<<#un,E@fJcGQGJ,~>
^Ae05nc/Uh!<<#un,E@fJcGQGJ,~>
^Ae05nc/Uh!<<#un,E@fJcGQGJ,~>
^Ae05nG`Rjrr<&err<%Ms7u\F~>
^Ae05nG`Rjrr<&err<%Ms7u\F~>
^Ae05nG`Rjrr<&err<%Ms7u\F~>
^Ae05g&D$PJcGQGJ,~>
^Ae05g&D$PJcGQGJ,~>
^Ae05g&D$PJcGQGJ,~>
^Ae05nc/FcnG`IgJcGQGJ,~>
^Ae05nc/FcnG`IgJcGQGJ,~>
^Ae05nc/FcnG`IgJcGQGJ,~>
^Ae05m/I%cn,E@fJcGQGJ,~>
^Ae05m/I%cn,E@fJcGQGJ,~>
^Ae05m/I%cn,E@fJcGQGJ,~>
^Ae05li-qbnG`IgoD\djM#Vu~>
^Ae05li-qbnG`IgoD\djM#Vu~>
^Ae05li-qbnG`IgoD\djM#Vu~>
^Ae05g&D$Pp&G$lL];l~>
^Ae05g&D$Pp&G$lL];l~>
^Ae05g&D$Pp&G$lL];l~>
^Ae05nc/Rgm/I%cp](6nL&ZZ~>
^Ae05nc/Rgm/I%cp](6nL&ZZ~>
^Ae05nc/Rgm/I%cp](6nL&ZZ~>
^Ae05nc&amrrE*!!:Tpf!;ZZp!/(<%~>
^Ae05nc&amrrE*!!:Tpf!;ZZp!/(<%~>
^Ae05nc&amrrE*!!:Tpf!;ZZp!/(<%~>
^Ae05o)A[irr3'#s8N)grr<&rs8N(Ms*t~>
^Ae05o)A[irr3'#s8N)grr<&rs8N(Ms*t~>
^Ae05o)A[irr3'#s8N)grr<&rs8N(Ms*t~>
^Ae05nc&dns8N*!rrDQg!!)utrr@WMs8RT~>
^Ae05nc&dns8N*!rrDQg!!)utrr@WMs8RT~>
^Ae05nc&dns8N*!rrDQg!!)utrr@WMs8RT~>
^Ae05nc&dns8N*!rrDQg"9AK%!!%TMrVqB~>
^Ae05nc&dns8N*!rrDQg"9AK%!!%TMrVqB~>
^Ae05nc&dns8N*!rrDQg"9AK%!!%TMrVqB~>
d/WM6o)JOdn,MPNP5g%~>
d/WM6o)JOdn,MPNP5g%~>
d/WM6o)JOdn,MPNP5g%~>
d/O(GnG`Igg&M$Oli-qbP5g%~>
d/O(GnG`Igg&M$Oli-qbP5g%~>
d/O(GnG`Igg&M$Oli-qbP5g%~>
d/O(GnG`Igg&D0Ts8N'!mJd.dP5g%~>
d/O(GnG`Igg&D0Ts8N'!mJd.dP5g%~>
d/O(GnG`Igg&D0Ts8N'!mJd.dP5g%~>
d/O(GnG`Ignc/FcnG`IgrVultn,E@fP5g%~>
d/O(GnG`Ignc/FcnG`IgrVultn,E@fP5g%~>
d/O(GnG`Ignc/FcnG`IgrVultn,E@fP5g%~>
d/O(GnG`Igm/I%cn,E@fqu?Zrnc&Rhqu?BjUAo`~>
d/O(GnG`Igm/I%cn,E@fqu?Zrnc&Rhqu?BjUAo`~>
d/O(GnG`Igm/I%cn,E@fqu?Zrnc&Rhqu?BjUAo`~>
d/O(GnG`Igli-qbnG`Igq>^HpoD\djqu6WrrVlitrr2ruUAo`~>
d/O(GnG`Igli-qbnG`Igq>^HpoD\djqu6WrrVlitrr2ruUAo`~>
d/O(GnG`Igli-qbnG`Igq>^HpoD\djqu6WrrVlitrr2ruUAo`~>
d/O(GnG`Igg&D$Pp](6np&>!lqu6WrrVlitrr2ruUAo`~>
d/O(GnG`Igg&D$Pp](6np&>!lqu6WrrVlitrr2ruUAo`~>
d/O(GnG`Igg&D$Pp](6np&>!lqu6WrrVlitrr2ruUAo`~>
d/O(GnG`Ignc/@ao)A[ip&G$lp\t3nqu6WrrVlitrr2ruUAo`~>
d/O(GnG`Ignc/@ao)A[ip&G$lp\t3nqu6WrrVlitrr2ruUAo`~>
d/O(GnG`Ignc/@ao)A[ip&G$lp\t3nqu6WrrVlitrr2ruUAo`~>
d/O(GnG`Ignc&RhrVlitn,E@foD\djq#:<oqu6WrrVlitrr2ruUAo`~>
d/O(GnG`Ignc&RhrVlitn,E@foD\djq#:<oqu6WrrVlitrr2ruUAo`~>
d/O(GnG`Ignc&RhrVlitn,E@foD\djq#:<oqu6WrrVlitrr2ruUAo`~>
d/O(GnG`Ignc&Rhr;Q`snG`Igl2L_`qu6WrrVlitrr2ruUAo`~>
d/O(GnG`Ignc&Rhr;Q`snG`Igl2L_`qu6WrrVlitrr2ruUAo`~>
d/O(GnG`Ignc&Rhr;Q`snG`Igl2L_`qu6WrrVlitrr2ruUAo`~>
d/O(GnG`Igo)J^ir;Q`snG`Igl2L_`qu6WrrVlitrr2ruUAo`~>
d/O(GnG`Igo)J^ir;Q`snG`Igl2L_`qu6WrrVlitrr2ruUAo`~>
d/O(GnG`Igo)J^ir;Q`snG`Igl2L_`qu6WrrVlitrr2ruUAo`~>
d/O(GnG`Ignc&RhrVultnG`Igl2L_`P5g%~>
d/O(GnG`Ignc&RhrVultnG`Igl2L_`P5g%~>
d/O(GnG`Ignc&RhrVultnG`Igl2L_`P5g%~>
d/O(GnG`IgnGiCdn,E@fl2L_`P5g%~>
d/O(GnG`IgnGiCdn,E@fl2L_`P5g%~>
d/O(GnG`IgnGiCdn,E@fl2L_`P5g%~>
d/O(GnG`Igg&D$Pl2L_`qu?KmTDsE~>
d/O(GnG`Igg&D$Pl2L_`qu?KmTDsE~>
d/O(GnG`Igg&D$Pl2L_`qu?KmTDsE~>
d/O(GnG`Ign,N@emf*7el2L_`pAY*mT)X<~>
d/O(GnG`Ign,N@emf*7el2L_`pAY*mT)X<~>
d/O(GnG`Ign,N@emf*7el2L_`pAY*mT)X<~>
d/O(GnG`Ignc/Uh!<<#un,E@fl2L_`p&>!lTDsE~>
d/O(GnG`Ignc/Uh!<<#un,E@fl2L_`p&>!lTDsE~>
d/O(GnG`Ignc/Uh!<<#un,E@fl2L_`p&>!lTDsE~>
d/O(GnG`Ignc&dns8N*!rrDQg!!)9`!!)]l!!&YkJ,~>
d/O(GnG`Ignc&dns8N*!rrDQg!!)9`!!)]l!!&YkJ,~>
d/O(GnG`Ignc&dns8N*!rrDQg!!)9`!!)]l!!&YkJ,~>
d/O(GnG`Igo)A[irr3'#s8N)grr<&`rr<&lrr<%ks*t~>
d/O(GnG`Igo)A[irr3'#s8N)grr<&`rr<&lrr<%ks*t~>
d/O(GnG`Igo)A[irr3'#s8N)grr<&`rr<&lrr<%ks*t~>
d/O(GnG`Ignc&dns8N*!!!)Ng!!)9`!!)orp].#fJ,~>
d/O(GnG`Ignc&dns8N*!!!)Ng!!)9`!!)orp].#fJ,~>
d/O(GnG`Ignc&dns8N*!!!)Ng!!)9`!!)orp].#fJ,~>
d/O(GnG`Ignc/Uh!<<#un,E@fl2L_`qu?BjUAo`~>
d/O(GnG`Ignc/Uh!<<#un,E@fl2L_`qu?BjUAo`~>
d/O(GnG`Ignc/Uh!<<#un,E@fl2L_`qu?BjUAo`~>
d/O(GnG`Igg&D$Pl2L_`p&>*os8N(ns*t~>
d/O(GnG`Igg&D$Pl2L_`p&>*os8N(ns*t~>
d/O(GnG`Igg&D$Pl2L_`p&>*os8N(ns*t~>
d/O(GnG`Igg&D$Pl2L_`P5g%~>
d/O(GnG`Igg&D$Pl2L_`P5g%~>
d/O(GnG`Igg&D$Pl2L_`P5g%~>
d/O(GnG`Ignc/Fc!WN/jrr<&`rr<&rs8)efs*t~>
d/O(GnG`Ignc/Fc!WN/jrr<&`rr<&rs8)efs*t~>
d/O(GnG`Ignc/Fc!WN/jrr<&`rr<&rs8)efs*t~>
d/O(GnG`Igg&D$Pl2L_`qu6Wrr;Q`sTDsE~>
d/O(GnG`Igg&D$Pl2L_`qu6Wrr;Q`sTDsE~>
d/O(GnG`Igg&D$Pl2L_`qu6Wrr;Q`sTDsE~>
d/O(GnG`Igli-qbnG`Igl2L_`r;Zcsr;Q`sTDsE~>
d/O(GnG`Igli-qbnG`Igl2L_`r;Zcsr;Q`sTDsE~>
d/O(GnG`Igli-qbnG`Igl2L_`r;Zcsr;Q`sTDsE~>
d/O(GnG`Ignc/Cbnc&Rhl2L_`r;Q`squ6WrTDsE~>
d/O(GnG`Ignc/Cbnc&Rhl2L_`r;Q`squ6WrTDsE~>
d/O(GnG`Ignc/Cbnc&Rhl2L_`r;Q`squ6WrTDsE~>
d/O(GnG`Igo)A[iqu6WrnG`Igl2L_`qu6Wrr;Q`sTDsE~>
d/O(GnG`Igo)A[iqu6WrnG`Igl2L_`qu6Wrr;Q`sTDsE~>
d/O(GnG`Igo)A[iqu6WrnG`Igl2L_`qu6Wrr;Q`sTDsE~>
d/O(GnG`Igg&D$Pl2L_`qu?NnT)X<~>
d/O(GnG`Igg&D$Pl2L_`qu?NnT)X<~>
d/O(GnG`Igg&D$Pl2L_`qu?NnT)X<~>
d/O(GnG`Ign,N@emf*7el2L_`q>^EoSc=3~>
d/O(GnG`Ign,N@emf*7el2L_`q>^EoSc=3~>
d/O(GnG`Ign,N@emf*7el2L_`q>^EoSc=3~>
d/O(GnG`Ignc/Uh!<<#un,E@fl2L_`P5g%~>
d/O(GnG`Ignc/Uh!<<#un,E@fl2L_`P5g%~>
d/O(GnG`Ignc/Uh!<<#un,E@fl2L_`P5g%~>
d/O(GnG`Ignc&dns8N*!rrDQg!!)9`!!)orpAgrfJ,~>
d/O(GnG`Ignc&dns8N*!rrDQg!!)9`!!)orpAgrfJ,~>
d/O(GnG`Ignc&dns8N*!rrDQg!!)9`!!)orpAgrfJ,~>
d/O(GnG`Igo)A[irr3'#s8N)grr<&`rr<&rs7ZMfs*t~>
d/O(GnG`Igo)A[irr3'#s8N)grr<&`rr<&rs7ZMfs*t~>
d/O(GnG`Igo)A[irr3'#s8N)grr<&`rr<&rs7ZMfs*t~>
d/O(GnG`Ignc&dns8N*!!!)Ng!!)9`!!&2^J,~>
d/O(GnG`Ignc&dns8N*!!!)Ng!!)9`!!&2^J,~>
d/O(GnG`Ignc&dns8N*!!!)Ng!!)9`!!&2^J,~>
d/O(GnG`Ignc/Uh!<<#un,E@fl2L_`rVlp!s8W#tSc=3~>
d/O(GnG`Ignc/Uh!<<#un,E@fl2L_`rVlp!s8W#tSc=3~>
d/O(GnG`Ignc/Uh!<<#un,E@fl2L_`rVlp!s8W#tSc=3~>
d/O(GnG`Igmf*7emJd.dl2L_`rr;uu!<<#u!<<#uTDsE~>
d/O(GnG`Igmf*7emJd.dl2L_`rr;uu!<<#u!<<#uTDsE~>
d/O(GnG`Igmf*7emJd.dl2L_`rr;uu!<<#u!<<#uTDsE~>
d/O(GnG`Igg&D$Pl2Ltgs8N*!rr<&srr<%ks*t~>
d/O(GnG`Igg&D$Pl2Ltgs8N*!rr<&srr<%ks*t~>
d/O(GnG`Igg&D$Pl2Ltgs8N*!rr<&srr<%ks*t~>
d/O(GnG`Ignc/FcnG`Igl2Lqfs8N*!rrDrr!!&YkJ,~>
d/O(GnG`Ignc/FcnG`Igl2Lqfs8N*!rrDrr!!&YkJ,~>
d/O(GnG`Ignc/FcnG`Igl2Lqfs8N*!rrDrr!!&YkJ,~>
d/O(GnG`Igm/I%cn,NCflMgqds8N)urr<&srr<%ks*t~>
d/O(GnG`Igm/I%cn,NCflMgqds8N)urr<&srr<%ks*t~>
d/O(GnG`Igm/I%cn,NCflMgqds8N)urr<&srr<%ks*t~>
d/O(Gnc/Uhli-qbnGiLglMgharr;uu!ri6#rr2ruT)X<~>
d/O(Gnc/Uhli-qbnGiLglMgharr;uu!ri6#rr2ruT)X<~>
d/O(Gnc/Uhli-qbnGiLglMgharr;uu!ri6#rr2ruT)X<~>
d/O(GnG`Igli-qbnG`Igl2L_`rVuWmTDsE~>
d/O(GnG`Igli-qbnG`Igl2L_`rVuWmTDsE~>
d/O(GnG`Igli-qbnG`Igl2L_`rVuWmTDsE~>
d/O(GnGiLgo)JRenGiLgl2L_`P5g%~>
d/O(GnGiLgo)JRenGiLgl2L_`P5g%~>
d/O(GnGiLgo)JRenGiLgl2L_`P5g%~>
d/O(GnGiLgg].9Rl2L_`P5g%~>
d/O(GnGiLgg].9Rl2L_`P5g%~>
d/O(GnGiLgg].9Rl2L_`P5g%~>
d/O(GnGiLgg].9Rl2L_`P5g%~>
d/O(GnGiLgg].9Rl2L_`P5g%~>
d/O(GnGiLgg].9Rl2L_`P5g%~>
d/O(Gn,NCfh>dKTkl1V_P5g%~>
d/O(Gn,NCfh>dKTkl1V_P5g%~>
d/O(Gn,NCfh>dKTkl1V_P5g%~>
d/O(Gn,N@ehuEZUkl1V_P5g%~>
d/O(Gn,N@ehuEZUkl1V_P5g%~>
d/O(Gn,N@ehuEZUkl1V_P5g%~>
d/O(Gmf3:ehuE]VkPkM^P5g%~>
d/O(Gmf3:ehuE]VkPkM^P5g%~>
d/O(Gmf3:ehuE]VkPkM^P5g%~>
d/O(GmJm1diW&oXk5PD]P5g%~>
d/O(GmJm1diW&oXk5PD]P5g%~>
d/O(GmJm1diW&oXk5PD]P5g%~>
d/O(Gm/R%bjo>;[jo5;\P5g%~>
d/O(Gm/R%bjo>;[jo5;\P5g%~>
d/O(Gm/R%bjo>;[jo5;\P5g%~>
d/O(Gli6qakPtM]jSo2[P5g%~>
d/O(Gli6qakPtM]jSo2[P5g%~>
d/O(Gli6qakPtM]jSo2[P5g%~>
d/O(GlMpe_li6n`j8T)ZP5g%~>
d/O(GlMpe_li6n`j8T)ZP5g%~>
d/O(GlMpe_li6n`j8T)ZP5g%~>
d/O(Gkl:M[oDe[fiVrlXP5g%~>
d/O(Gkl:M[oDe[fiVrlXP5g%~>
d/O(Gkl:M[oDe[fiVrlXP5g%~>
d/O(Gk5XcJhZ!QUP5g%~>
d/O(Gk5XcJhZ!QUP5g%~>
d/O(Gk5XcJhZ!QUP5g%~>
d/O(GY5\J%P5g%~>
d/O(GY5\J%P5g%~>
d/O(GY5\J%P5g%~>
d/O(GY5\J%P5g%~>
d/O(GY5\J%P5g%~>
d/O(GY5\J%P5g%~>
d/O(GY5\J%P5g%~>
d/O(GY5\J%P5g%~>
d/O(GY5\J%P5g%~>
d/O(GY5\J%P5g%~>
d/O(GY5\J%P5g%~>
d/O(GY5\J%P5g%~>
d/O(GY5\J%P5g%~>
d/O(GY5\J%P5g%~>
d/O(GY5\J%P5g%~>
d/O(GY5\J%P5g%~>
d/O(GY5\J%P5g%~>
d/O(GY5\J%P5g%~>
d/O(GY5\J%P5g%~>
d/O(GY5\J%P5g%~>
d/O(GY5\J%P5g%~>
d/O(GY5\J%P5g%~>
d/O(GY5\J%P5g%~>
d/O(GY5\J%P5g%~>
d/O(GY5\J%P5g%~>
d/O(GY5\J%P5g%~>
d/O(GY5\J%P5g%~>
d/O(GY5\J%P5g%~>
d/O(GY5\J%P5g%~>
d/O(GY5\J%P5g%~>
d/O(GY5\J%P5g%~>
d/O(GY5\J%P5g%~>
d/O(GY5\J%P5g%~>
d/O(GY5\J%jSo2[nc&Rh_>f#~>
d/O(GY5\J%jSo2[nc&Rh_>f#~>
d/O(GY5\J%jSo2[nc&Rh_>f#~>
d/O(GY5\J%kPs`G`W(G~>
d/O(GY5\J%kPs`G`W(G~>
d/O(GY5\J%kPs`G`W(G~>
d/O(GY5\J%l2UY]mf31ba8^Y~>
d/O(GY5\J%l2UY]mf31ba8^Y~>
d/O(GY5\J%l2UY]mf31ba8^Y~>
d/O(GY5\J%li6n`l2U\^aT$b~>
d/O(GY5\J%li6n`l2U\^aT$b~>
d/O(GY5\J%li6n`l2U\^aT$b~>
d/O(GY5\J%m/R%bjo>;[ao?k~>
d/O(GY5\J%m/R%bjo>;[ao?k~>
d/O(GY5\J%m/R%bjo>;[ao?k~>
d/O(GY5\J%mJm.cj8])Yb5Zt~>
d/O(GY5\J%mJm.cj8])Yb5Zt~>
d/O(GY5\J%mJm.cj8])Yb5Zt~>
d/O(GY5\J%mf37diW&lWbQ!(~>
d/O(GY5\J%mf37diW&lWbQ!(~>
d/O(GY5\J%mf37diW&lWbQ!(~>
d/O(GY5\J%mf3:ehuEZUbl<1~>
d/O(GY5\J%mf3:ehuEZUbl<1~>
d/O(GY5\J%mf3:ehuEZUbl<1~>
d/O(GY5\J%n,NCfh>dKTbl<1~>
d/O(GY5\J%n,NCfh>dKTbl<1~>
d/O(GY5\J%n,NCfh>dKTbl<1~>
d/O(GY5\J%n,NCfh#IBSc2W:~>
d/O(GY5\J%n,NCfh#IBSc2W:~>
d/O(GY5\J%n,NCfh#IBSc2W:~>
d/O(GY5\J%nGiLgg].9Rc2W:~>
d/O(GY5\J%nGiLgg].9Rc2W:~>
d/O(GY5\J%nGiLgg].9Rc2W:~>
d/O(GY5\J%nGiLgg].9Rc2W:~>
d/O(GY5\J%nGiLgg].9Rc2W:~>
d/O(GY5\J%nGiLgg].9Rc2W:~>
d/O(GY5\J%nGiLggAh0QcMrC~>
d/O(GY5\J%nGiLggAh0QcMrC~>
d/O(GY5\J%nGiLggAh0QcMrC~>
d/O(GY5\J%nG`Igg&D$Pc2W:~>
d/O(GY5\J%nG`Igg&D$Pc2W:~>
d/O(GY5\J%nG`Igg&D$Pc2W:~>
d/O(GY5\J%nc/Uhg&M'PcMrC~>
d/O(GY5\J%nc/Uhg&M'PcMrC~>
d/O(GY5\J%nc/Uhg&M'PcMrC~>
d/O(GY5\J%nG`Igg&M'PcMrC~>
d/O(GY5\J%nG`Igg&M'PcMrC~>
d/O(GY5\J%nG`Igg&M'PcMrC~>
d/O(GY5\J%nG`Igf`(pOcMrC~>
d/O(GY5\J%nG`Igf`(pOcMrC~>
d/O(GY5\J%nG`Igf`(pOcMrC~>
d/O(GY5\J%nG`Igf`(pOcMrC~>
d/O(GY5\J%nG`Igf`(pOcMrC~>
d/O(GY5\J%nG`Igf`(pOcMrC~>
d/O(GY5\J%nG`Igf`(pOcMrC~>
d/O(GY5\J%nG`Igf`(pOcMrC~>
d/O(GY5\J%nG`Igf`(pOcMrC~>
d/O(GY5\J%nG`Igf`(pOcMrC~>
d/O(GY5\J%nG`Igf`(pOcMrC~>
d/O(GY5\J%nG`Igf`(pOcMrC~>
d/O(GY5\J%nG`Igf`(pOcMrC~>
d/O(GY5\J%nG`Igf`(pOcMrC~>
d/O(GY5\J%nG`Igf`(pOcMrC~>
d/O(GY5\J%nG`Igf`(pOcMrC~>
d/O(GY5\J%nG`Igf`(pOcMrC~>
d/O(GY5\J%nG`Igf`(pOcMrC~>
d/O(GY5\J%nG`Igf`(pOcMrC~>
d/O(GY5\J%nG`Igf`(pOcMrC~>
d/O(GY5\J%nG`Igf`(pOcMrC~>
d/O(GY5dnif`(pOcMrC~>
d/O(GY5dnif`(pOcMrC~>
d/O(GY5dnif`(pOcMrC~>
d/O(GSGrQhf`(pOcMrC~>
d/O(GSGrQhf`(pOcMrC~>
d/O(GSGrQhf`(pOcMrC~>
d/O(GSGrQhf`(pOcMrC~>
d/O(GSGrQhf`(pOcMrC~>
d/O(GSGrQhf`(pOcMrC~>
d/O(GSGrQhl2L_`nc&RhcMrC~>
d/O(GSGrQhl2L_`nc&RhcMrC~>
d/O(GSGrQhl2L_`nc&RhcMrC~>
d/O(GSGrQhmJm(anc&RhcMrC~>
d/O(GSGrQhmJm(anc&RhcMrC~>
d/O(GSGrQhmJm(anc&RhcMrC~>
d/O(GSGrQhnc/LemJd.dcMrC~>
d/O(GSGrQhnc/LemJd.dcMrC~>
d/O(GSGrQhnc/LemJd.dcMrC~>
d/O(GSGrQhnc/Rgli-qbcMrC~>
d/O(GSGrQhnc/Rgli-qbcMrC~>
d/O(GSGrQhnc/Rgli-qbcMrC~>
rVlitrVlitgA_-QSGrQhn,N=dmf*7ecMrC~>
rVlitrVlitgA_-QSGrQhn,N=dmf*7ecMrC~>
rVlitrVlitgA_-QSGrQhn,N=dmf*7ecMrC~>
oDm_I!!&Ph!!)Bcr;cBf!!(jTp]13kJ,~>
oDm_I!!&Ph!!)Bcr;cBf!!(jTp]13kJ,~>
oDm_I!!&Ph!!)Bcr;cBf!!(jTp]13kJ,~>
rW)fpr;b^S!!&Ph!!)?brW)Kg!!(sWnc8[hJ,~>
rW)fpr;b^S!!&Ph!!)?brW)Kg!!(sWnc8[hJ,~>
rW)fpr;b^S!!&Ph!!)?brW)Kg!!(sWnc8[hJ,~>
"9AK%!!)ut!W`9#r;bdU!!&Ph!!)Her;c<d!!)!Xn,WLgJ,~>
"9AK%!!)ut!W`9#r;bdU!!&Ph!!)Her;c<d!!)!Xn,WLgJ,~>
"9AK%!!)ut!W`9#r;bdU!!&Ph!!)Her;c<d!!)!Xn,WLgJ,~>
!<;`ms8W&uiVrlXSGrQhnc/Rgli-qbirAEH!<7Q~>
!<;`ms8W&uiVrlXSGrQhnc/Rgli-qbirAEH!<7Q~>
!<;`ms8W&uiVrlXSGrQhnc/Rgli-qbirAEH!<7Q~>
o)JdjrW(sX!!&Ph!!)Qhr;c3a!!)'Zli;P~>
o)JdjrW(sX!!&Ph!!)Qhr;c3a!!)'Zli;P~>
o)JdjrW(sX!!&Ph!!)Qhr;c3a!!)'Zli;P~>
nc/[irW)!Y!!&Ph!!)HequH6d!!)*[lMuG~>
nc/[irW)!Y!!&Ph!!)HequH6d!!)*[lMuG~>
nc/[irW)!Y!!&Ph!!)HequH6d!!)*[lMuG~>
nGiXj!!)'Z!!&Ph!!)9`!!)Qh!!)-\l2Z>~>
nGiXj!!)'Z!!&Ph!!)9`!!)Qh!!)-\l2Z>~>
nGiXj!!)'Z!!&Ph!!)9`!!)Qh!!)-\l2Z>~>
n,NOi!!)ZkrrDZj!!&Ph!!([O!!)]lrrDZjl2Z>~>
n,NOi!!)ZkrrDZj!!&Ph!!([O!!)]lrrDZjl2Z>~>
n,NOi!!)ZkrrDZj!!&Ph!!([O!!)]lrrDZjl2Z>~>
n,NOi!!)`mrrDTh!!&Ph!!)Qhq>g!a!!)cnrrDWikl?5~>
n,NOi!!)`mrrDTh!!&Ph!!)Qhq>g!a!!)cnrrDWikl?5~>
n,NOi!!)`mrrDTh!!&Ph!!)Qhq>g!a!!)cnrrDWikl?5~>
mf3Fh!!)iprrDNf!!&Ph!!)Bc!!)He!!)iprrDQgkl?5~>
mf3Fh!!)iprrDNf!!&Ph!!)Bc!!)He!!)iprrDQgkl?5~>
mf3Fh!!)iprrDNf!!&Ph!!)Bc!!)He!!)iprrDQgkl?5~>
mf3Fh!!)orrrDHd!!&Ph!!)?b!!)Kf!!)orrrDKekl?5~>
mf3Fh!!)orrrDHd!!&Ph!!)?b!!)Kf!!)orrrDKekl?5~>
mf3Fh!!)orrrDHd!!&Ph!!)?b!!)Kf!!)orrrDKekl?5~>
mf3Fh!!)utrrDBb!!&Ph!!([O!!)utrrDHdkQ$,~>
mf3Fh!!)utrrDBb!!&Ph!!([O!!)utrrDHdkQ$,~>
mf3Fh!!)utrrDBb!!&Ph!!([O!!)utrrDHdkQ$,~>
mf<Cf"9AK%!!)9`!!&Ph!!([O"9AK%!!)?bkQ$,~>
mf<Cf"9AK%!!)9`!!&Ph!!([O"9AK%!!)?bkQ$,~>
mf<Cf"9AK%!!)9`!!&Ph!!([O"9AK%!!)?bkQ$,~>
mJm7erW)-]!!&Ph!!)Qhq>^Qr!:g*g!9sOI!.Y~>
mJm7erW)-]!!&Ph!!)Qhq>^Qr!:g*g!9sOI!.Y~>
mJm7erW)-]!!&Ph!!)Qhq>^Qr!:g*g!9sOI!.Y~>
mJm7eirGVL!!([OblE7~>
mJm7eirGVL!!([OblE7~>
mJm7eirGVL!!([OblE7~>
mf<Cf!s&?$!9jF_!1a&h!:0Xb!:Tse!9sOI!.Y~>
mf<Cf!s&?$!9jF_!1a&h!:0Xb!:Tse!9sOI!.Y~>
mf<Cf!s&?$!9jF_!1a&h!:0Xb!:Tse!9sOI!.Y~>
mf3Fh!!*#urrD?a!!&Ph!!)Qhp]0ja"9AK%!!)?bkQ$,~>
mf3Fh!!*#urrD?a!!&Ph!!)Qhp]0ja"9AK%!!)?bkQ$,~>
mf3Fh!!*#urrD?a!!&Ph!!)Qhp]0ja"9AK%!!)?bkQ$,~>
mf3Fh!!)rsrrDEc!!&Ph!!)Qh!!)rs!!)Kf!!)utrrDEckl?5~>
mf3Fh!!)rsrrDEc!!&Ph!!)Qh!!)rs!!)Kf!!)utrrDEckl?5~>
mf3Fh!!)rsrrDEc!!&Ph!!)Qh!!)rs!!)Kf!!)utrrDEckl?5~>
mf3Fh!!)lqrrDKe!!&Ph!!([O!!)orrrDKekl?5~>
mf3Fh!!)lqrrDKe!!&Ph!!([O!!)orrrDKekl?5~>
mf3Fh!!)lqrrDKe!!&Ph!!([O!!)orrrDKekl?5~>
m/Zn\rrDQg!!&Ph!!)Ngr;c6b!!)iprrDQgkl?5~>
m/Zn\rrDQg!!&Ph!!)Ngr;c6b!!)iprrDQgkl?5~>
m/Zn\rrDQg!!&Ph!!)Ngr;c6b!!)iprrDQgkl?5~>
n,NOi!!)]lrrDWi!!&Ph!!)Qhrr<3%!<3$!n,E@fp](6nnc.kSJ,~>
n,NOi!!)]lrrDWi!!&Ph!!)Qhrr<3%!<3$!n,E@fp](6nnc.kSJ,~>
n,NOi!!)]lrrDWi!!&Ph!!)Qhrr<3%!<3$!n,E@fp](6nnc.kSJ,~>
nGiRhrW)Qi!!)Wj!!&Ph!!)Qh"p"]'!<<'!n,E@fp&G$loDe(UJ,~>
nGiRhrW)Qi!!)Wj!!&Ph!!)Qh"p"]'!<<'!n,E@fp&G$loDe(UJ,~>
nGiRhrW)Qi!!)Wj!!&Ph!!)Qh"p"]'!<<'!n,E@fp&G$loDe(UJ,~>
nc/[irW)!Y!!&Ph!!)Qh"p"]'!<<'!n,E@fjT"NGJ,~>
nc/[irW)!Y!!&Ph!!)Qh"p"]'!<<'!n,E@fjT"NGJ,~>
nc/[irW)!Y!!&Ph!!)Qh"p"]'!<<'!n,E@fjT"NGJ,~>
o)SgjrrD'Y!!&Ph!!)Qh"p"]'!<3$!n,E@fjT"NGJ,~>
o)SgjrrD'Y!!&Ph!!)Qh"p"]'!<3$!n,E@fjT"NGJ,~>
o)SgjrrD'Y!!&Ph!!)Qh"p"]'!<3$!n,E@fjT"NGJ,~>
oDemkrW(pW!!&Ph!!)Ng!<E0!!:Kje!9=+G!.Y~>
oDemkrW(pW!!&Ph!!)Ng!<E0!!:Kje!9=+G!.Y~>
oDemkrW(pW!!&Ph!!)Ng!<E0!!:Kje!9=+G!.Y~>
s8Vios8W&ui;WcWSGrQhf`(pOiW&BIs8RT~>
s8Vios8W&ui;WcWSGrQhf`(pOiW&BIs8RT~>
s8Vios8W&ui;WcWSGrQhf`(pOiW&BIs8RT~>
rrDior;baT!!&Ph!!)KfrrDEc!!(sWnc8[hJ,~>
rrDior;baT!!&Ph!!)KfrrDEc!!(sWnc8[hJ,~>
rrDior;baT!!&Ph!!)KfrrDEc!!(sWnc8[hJ,~>
qZ$WrqZ,IP!!&Ph!!)Tip]0g`!!(mUp&P$jJ,~>
qZ$WrqZ,IP!!&Ph!!)Tip]0g`!!(mUp&P$jJ,~>
qZ$WrqZ,IP!!&Ph!!)Tip]0g`!!(mUp&P$jJ,~>
s8Viog]%6RSGrQho`+pkq#:<onc&RhgAh*Oq>Ys~>
s8Viog]%6RSGrQho`+pkq#:<onc&RhgAh*Oq>Ys~>
s8Viog]%6RSGrQho`+pkq#:<onc&RhgAh*Oq>Ys~>
d/O(GSGrQhf`(pOcMrC~>
d/O(GSGrQhf`(pOcMrC~>
d/O(GSGrQhf`(pOcMrC~>
d/O(GSGrQhf`(pOcMrC~>
d/O(GSGrQhf`(pOcMrC~>
d/O(GSGrQhf`(pOcMrC~>
d/O(GSGrQho`+pkq#:<onc&RhcMrC~>
d/O(GSGrQho`+pkq#:<onc&RhcMrC~>
d/O(GSGrQho`+pkq#:<onc&RhcMrC~>
d/O(GSGrQho)JLcn,E@fcMrC~>
d/O(GSGrQho)JLcn,E@fcMrC~>
d/O(GSGrQho)JLcn,E@fcMrC~>
d/O(GSGrQhf`(pOcMrC~>
d/O(GSGrQhf`(pOcMrC~>
d/O(GSGrQhf`(pOcMrC~>
d/O(GSGrQhf`(pOcMrC~>
d/O(GSGrQhf`(pOcMrC~>
d/O(GSGrQhf`(pOcMrC~>
d/O(GSGrQhf`(pOcMrC~>
d/O(GSGrQhf`(pOcMrC~>
d/O(GSGrQhf`(pOcMrC~>
d/O(GY5dnif`(pOcMrC~>
d/O(GY5dnif`(pOcMrC~>
d/O(GY5dnif`(pOcMrC~>
d/O(GY5\J%nG`Igf`(pOcMrC~>
d/O(GY5\J%nG`Igf`(pOcMrC~>
d/O(GY5\J%nG`Igf`(pOcMrC~>
d/O(GY5\J%nG`Igf`(pOcMrC~>
d/O(GY5\J%nG`Igf`(pOcMrC~>
d/O(GY5\J%nG`Igf`(pOcMrC~>
d/O(GY5\J%nG`Igf`(pOcMrC~>
d/O(GY5\J%nG`Igf`(pOcMrC~>
d/O(GY5\J%nG`Igf`(pOcMrC~>
s8Vcmh>[HTY5\J%nG`Igf`(pOcMrC~>
s8Vcmh>[HTY5\J%nG`Igf`(pOcMrC~>
s8Vcmh>[HTY5\J%nG`Igf`(pOcMrC~>
s8N'!rVlitrVlith>[HTY5\J%nG`Igf`(pOcMrC~>
s8N'!rVlitrVlith>[HTY5\J%nG`Igf`(pOcMrC~>
s8N'!rVlitrVlith>[HTY5\J%nG`Igf`(pOcMrC~>
s8N'!rVlitrVlith>[HTY5\J%nG`Igf`(pOcMrC~>
s8N'!rVlitrVlith>[HTY5\J%nG`Igf`(pOcMrC~>
s8N'!rVlitrVlith>[HTY5\J%nG`Igf`(pOcMrC~>
s8N'!rVlitrVlith>[HTY5\J%nG`Igf`(pOgAgmIs8RT~>
s8N'!rVlitrVlith>[HTY5\J%nG`Igf`(pOgAgmIs8RT~>
s8N'!rVlitrVlith>[HTY5\J%nG`Igf`(pOgAgmIs8RT~>
s8N'!rVlitrVlith>[HTY5\J%nG`Igg&M'PgAgmIs8RT~>
s8N'!rVlitrVlith>[HTY5\J%nG`Igg&M'PgAgmIs8RT~>
s8N'!rVlitrVlith>[HTY5\J%nG`Igg&M'PgAgmIs8RT~>
s8N'!rVlitrVlith>[HTY5\J%nG`Igg&M'PgA_-QrVlitrr3$"s8RT~>
s8N'!rVlitrVlith>[HTY5\J%nG`Igg&M'PgA_-QrVlitrr3$"s8RT~>
s8N'!rVlitrVlith>[HTY5\J%nG`Igg&M'PgA_-QrVlitrr3$"s8RT~>
s8N'!rVlitrVlith>[HTY5\J%nG`Igg&D$Pg&D$PrVlitrr3$"s8RT~>
s8N'!rVlitrVlith>[HTY5\J%nG`Igg&D$Pg&D$PrVlitrr3$"s8RT~>
s8N'!rVlitrVlith>[HTY5\J%nG`Igg&D$Pg&D$PrVlitrr3$"s8RT~>
s8N'!e,KCJY5\J%nGiLggAh0QgA_-QrVlitrr3$"s8RT~>
s8N'!e,KCJY5\J%nGiLggAh0QgA_-QrVlitrr3$"s8RT~>
s8N'!e,KCJY5\J%nGiLggAh0QgA_-QrVlitrr3$"s8RT~>
d/O(GY5\J%nGiLggA_-Qg&D$PrVlitrr3$"s8RT~>
d/O(GY5\J%nGiLggA_-Qg&D$PrVlitrr3$"s8RT~>
d/O(GY5\J%nGiLggA_-Qg&D$PrVlitrr3$"s8RT~>
d/O(GY5\J%nGiLgg].9Rg&D$Prr;rt"TJH%s8RT~>
d/O(GY5\J%nGiLgg].9Rg&D$Prr;rt"TJH%s8RT~>
d/O(GY5\J%nGiLgg].9Rg&D$Prr;rt"TJH%s8RT~>
s8VlpgA_-QY5\J%n,NCfh#IBSg&LsM!<<#urr7K~>
s8VlpgA_-QY5\J%n,NCfh#IBSg&LsM!<<#urr7K~>
s8VlpgA_-QY5\J%n,NCfh#IBSg&LsM!<<#urr7K~>
q>UEpg&D$PY5\J%n,NCfh>dKTbl<1~>
q>UEpg&D$PY5\J%n,NCfh>dKTbl<1~>
q>UEpg&D$PY5\J%n,NCfh>dKTbl<1~>
q#:<ogA_-QY5\J%mf3:ehuEZUbl<1~>
q#:<ogA_-QY5\J%mf3:ehuEZUbl<1~>
q#:<ogA_-QY5\J%mf3:ehuEZUbl<1~>
q#:<ogA_-QY5\J%mf37di;`fWf)PXJqu;0~>
q#:<ogA_-QY5\J%mf37di;`fWf)PXJqu;0~>
q#:<ogA_-QY5\J%mf37di;`fWf)PXJqu;0~>
q>^HpgA_-QY5\J%mJm.cirB#Yf)GpSs8N*!!!)rsJ,~>
q>^HpgA_-QY5\J%mJm.cirB#Yf)GpSs8N*!!!)rsJ,~>
q>^HpgA_-QY5\J%mJm.cirB#Yf)GpSs8N*!!!)rsJ,~>
s8Voqg&D$PY5\J%m/R%bjo>;[f)PaMs8N0$s8N)ss*t~>
s8Voqg&D$PY5\J%m/R%bjo>;[f)PaMs8N0$s8N)ss*t~>
s8Voqg&D$PY5\J%m/R%bjo>;[f)PaMs8N0$s8N)ss*t~>
d/O(GY5\J%li6n`kl:V^ec,ULrr3*$s8N'!rVqB~>
d/O(GY5\J%li6n`kl:V^ec,ULrr3*$s8N'!rVqB~>
d/O(GY5\J%li6n`kl:V^ec,ULrr3*$s8N'!rVqB~>
rVufrf`(pOY5\J%l2U\^mJm(aeGoOKs8N0$s8N)ss*t~>
rVufrf`(pOY5\J%l2U\^mJm(aeGoOKs8N0$s8N)ss*t~>
rVufrf`(pOY5\J%l2U\^mJm(aeGoOKs8N0$s8N)ss*t~>
rr;iqg&D$PY5\J%kPtDZo`+dgdJs4H!<;utr;V9~>
rr;iqg&D$PY5\J%kPtDZo`+dgdJs4H!<;utr;V9~>
rr;iqg&D$PY5\J%kPtDZo`+dgdJs4H!<;utr;V9~>
s8N'!r;ZcsgA_-QY5\J%jT"ZKbl7bFrr<&qs*t~>
s8N'!r;ZcsgA_-QY5\J%jT"ZKbl7bFrr<&qs*t~>
s8N'!r;ZcsgA_-QY5\J%jT"ZKbl7bFrr<&qs*t~>
s8N'!qu6WrgA_-QY5\J%P5g%~>
s8N'!qu6WrgA_-QY5\J%P5g%~>
s8N'!qu6WrgA_-QY5\J%P5g%~>
s8N'!qu6WrgA_-QY5\J%T`5&ns8Vusqu;0~>
s8N'!qu6WrgA_-QY5\J%T`5&ns8Vusqu;0~>
s8N'!qu6WrgA_-QY5\J%T`5&ns8Vusqu;0~>
s8W*!rVlitg&D$PY5\J%U&P5qs8N'!rr;uur;V9~>
s8W*!rVlitg&D$PY5\J%U&P5qs8N'!rr;uur;V9~>
s8W*!rVlitg&D$PY5\J%U&P5qs8N'!rr;uur;V9~>
s8Vcmh>[HTY5\J%UAt5n!ri6#r;Q`sr;V9~>
s8Vcmh>[HTY5\J%UAt5n!ri6#r;Q`sr;V9~>
s8Vcmh>[HTY5\J%UAt5n!ri6#r;Q`sr;V9~>
d/O(GY5\J%UAk;qs8N)rs8N)ts*t~>
d/O(GY5\J%UAk;qs8N)rs8N)ts*t~>
d/O(GY5\J%UAk;qs8N)rs8N)ts*t~>
d/O(GY5\J%U&P2ps8N)srr<&ss*t~>
d/O(GY5\J%U&P2ps8N)srr<&ss*t~>
d/O(GY5\J%U&P2ps8N)srr<&ss*t~>
rr;iqg&D$PY5\J%U&Xlfqu;0~>
rr;iqg&D$PY5\J%U&Xlfqu;0~>
rr;iqg&D$PY5\J%U&Xlfqu;0~>
s8W*!rVlitg&D$PY5\J%TE"]er;V9~>
s8W*!rVlitg&D$PY5\J%TE"]er;V9~>
s8W*!rVlitg&D$PY5\J%TE"]er;V9~>
s8N'!qu6WrgA_-QY5\J%P5g%~>
s8N'!qu6WrgA_-QY5\J%P5g%~>
s8N'!qu6WrgA_-QY5\J%P5g%~>
s8N'!qu6WrgA_-QY5\J%P5g%~>
s8N'!qu6WrgA_-QY5\J%P5g%~>
s8N'!qu6WrgA_-QY5\J%P5g%~>
s8N'!qu6WrgA_-QY5\J%T)\Wes8N-#s8RT~>
s8N'!qu6WrgA_-QY5\J%T)\Wes8N-#s8RT~>
s8N'!qu6WrgA_-QY5\J%T)\Wes8N-#s8RT~>
s8W*!s8W&ug&D$Pjo=]JhZ!QUP5g%~>
s8W*!s8W&ug&D$Pjo=]JhZ!QUP5g%~>
s8W*!s8W&ug&D$Pjo=]JhZ!QUP5g%~>
qu?Zrf`(pOkl:P\nc/LeiVrlXP5g%~>
qu?Zrf`(pOkl:P\nc/LeiVrlXP5g%~>
qu?Zrf`(pOkl:P\nc/LeiVrlXP5g%~>
d/O(GlMpe_li6n`j8T)ZT)\Wer;V9~>
d/O(GlMpe_li6n`j8T)ZT)\Wer;V9~>
d/O(GlMpe_li6n`j8T)ZT)\Wer;V9~>
d/O(Gli6qakPtM]jSo2[RK!6equ;0~>
d/O(Gli6qakPtM]jSo2[RK!6equ;0~>
d/O(Gli6qakPtM]jSo2[RK!6equ;0~>
d/O(Gm/R%bjo>;[jo5;\R/[-dr;V9~>
d/O(Gm/R%bjo>;[jo5;\R/[-dr;V9~>
d/O(Gm/R%bjo>;[jo5;\R/[-dr;V9~>
d/O(GmJm1diW&oXk5PD]R/d0drVqB~>
d/O(GmJm1diW&oXk5PD]R/d0drVqB~>
d/O(GmJm1diW&oXk5PD]R/d0drVqB~>
d/O(Gmf3:ehuE]VkPkM^R/[-dr;V9~>
d/O(Gmf3:ehuE]VkPkM^R/[-dr;V9~>
d/O(Gmf3:ehuE]VkPkM^R/[-dr;V9~>
d/O(Gn,N@ehuEZUkl1V_T)\Wer;V9~>
d/O(Gn,N@ehuEZUkl1V_T)\Wer;V9~>
d/O(Gn,N@ehuEZUkl1V_T)\Wer;V9~>
d/O(Gn,NCfh>dKTkl1V_P5g%~>
d/O(Gn,NCfh>dKTkl1V_P5g%~>
d/O(Gn,NCfh>dKTkl1V_P5g%~>
d/O(GnGiLgg].9Rl2L_`P5g%~>
d/O(GnGiLgg].9Rl2L_`P5g%~>
d/O(GnGiLgg].9Rl2L_`P5g%~>
d/O(GnGiLgg].9Rl2L_`qu?BjY5e=ur;V9~>
d/O(GnGiLgg].9Rl2L_`qu?BjY5e=ur;V9~>
d/O(GnGiLgg].9Rl2L_`qu?BjY5e=ur;V9~>
d/O(GnGiLgo)JIboDegjl2L_`pAY*mrr2ruY5e=ur;V9~>
d/O(GnGiLgo)JIboDegjl2L_`pAY*mrr2ruY5e=ur;V9~>
d/O(GnGiLgo)JIboDegjl2L_`pAY*mrr2ruY5e=ur;V9~>
d/O(GnG`IgmJd.drr2ruo)A[il2L_`pAY*mrr2ruW;chtr;V9~>
d/O(GnG`IgmJd.drr2ruo)A[il2L_`pAY*mrr2ruW;chtr;V9~>
d/O(GnG`IgmJd.drr2ruo)A[il2L_`pAY*mrr2ruW;chtr;V9~>
d/O(Gnc/UhmJd.drr2ruo)J^ilMghapAY*mrr2ruW;lktrVqB~>
d/O(Gnc/UhmJd.drr2ruo)J^ilMghapAY*mrr2ruW;lktrVqB~>
d/O(Gnc/UhmJd.drr2ruo)J^ilMghapAY*mrr2ruW;lktrVqB~>
d/O(Gnc/UhmJd.drr2ruo)A[il2L_`pAY*mrr2ruW;lktrVqB~>
d/O(Gnc/UhmJd.drr2ruo)A[il2L_`pAY*mrr2ruW;lktrVqB~>
d/O(Gnc/UhmJd.drr2ruo)A[il2L_`pAY*mrr2ruW;lktrVqB~>
d/O(GnG`IgmJd.drr2ruo)A[il2L_`pAY*mrr2ruY5e=ur;V9~>
d/O(GnG`IgmJd.drr2ruo)A[il2L_`pAY*mrr2ruY5e=ur;V9~>
d/O(GnG`IgmJd.drr2ruo)A[il2L_`pAY*mrr2ruY5e=ur;V9~>
d/O(GnG`IgmJd.drr2ruo)A[il2L_`o)A[iY5eA!qu;0~>
d/O(GnG`IgmJd.drr2ruo)A[il2L_`o)A[iY5eA!qu;0~>
d/O(GnG`IgmJd.drr2ruo)A[il2L_`o)A[iY5eA!qu;0~>
d/O(GnG`Igl2L_`o)A[il2L_`P5g%~>
d/O(GnG`Igl2L_`o)A[il2L_`P5g%~>
d/O(GnG`Igl2L_`o)A[il2L_`P5g%~>
d/O(GnG`Ign,NCfmJd.dl2L_`q>^EoSc=3~>
d/O(GnG`Ign,NCfmJd.dl2L_`q>^EoSc=3~>
d/O(GnG`Ign,NCfmJd.dl2L_`q>^EoSc=3~>
d/O(GnG`Ignc/Idn,E@fl2L_`qu?NnT)X<~>
d/O(GnG`Ignc/Idn,E@fl2L_`qu?NnT)X<~>
d/O(GnG`Ignc/Idn,E@fl2L_`qu?NnT)X<~>
d/O(GnG`Ignc&dns8N*!rrDQg!!)9`!!)rsrrE*!!s&B$!2':A~>
d/O(GnG`Ignc&dns8N*!rrDQg!!)9`!!)rsrrE*!!s&B$!2':A~>
d/O(GnG`Ignc&dns8N*!rrDQg!!)9`!!)rsrrE*!!s&B$!2':A~>
d/O(GnG`Igo)A[irr3'#s8N)grr<&`rr<&srr<&urrW9$rrA\kJ,~>
d/O(GnG`Igo)A[irr3'#s8N)grr<&`rr<&srr<&urrW9$rrA\kJ,~>
d/O(GnG`Igo)A[irr3'#s8N)grr<&`rr<&srr<&urrW9$rrA\kJ,~>
d/O(GnG`Ignc&dns8N*!rrDQg!!)9`!!)rsrrE*!!s&B$!2':A~>
d/O(GnG`Ignc&dns8N*!rrDQg!!)9`!!)rsrrE*!!s&B$!2':A~>
d/O(GnG`Ignc&dns8N*!rrDQg!!)9`!!)rsrrE*!!s&B$!2':A~>
d/O(GnG`Ignc/Uh!<<#un,E@fl2L_`qu6j#s8N*!rrA\kJ,~>
d/O(GnG`Ignc/Uh!<<#un,E@fl2L_`qu6j#s8N*!rrA\kJ,~>
d/O(GnG`Ignc/Uh!<<#un,E@fl2L_`qu6j#s8N*!rrA\kJ,~>
d/O(GnG`Igmf3:emf*7el2L_`qu?Zr!<<#uT)X<~>
d/O(GnG`Igmf3:emf*7el2L_`qu?Zr!<<#uT)X<~>
d/O(GnG`Igmf3:emf*7el2L_`qu?Zr!<<#uT)X<~>
d/O(GnG`Igg&D$Pl2L_`P5g%~>
d/O(GnG`Igg&D$Pl2L_`P5g%~>
d/O(GnG`Igg&D$Pl2L_`P5g%~>
d/O(GnG`Ignc/@ao)A[il2L_`P5g%~>
d/O(GnG`Ignc/@ao)A[il2L_`P5g%~>
d/O(GnG`Ignc/@ao)A[il2L_`P5g%~>
d/O(GnG`Igm/I%cn,E@fl2L_`qu?BjUAo`~>
d/O(GnG`Igm/I%cn,E@fl2L_`qu?BjUAo`~>
d/O(GnG`Igm/I%cn,E@fl2L_`qu?BjUAo`~>
d/O(GnG`Igli-qbnG`Igl2L_`pAY*mT)X<~>
d/O(GnG`Igli-qbnG`Igl2L_`pAY*mT)X<~>
d/O(GnG`Igli-qbnG`Igl2L_`pAY*mT)X<~>
d/O(GnG`Igli-qbnG`Igl2L_`p&>!lTDsE~>
d/O(GnG`Igli-qbnG`Igl2L_`p&>!lTDsE~>
d/O(GnG`Igli-qbnG`Igl2L_`p&>!lTDsE~>
d/O(GnG`Ignc/FcnG`Igl2L_`p&>!lTDsE~>
d/O(GnG`Ignc/FcnG`Igl2L_`p&>!lTDsE~>
d/O(GnG`Ignc/FcnG`Igl2L_`p&>!lTDsE~>
d/O(GnG`Ignc/Idn,E@fl2L_`p&>!lTDsE~>
d/O(GnG`Ignc/Idn,E@fl2L_`p&>!lTDsE~>
d/O(GnG`Ignc/Idn,E@fl2L_`p&>!lTDsE~>
d/O(GnG`Igg&D$Pl2L_`qu?KmTDsE~>
d/O(GnG`Igg&D$Pl2L_`qu?KmTDsE~>
d/O(GnG`Igg&D$Pl2L_`qu?KmTDsE~>
d/O(GnG`Ignc/@ao)A[il2L_`P5g%~>
d/O(GnG`Ignc/@ao)A[il2L_`P5g%~>
d/O(GnG`Ignc/@ao)A[il2L_`P5g%~>
d/O(GnG`Igg&D$Pl2L_`P5g%~>
d/O(GnG`Igg&D$Pl2L_`P5g%~>
d/O(GnG`Igg&D$Pl2L_`P5g%~>
d/O(GnG`Igg&D$Pl2L_`qu?BjUAo`~>
d/O(GnG`Igg&D$Pl2L_`qu?BjUAo`~>
d/O(GnG`Igg&D$Pl2L_`qu?BjUAo`~>
d/O(GnG`IgnGiCdn,E@fl2L_`P5g%~>
d/O(GnG`IgnGiCdn,E@fl2L_`P5g%~>
d/O(GnG`IgnGiCdn,E@fl2L_`P5g%~>
d/O(GnG`Ignc&ams8N*!!:Tpf!9sL`!0[A4~>
d/O(GnG`Ignc&ams8N*!!:Tpf!9sL`!0[A4~>
d/O(GnG`Ignc&ams8N*!!:Tpf!9sL`!0[A4~>
d/O(GnG`Igo)J^is8N0$s8N)grr<&`rr<&qs8;qgs*t~>
d/O(GnG`Igo)J^is8N0$s8N)grr<&`rr<&qs8;qgs*t~>
d/O(GnG`Igo)J^is8N0$s8N)grr<&`rr<&qs8;qgs*t~>
d/O(GnG`Igo)A[irr3'#s8N)grr<&`rr<&rs7u_fs*t~>
d/O(GnG`Igo)A[irr3'#s8N)grr<&`rr<&rs7u_fs*t~>
d/O(GnG`Igo)A[irr3'#s8N)grr<&`rr<&rs7u_fs*t~>
d/O(GnG`Ignc&ams8N*!!:Tpf!9sL`!;uls!<<'$!<<'!TDsE~>
d/O(GnG`Ignc&ams8N*!!:Tpf!9sL`!;uls!<<'$!<<'!TDsE~>
d/O(GnG`Ignc&ams8N*!!:Tpf!9sL`!;uls!<<'$!<<'!TDsE~>
d/O(GnG`IgnG`Lhs8E#err<&`rr<&srr<&urrW9$rrA\kJ,~>
d/O(GnG`IgnG`Lhs8E#err<&`rr<&srr<&urrW9$rrA\kJ,~>
d/O(GnG`IgnG`Lhs8E#err<&`rr<&srr<&urrW9$rrA\kJ,~>
d/O(GnG`Igg&D$Pl2L_`r;Zcss8N0$s8N(ks*t~>
d/O(GnG`Igg&D$Pl2L_`r;Zcss8N0$s8N(ks*t~>
d/O(GnG`Igg&D$Pl2L_`r;Zcss8N0$s8N(ks*t~>
d/O(GnG`Igg&D$Pl2L_`qu6j#s8N*!!!&YkJ,~>
d/O(GnG`Igg&D$Pl2L_`qu6j#s8N*!!!&YkJ,~>
d/O(GnG`Igg&D$Pl2L_`qu6j#s8N*!!!&YkJ,~>
d/O(GnG`Ignc/FcnG`Igl2L_`qYpQrs8E"is*t~>
d/O(GnG`Ignc/FcnG`Igl2L_`qYpQrs8E"is*t~>
d/O(GnG`Ignc/FcnG`Igl2L_`qYpQrs8E"is*t~>
d/O(GnG`Igm/R(cnG`Igl2L_`P5g%~>
d/O(GnG`Igm/R(cnG`Igl2L_`P5g%~>
d/O(GnG`Igm/R(cnG`Igl2L_`P5g%~>
d/O(GnG`Igli-qbnG`Igl2L_`P5g%~>
d/O(GnG`Igli-qbnG`Igl2L_`P5g%~>
d/O(GnG`Igli-qbnG`Igl2L_`P5g%~>
d/O(GnG`Igg&D$Pl2L_`qu?KmTDsE~>
d/O(GnG`Igg&D$Pl2L_`qu?KmTDsE~>
d/O(GnG`Igg&D$Pl2L_`qu?KmTDsE~>
d/O(GnG`Ignc/@ao)A[il2L_`pAY*mT)X<~>
d/O(GnG`Ignc/@ao)A[il2L_`pAY*mT)X<~>
d/O(GnG`Ignc/@ao)A[il2L_`pAY*mT)X<~>
d/O(GnG`Ignc&RhrVlitn,E@fl2L_`p&>!lTDsE~>
d/O(GnG`Ignc&RhrVlitn,E@fl2L_`p&>!lTDsE~>
d/O(GnG`Ignc&RhrVlitn,E@fl2L_`p&>!lTDsE~>
d/O(GnG`Igo)A[iqu6WrnG`Igl2L_`p&>!lTDsE~>
d/O(GnG`Igo)A[iqu6WrnG`Igl2L_`p&>!lTDsE~>
d/O(GnG`Igo)A[iqu6WrnG`Igl2L_`p&>!lTDsE~>
d/O(GnG`Igo)J^ir;Q`snG`Igl2L_`P5g%~>
d/O(GnG`Igo)J^ir;Q`snG`Igl2L_`P5g%~>
d/O(GnG`Igo)J^ir;Q`snG`Igl2L_`P5g%~>
d/O(GnG`Ignc/Uhrr2run,E@fl2L_`P5g%~>
d/O(GnG`Ignc/Uhrr2run,E@fl2L_`P5g%~>
d/O(GnG`Ignc/Uhrr2run,E@fl2L_`P5g%~>
d/O(GnG`IgnGiFemf*7el2L_`P5g%~>
d/O(GnG`IgnGiFemf*7el2L_`P5g%~>
d/O(GnG`IgnGiFemf*7el2L_`P5g%~>
d/O(GnG`Igg&D$Pl2L_`P5g%~>
d/O(GnG`Igg&D$Pl2L_`P5g%~>
d/O(GnG`Igg&D$Pl2L_`P5g%~>
d/O(GnG`IgnGiCdn,E@foD\djq#:<oP5g%~>
d/O(GnG`IgnGiCdn,E@foD\djq#:<oP5g%~>
d/O(GnG`IgnGiCdn,E@foD\djq#:<oP5g%~>
d/O(GnG`Ignc&ams8N*!!:Tpf!;6Bl!;HKn!0[A4~>
d/O(GnG`Ignc&ams8N*!!:Tpf!;6Bl!;HKn!0[A4~>
d/O(GnG`Ignc&ams8N*!!:Tpf!;6Bl!;HKn!0[A4~>
d/O(GnG`Igo)J^is8N0$s8N)grr<&ns8N)lrr<%^s*t~>
d/O(GnG`Igo)J^is8N0$s8N)grr<&ns8N)lrr<%^s*t~>
d/O(GnG`Igo)J^is8N0$s8N)grr<&ns8N)lrr<%^s*t~>
d/O(GnG`Igo)A[irr3'#s8N)grr<&ps8N)jrr<%^s*t~>
d/O(GnG`Igo)A[irr3'#s8N)grr<&ps8N)jrr<%^s*t~>
d/O(GnG`Igo)A[irr3'#s8N)grr<&ps8N)jrr<%^s*t~>
d/O(GnG`Ignc&dns8N*!!!)Ng!!)orrrDTh!!&2^J,~>
d/O(GnG`Ignc&dns8N*!!!)Ng!!)orrrDTh!!&2^J,~>
d/O(GnG`Ignc&dns8N*!!!)Ng!!)orrrDTh!!&2^J,~>
d/O(GnG`IgnG`Lhs8E#err<&ts8N)frr<%^s*t~>
d/O(GnG`IgnG`Lhs8E#err<&ts8N)frr<%^s*t~>
d/O(GnG`IgnG`Lhs8E#err<&ts8N)frr<%^s*t~>
d/O(GnG`Igg&D0Ts8N'!mJd.dP5g%~>
d/O(GnG`Igg&D0Ts8N'!mJd.dP5g%~>
d/O(GnG`Igg&D0Ts8N'!mJd.dP5g%~>
d/WM6g&L48P5g%~>
d/WM6g&L48P5g%~>
d/WM6g&L48P5g%~>
^Ae05nc/@ao)J[hJcGWIJ,~>
^Ae05nc/@ao)J[hJcGWIJ,~>
^Ae05nc/@ao)J[hJcGWIJ,~>
^Ae05m/I%cn,ELjs8N'!JcG]KJ,~>
^Ae05m/I%cn,ELjs8N'!JcG]KJ,~>
^Ae05m/I%cn,ELjs8N'!JcG]KJ,~>
^Ae05li-qbnG`IgrVultJcGcMJ,~>
^Ae05li-qbnG`IgrVultJcGcMJ,~>
^Ae05li-qbnG`IgrVultJcGcMJ,~>
^Ae05li-qbnG`Igqu?ZrJcC6~>
^Ae05li-qbnG`Igqu?ZrJcC6~>
^Ae05li-qbnG`Igqu?ZrJcC6~>
^Ae05nc/Idn,E@fq>^HpKE$H~>
^Ae05nc/Idn,E@fq>^HpKE$H~>
^Ae05nc/Idn,E@fq>^HpKE$H~>
^Ae05g&D$Pp](6nL&ZZ~>
^Ae05g&D$Pp](6nL&ZZ~>
^Ae05g&D$Pp](6nL&ZZ~>
^Ae05nG`Igli-qbp&G$lL];l~>
^Ae05nG`Igli-qbp&G$lL];l~>
^Ae05nG`Igli-qbp&G$lL];l~>
^Ae05nc&amrrE*!!:Tpf!;$3j!/UZ*~>
^Ae05nc&amrrE*!!:Tpf!;$3j!/UZ*~>
^Ae05nc&amrrE*!!:Tpf!;$3j!/UZ*~>
^Ae05o)A[irr3'#s8N)grr<%Ms7u\F~>
^Ae05o)A[irr3'#s8N)grr<%Ms7u\F~>
^Ae05o)A[irr3'#s8N)grr<%Ms7u\F~>
^Ae05nc&dns8N*!rrDQg!!%TMq>Ys~>
^Ae05nc&dns8N*!rrDQg!!%TMq>Ys~>
^Ae05nc&dns8N*!rrDQg!!%TMq>Ys~>
^Ae05nc&dns8N*!rrDQg!!%TMq>Ys~>
^Ae05nc&dns8N*!rrDQg!!%TMq>Ys~>
^Ae05nc&dns8N*!rrDQg!!%TMq>Ys~>
^Ae05nc/Idn,E@fJcGQGJ,~>
^Ae05nc/Idn,E@fJcGQGJ,~>
^Ae05nc/Idn,E@fJcGQGJ,~>
^Ae05o)A[il2L_`JcGQGJ,~>
^Ae05o)A[il2L_`JcGQGJ,~>
^Ae05o)A[il2L_`JcGQGJ,~>
^Ae05g&D$PJcGQGJ,~>
^Ae05g&D$PJcGQGJ,~>
^Ae05g&D$PJcGQGJ,~>
^Ae05nc/FcnG`IgJcGQGJ,~>
^Ae05nc/FcnG`IgJcGQGJ,~>
^Ae05nc/FcnG`IgJcGQGJ,~>
^Ae05m/I%cn,E@fJcGQGJ,~>
^Ae05m/I%cn,E@fJcGQGJ,~>
^Ae05m/I%cn,E@fJcGQGJ,~>
^Ae05li-qbnG`IgJcGQGJ,~>
^Ae05li-qbnG`IgJcGQGJ,~>
^Ae05li-qbnG`IgJcGQGJ,~>
^Ae05li-qbnG`IgJcGQGJ,~>
^Ae05li-qbnG`IgJcGQGJ,~>
^Ae05li-qbnG`IgJcGQGJ,~>
^Ae05nc/FcnG`IgJcGQGJ,~>
^Ae05nc/FcnG`IgJcGQGJ,~>
^Ae05nc/FcnG`IgJcGQGJ,~>
^Ae05nc/Idn,E@fJcGQGJ,~>
^Ae05nc/Idn,E@fJcGQGJ,~>
^Ae05nc/Idn,E@fJcGQGJ,~>
^Ae05g&D$PJcGQGJ,~>
^Ae05g&D$PJcGQGJ,~>
^Ae05g&D$PJcGQGJ,~>
^Ae05nGiFemf*7eJcGQGJ,~>
^Ae05nGiFemf*7eJcGQGJ,~>
^Ae05nGiFemf*7eJcGQGJ,~>
^Ae05nc&RhrVultnG`IgJcGQGJ,~>
^Ae05nc&RhrVultnG`IgJcGQGJ,~>
^Ae05nc&RhrVultnG`IgJcGQGJ,~>
^Ae05o)J^ir;Q`snG`IgJcGQGJ,~>
^Ae05o)J^ir;Q`snG`IgJcGQGJ,~>
^Ae05o)J^ir;Q`snG`IgJcGQGJ,~>
^Ae05o)A[iqu6WrnG`IgJcGQGJ,~>
^Ae05o)A[iqu6WrnG`IgJcGQGJ,~>
^Ae05o)A[iqu6WrnG`IgJcGQGJ,~>
^Ae05nc&RhrVlitn,E@fJcGQGJ,~>
^Ae05nc&RhrVlitn,E@fJcGQGJ,~>
^Ae05nc&RhrVlitn,E@fJcGQGJ,~>
^Ae05nc/@ao)A[iJcGQGJ,~>
^Ae05nc/@ao)A[iJcGQGJ,~>
^Ae05nc/@ao)A[iJcGQGJ,~>
^Ae05g&D$PJcGQGJ,~>
^Ae05g&D$PJcGQGJ,~>
^Ae05g&D$PJcGQGJ,~>
^Ae05g&D$PJcGQGJ,~>
^Ae05g&D$PJcGQGJ,~>
^Ae05g&D$PJcGQGJ,~>
^Ae05nc/@ao)A[iJcGQGJ,~>
^Ae05nc/@ao)A[iJcGQGJ,~>
^Ae05nc/@ao)A[iJcGQGJ,~>
^Ae05g&D$PJcGQGJ,~>
^Ae05g&D$PJcGQGJ,~>
^Ae05g&D$PJcGQGJ,~>
^Ae05g&D$PJcGQGJ,~>
^Ae05g&D$PJcGQGJ,~>
^Ae05g&D$PJcGQGJ,~>
^Ae05nc/FcnG`IgJcGQGJ,~>
^Ae05nc/FcnG`IgJcGQGJ,~>
^Ae05nc/FcnG`IgJcGQGJ,~>
^Ae05o)J^ilMghaJcGQGJ,~>
^Ae05o)J^ilMghaJcGQGJ,~>
^Ae05o)J^ilMghaJcGQGJ,~>
^Ae05g&D$PJcGQGJ,~>
^Ae05g&D$PJcGQGJ,~>
^Ae05g&D$PJcGQGJ,~>
^Ae05nc&RhlMghaJcGQGJ,~>
^Ae05nc&RhlMghaJcGQGJ,~>
^Ae05nc&RhlMghaJcGQGJ,~>
^Ae05nc/FcnG`IgJcGQGJ,~>
^Ae05nc/FcnG`IgJcGQGJ,~>
^Ae05nc/FcnG`IgJcGQGJ,~>
^Ae05g&D$PJcGQGJ,~>
^Ae05g&D$PJcGQGJ,~>
^Ae05g&D$PJcGQGJ,~>
^Ae05g&D$PJcGQGJ,~>
^Ae05g&D$PJcGQGJ,~>
^Ae05g&D$PJcGQGJ,~>
^Ae05nc/FcnG`IgJcGQGJ,~>
^Ae05nc/FcnG`IgJcGQGJ,~>
^Ae05nc/FcnG`IgJcGQGJ,~>
^Ae05m/I%cn,E@fJcGQGJ,~>
^Ae05m/I%cn,E@fJcGQGJ,~>
^Ae05m/I%cn,E@fJcGQGJ,~>
^Ae05li-qbnG`IgJcGQGJ,~>
^Ae05li-qbnG`IgJcGQGJ,~>
^Ae05li-qbnG`IgJcGQGJ,~>
^Ae05li-qbnG`IgJcGQGJ,~>
^Ae05li-qbnG`IgJcGQGJ,~>
^Ae05li-qbnG`IgJcGQGJ,~>
^Ae05nc/FcnG`IgJcGQGJ,~>
^Ae05nc/FcnG`IgJcGQGJ,~>
^Ae05nc/FcnG`IgJcGQGJ,~>
^Ae05g&D$PJcGQGJ,~>
^Ae05g&D$PJcGQGJ,~>
^Ae05g&D$PJcGQGJ,~>
^Ae05g&D$PJcGQGJ,~>
^Ae05g&D$PJcGQGJ,~>
^Ae05g&D$PJcGQGJ,~>
^Ae05oD\jls8Vusn,E@fJcGQGJ,~>
^Ae05oD\jls8Vusn,E@fJcGQGJ,~>
^Ae05oD\jls8Vusn,E@fJcGQGJ,~>
^Ae05o`#!ns8N)ts8N)grr<%Ms7u\F~>
^Ae05o`#!ns8N)ts8N)grr<%Ms7u\F~>
^Ae05o`#!ns8N)ts8N)grr<%Ms7u\F~>
^Ae05o`"smrrDrr!!)Ngrr@WMqYu'~>
^Ae05o`"smrrDrr!!)Ngrr@WMqYu'~>
^Ae05o`"smrrDrr!!)Ngrr@WMqYu'~>
^]4<6o`#!ns8N)srr<&gs8N(Ms8)bG~>
^]4<6o`#!ns8N)srr<&gs8N(Ms8)bG~>
^]4<6o`#!ns8N)srr<&gs8N(Ms8)bG~>
^Ae05o`+pk!ri6#rr2run,E@fJcGQGJ,~>
^Ae05o`+pk!ri6#rr2run,E@fJcGQGJ,~>
^Ae05o`+pk!ri6#rr2run,E@fJcGQGJ,~>
^An35o`+[dnc/UhJcGQGJ,~>
^An35o`+[dnc/UhJcGQGJ,~>
^An35o`+[dnc/UhJcGQGJ,~>
^An35g].9RJcGQGJ,~>
^An35g].9RJcGQGJ,~>
^An35g].9RJcGQGJ,~>
^An04h#IBSJcGQGJ,~>
^An04h#IBSJcGQGJ,~>
^An04h#IBSJcGQGJ,~>
^&S*4h>dKTJcGNFJ,~>
^&S*4h>dKTJcGNFJ,~>
^&S*4h>dKTJcGNFJ,~>
]`8!3huEZUJcGNFJ,~>
]`8!3huEZUJcGNFJ,~>
]`8!3huEZUJcGNFJ,~>
]`8!3i;`cVJcGKEJ,~>
]`8!3i;`cVJcGKEJ,~>
]`8!3i;`cVJcGKEJ,~>
]Dqj1j8])YJcGHDJ,~>
]Dqj1j8])YJcGHDJ,~>
]Dqj1j8])YJcGHDJ,~>
])Va0jo>;[JcGECJ,~>
])Va0jo>;[JcGECJ,~>
])Va0jo>;[JcGECJ,~>
\c;X/kPtM]JcGBBJ,~>
\c;X/kPtM]JcGBBJ,~>
\c;X/kPtM]JcGBBJ,~>
\GuI,mJm(aJcG?AJ,~>
\GuI,mJm(aJcG?AJ,~>
\GuI,mJm(aJcG?AJ,~>
[f>LjJcG9?J,~>
[f>LjJcG9?J,~>
[f>LjJcG9?J,~>
ZiC%*nc/UhJcG0<J,~>
ZiC%*nc/UhJcG0<J,~>
ZiC%*nc/UhJcG0<J,~>
%%EndData
showpage
%%Trailer
end
%%EOF
